[gd_scene load_steps=4 format=2]

[ext_resource path="res://player/camera/crane/Crane.gd" type="Script" id=1]
[ext_resource path="res://player/cliptarget/ClipTargetRoot.tscn" type="PackedScene" id=2]
[ext_resource path="res://player/cliptarget/ClipTarget.tscn" type="PackedScene" id=3]

[node name="Crane" type="Spatial"]
script = ExtResource( 1 )
__meta__ = {
"_editor_description_": "A crane is an \"arm\" for a PlayerCamera.
Usually holds a BaseController."
}

[node name="ClipTargetRoot" parent="." instance=ExtResource( 2 )]
transform = Transform( 1, 0, 0, 0, 1, 0, 0, 0, 1, 0, 1.36, 0.498 )
distance = 3.0

[node name="ClipTarget" parent="ClipTargetRoot" instance=ExtResource( 3 )]
transform = Transform( 1, 0, 0, 0, 1, 0, 0, 0, 1, 0, 0, 3 )
