[gd_scene load_steps=5 format=2]

[ext_resource path="res://mesh/lod/tree/pinetree.obj" type="ArrayMesh" id=1]
[ext_resource path="res://texture/lod/pinetree1024.png" type="Texture" id=3]

[sub_resource type="Shader" id=1]
code = "shader_type spatial;
render_mode blend_mix,depth_draw_alpha_prepass,cull_disabled,diffuse_burley,specular_schlick_ggx;
uniform vec4 albedo : hint_color;
uniform sampler2D texture_albedo : hint_albedo;
uniform float specular;
uniform float metallic;
uniform float roughness : hint_range(0,1);
uniform float point_size : hint_range(0,128);
uniform vec3 uv1_scale;
uniform vec3 uv1_offset;
uniform vec3 uv2_scale;
uniform vec3 uv2_offset;


void vertex() {
	UV=UV*uv1_scale.xy+uv1_offset.xy;
}




void fragment() {
	vec2 base_uv = UV;
	vec4 albedo_tex = texture(texture_albedo,base_uv);
	ALBEDO = albedo.rgb * albedo_tex.rgb;
	METALLIC = metallic;
	ROUGHNESS = roughness;
	SPECULAR = specular;
	ALPHA = albedo.a * albedo_tex.a;
}
"

[sub_resource type="ShaderMaterial" id=2]
shader = SubResource( 1 )
shader_param/albedo = Color( 1, 1, 1, 1 )
shader_param/specular = 0.5
shader_param/metallic = 0.0
shader_param/roughness = 1.0
shader_param/point_size = 1.0
shader_param/uv1_scale = Vector3( 1, 1, 1 )
shader_param/uv1_offset = Vector3( 0, 0, 0 )
shader_param/uv2_scale = Vector3( 1, 1, 1 )
shader_param/uv2_offset = Vector3( 0, 0, 0 )
shader_param/texture_albedo = ExtResource( 3 )

[node name="PineTreeLOD0" type="Spatial"]

[node name="MeshInstance" type="MeshInstance" parent="."]
mesh = ExtResource( 1 )
material/0 = SubResource( 2 )
