[gd_scene load_steps=3 format=2]

[ext_resource path="res://player/observable/Observable.gd" type="Script" id=1]

[sub_resource type="SphereShape" id=1]
resource_local_to_scene = true

[node name="Observable" type="Spatial" groups=[
"observable",
"root_parent",
]]
script = ExtResource( 1 )

[node name="Area" type="Area" parent="." groups=[
"has_root_parent",
]]

[node name="CollisionShape" type="CollisionShape" parent="Area"]
shape = SubResource( 1 )
