[gd_scene load_steps=2 format=2]

[ext_resource path="res://game/Game.gd" type="Script" id=1]

[node name="Game" type="Spatial"]
script = ExtResource( 1 )
__meta__ = {
"_editor_description_": "Added to every game. Will be removed when loading a new save."
}
