[gd_scene load_steps=3 format=2]

[ext_resource path="res://world/bridge/bridge.glb" type="PackedScene" id=1]

[sub_resource type="ConcavePolygonShape" id=1]
data = PoolVector3Array( -0.0161, 0.387, 1.0315, -0.0161, 0.387, -0.9685, -0.0161, 0.387, -0.9685, -0.0161, 0.387, 1.0315, -0.0161, 0.387, 1.0315, -0.0161, 0.387, -0.9685, -0.0179, -0.5464, -0.965, 0.9947, -0.994, 1.0104, 0.9947, -0.994, -0.9896, -0.0179, -0.5464, -0.965, -0.0179, -0.5464, 1.035, 0.9947, -0.994, 1.0104, -0.0179, -0.5464, -0.965, -1.0053, -0.994, -0.9896, -1.0053, -0.994, -0.9896, -1.0053, -0.994, -0.9896, -0.8291, -0.5232, -0.9841, -0.9222, -0.7466, -0.987, -0.8291, -0.5232, -0.9841, -0.6219, -0.1489, -0.9778, -0.7282, -0.3242, -0.981, -0.6219, -0.1489, -0.9778, -0.4035, 0.1339, -0.9724, -0.5128, 0.0038, -0.9749, -0.4035, 0.1339, -0.9724, -0.1946, 0.3197, -0.9693, -0.2965, 0.2401, -0.9705, -0.0161, 0.387, -0.9685, -0.0161, 0.387, -0.9685, -0.0161, 0.387, -0.9685, 0.0684, 0.3697, -0.9687, 0.2664, 0.2401, -0.9705, 0.1633, 0.3197, -0.9693, 0.2664, 0.2401, -0.9705, 0.4872, 0.0038, -0.9749, 0.3753, 0.1339, -0.9724, 0.4872, 0.0038, -0.9749, 0.7088, -0.3242, -0.981, 0.5993, -0.1489, -0.9778, 0.7088, -0.3242, -0.981, 0.909, -0.7466, -0.987, 0.8129, -0.5232, -0.9841, 0.9947, -0.994, -0.9896, -0.0179, -0.5464, -0.965, 0.9947, -0.994, -0.9896, 0.7088, -0.3242, -0.981, 0.9947, -0.994, -0.9896, 0.909, -0.7466, -0.987, 0.2664, 0.2401, -0.9705, 0.7088, -0.3242, -0.981, 0.4872, 0.0038, -0.9749, -0.0161, 0.387, -0.9685, 0.0684, 0.3697, -0.9687, -0.0161, 0.387, -0.9685, -0.1946, 0.3197, -0.9693, -0.0161, 0.387, -0.9685, -0.1003, 0.3697, -0.9687, -0.6219, -0.1489, -0.9778, -0.1946, 0.3197, -0.9693, -0.4035, 0.1339, -0.9724, -1.0053, -0.994, -0.9896, -0.6219, -0.1489, -0.9778, -0.8291, -0.5232, -0.9841, 0.7088, -0.3242, -0.981, -0.0179, -0.5464, -0.965, 0.9947, -0.994, -0.9896, -0.0179, -0.5464, -0.965, -0.6219, -0.1489, -0.9778, -1.0053, -0.994, -0.9896, -0.6219, -0.1489, -0.9778, -0.0161, 0.387, -0.9685, -0.1946, 0.3197, -0.9693, -0.0161, 0.387, -0.9685, 0.2664, 0.2401, -0.9705, 0.0684, 0.3697, -0.9687, 0.2664, 0.2401, -0.9705, -0.0179, -0.5464, -0.965, 0.7088, -0.3242, -0.981, -0.0179, -0.5464, -0.965, -0.0161, 0.387, -0.9685, -0.6219, -0.1489, -0.9778, -0.0161, 0.387, -0.9685, -0.0179, -0.5464, -0.965, 0.2664, 0.2401, -0.9705, -1.0053, -0.994, 1.0104, -1.0053, -0.994, -0.9896, -1.0053, -0.994, -0.9896, -1.0053, -0.994, 1.0104, -1.0053, -0.994, 1.0104, -1.0053, -0.994, -0.9896, 0.9947, -0.994, -0.9896, 0.9947, -0.994, 1.0104, 0.9947, -0.994, -0.9896, 0.9947, -0.994, -0.9896, 0.9947, -0.994, 1.0104, 0.9947, -0.994, 1.0104, -0.0179, -0.5464, 1.035, 0.9947, -0.994, 1.0104, 0.9947, -0.994, 1.0104, 0.9947, -0.994, 1.0104, 0.8129, -0.5232, 1.0159, 0.909, -0.7466, 1.013, 0.8129, -0.5232, 1.0159, 0.5993, -0.1489, 1.0222, 0.7088, -0.3242, 1.019, 0.5993, -0.1489, 1.0222, 0.3753, 0.1339, 1.0276, 0.4872, 0.0038, 1.0251, 0.3753, 0.1339, 1.0276, 0.1633, 0.3197, 1.0307, 0.2664, 0.2401, 1.0295, -0.0161, 0.387, 1.0315, -0.0161, 0.387, 1.0315, -0.0161, 0.387, 1.0315, -0.1003, 0.3697, 1.0313, -0.2965, 0.2401, 1.0295, -0.1946, 0.3197, 1.0307, -0.2965, 0.2401, 1.0295, -0.5128, 0.0038, 1.0251, -0.4035, 0.1339, 1.0276, -0.5128, 0.0038, 1.0251, -0.7282, -0.3242, 1.019, -0.6219, -0.1489, 1.0222, -0.7282, -0.3242, 1.019, -0.9222, -0.7466, 1.013, -0.8291, -0.5232, 1.0159, -1.0053, -0.994, 1.0104, -0.0179, -0.5464, 1.035, -1.0053, -0.994, 1.0104, -0.7282, -0.3242, 1.019, -1.0053, -0.994, 1.0104, -0.9222, -0.7466, 1.013, -0.2965, 0.2401, 1.0295, -0.7282, -0.3242, 1.019, -0.5128, 0.0038, 1.0251, -0.0161, 0.387, 1.0315, -0.1003, 0.3697, 1.0313, -0.0161, 0.387, 1.0315, 0.1633, 0.3197, 1.0307, -0.0161, 0.387, 1.0315, 0.0684, 0.3697, 1.0313, 0.5993, -0.1489, 1.0222, 0.1633, 0.3197, 1.0307, 0.3753, 0.1339, 1.0276, 0.9947, -0.994, 1.0104, 0.5993, -0.1489, 1.0222, 0.8129, -0.5232, 1.0159, -0.7282, -0.3242, 1.019, -0.0179, -0.5464, 1.035, -1.0053, -0.994, 1.0104, -0.0179, -0.5464, 1.035, 0.5993, -0.1489, 1.0222, 0.9947, -0.994, 1.0104, 0.5993, -0.1489, 1.0222, -0.0161, 0.387, 1.0315, 0.1633, 0.3197, 1.0307, -0.0161, 0.387, 1.0315, -0.2965, 0.2401, 1.0295, -0.1003, 0.3697, 1.0313, -0.2965, 0.2401, 1.0295, -0.0179, -0.5464, 1.035, -0.7282, -0.3242, 1.019, -0.0179, -0.5464, 1.035, -0.0161, 0.387, 1.0315, 0.5993, -0.1489, 1.0222, -0.0161, 0.387, 1.0315, -0.0179, -0.5464, 1.035, -0.2965, 0.2401, 1.0295, -1.0053, -0.994, -0.9896, -0.9222, -0.7466, 1.013, -1.0053, -0.994, 1.0104, -1.0053, -0.994, -0.9896, -0.9222, -0.7466, -0.987, -0.9222, -0.7466, 1.013, -0.9222, -0.7466, -0.987, -0.8291, -0.5232, 1.0159, -0.9222, -0.7466, 1.013, -0.9222, -0.7466, -0.987, -0.8291, -0.5232, -0.9841, -0.8291, -0.5232, 1.0159, -0.8291, -0.5232, -0.9841, -0.7282, -0.3242, 1.019, -0.8291, -0.5232, 1.0159, -0.8291, -0.5232, -0.9841, -0.7282, -0.3242, -0.981, -0.7282, -0.3242, 1.019, -0.7282, -0.3242, -0.981, -0.6219, -0.1489, 1.0222, -0.7282, -0.3242, 1.019, -0.7282, -0.3242, -0.981, -0.6219, -0.1489, -0.9778, -0.6219, -0.1489, 1.0222, -0.6219, -0.1489, -0.9778, -0.5128, 0.0038, 1.0251, -0.6219, -0.1489, 1.0222, -0.6219, -0.1489, -0.9778, -0.5128, 0.0038, -0.9749, -0.5128, 0.0038, 1.0251, -0.5128, 0.0038, -0.9749, -0.4035, 0.1339, 1.0276, -0.5128, 0.0038, 1.0251, -0.5128, 0.0038, -0.9749, -0.4035, 0.1339, -0.9724, -0.4035, 0.1339, 1.0276, -0.4035, 0.1339, -0.9724, -0.2965, 0.2401, 1.0295, -0.4035, 0.1339, 1.0276, -0.4035, 0.1339, -0.9724, -0.2965, 0.2401, -0.9705, -0.2965, 0.2401, 1.0295, -0.2965, 0.2401, -0.9705, -0.1946, 0.3197, 1.0307, -0.2965, 0.2401, 1.0295, -0.2965, 0.2401, -0.9705, -0.1946, 0.3197, -0.9693, -0.1946, 0.3197, 1.0307, -0.1946, 0.3197, -0.9693, -0.1003, 0.3697, 1.0313, -0.1946, 0.3197, 1.0307, -0.1946, 0.3197, -0.9693, -0.1003, 0.3697, -0.9687, -0.1003, 0.3697, 1.0313, -0.1003, 0.3697, -0.9687, -0.0161, 0.387, 1.0315, -0.1003, 0.3697, 1.0313, -0.1003, 0.3697, -0.9687, -0.0161, 0.387, -0.9685, -0.0161, 0.387, 1.0315, -0.0161, 0.387, -0.9685, 0.0684, 0.3697, 1.0313, -0.0161, 0.387, 1.0315, -0.0161, 0.387, -0.9685, 0.0684, 0.3697, -0.9687, 0.0684, 0.3697, 1.0313, 0.0684, 0.3697, -0.9687, 0.1633, 0.3197, 1.0307, 0.0684, 0.3697, 1.0313, 0.0684, 0.3697, -0.9687, 0.1633, 0.3197, -0.9693, 0.1633, 0.3197, 1.0307, 0.1633, 0.3197, -0.9693, 0.2664, 0.2401, 1.0295, 0.1633, 0.3197, 1.0307, 0.1633, 0.3197, -0.9693, 0.2664, 0.2401, -0.9705, 0.2664, 0.2401, 1.0295, 0.2664, 0.2401, -0.9705, 0.3753, 0.1339, 1.0276, 0.2664, 0.2401, 1.0295, 0.2664, 0.2401, -0.9705, 0.3753, 0.1339, -0.9724, 0.3753, 0.1339, 1.0276, 0.3753, 0.1339, -0.9724, 0.4872, 0.0038, 1.0251, 0.3753, 0.1339, 1.0276, 0.3753, 0.1339, -0.9724, 0.4872, 0.0038, -0.9749, 0.4872, 0.0038, 1.0251, 0.4872, 0.0038, -0.9749, 0.5993, -0.1489, 1.0222, 0.4872, 0.0038, 1.0251, 0.4872, 0.0038, -0.9749, 0.5993, -0.1489, -0.9778, 0.5993, -0.1489, 1.0222, 0.5993, -0.1489, -0.9778, 0.7088, -0.3242, 1.019, 0.5993, -0.1489, 1.0222, 0.5993, -0.1489, -0.9778, 0.7088, -0.3242, -0.981, 0.7088, -0.3242, 1.019, 0.7088, -0.3242, -0.981, 0.8129, -0.5232, 1.0159, 0.7088, -0.3242, 1.019, 0.7088, -0.3242, -0.981, 0.8129, -0.5232, -0.9841, 0.8129, -0.5232, 1.0159, 0.8129, -0.5232, -0.9841, 0.909, -0.7466, 1.013, 0.8129, -0.5232, 1.0159, 0.8129, -0.5232, -0.9841, 0.909, -0.7466, -0.987, 0.909, -0.7466, 1.013, 0.909, -0.7466, -0.987, 0.9947, -0.994, 1.0104, 0.909, -0.7466, 1.013, 0.909, -0.7466, -0.987, 0.9947, -0.994, -0.9896, 0.9947, -0.994, 1.0104, -0.0161, 0.387, -0.9685, -0.0161, 0.387, 1.0315, -0.0161, 0.387, -0.9685, -0.0161, 0.387, -0.9685, -0.0161, 0.387, 1.0315, -0.0161, 0.387, 1.0315, -1.0053, -0.994, -0.9896, -0.0179, -0.5464, 1.035, -0.0179, -0.5464, -0.965, -1.0053, -0.994, -0.9896, -1.0053, -0.994, 1.0104, -0.0179, -0.5464, 1.035 )

[node name="bridge" instance=ExtResource( 1 )]

[node name="StaticBody" type="StaticBody" parent="Cube" index="0"]

[node name="CollisionShape" type="CollisionShape" parent="Cube/StaticBody" index="0"]
shape = SubResource( 1 )
