[gd_scene load_steps=5 format=2]

[ext_resource path="res://mesh/foliage/gen/cone0.obj" type="ArrayMesh" id=1]
[ext_resource path="res://mesh/foliage/gen/leaf0.obj" type="ArrayMesh" id=2]
[ext_resource path="res://world/foliage/gen/shoot/Shoot.gd" type="Script" id=3]

[sub_resource type="SpatialMaterial" id=1]
resource_local_to_scene = true
flags_vertex_lighting = true
params_cull_mode = 2
albedo_color = Color( 0, 0.6, 0, 1 )

[node name="Shoot" type="Spatial"]
script = ExtResource( 3 )
tweak = 0.896
tweak2 = 0.698

[node name="Trunk" type="Spatial" parent="."]
transform = Transform( 0, 0, 0, 0, 0, 0, 0, 0, 0, 0, 0, 0 )

[node name="MeshInstance" type="MeshInstance" parent="Trunk"]
transform = Transform( 0.5, 0, 0, 0, 0.5, 0, 0, 0, 0.5, 0, 0.5, 0 )
material_override = SubResource( 1 )
mesh = ExtResource( 1 )
material/0 = null

[node name="Leaf" type="Spatial" parent="."]
transform = Transform( 0, 0, 0, 0, 0, 0, 0, 0, 0, 0, 0, 0 )

[node name="MeshInstance" type="MeshInstance" parent="Leaf"]
transform = Transform( 1, 0, 0, 0, -4.37114e-08, 1, 0, -1, -4.37114e-08, 0, 1, 0 )
material_override = SubResource( 1 )
mesh = ExtResource( 2 )
material/0 = null
