[gd_scene load_steps=2 format=2]

[ext_resource path="res://world/foliage/gen/shoot/ShootGen.gd" type="Script" id=1]

[node name="ShootGen" type="Spatial"]
script = ExtResource( 1 )

[node name="Root" type="Spatial" parent="." groups=[
"shoot_gen_root",
]]
