[gd_scene load_steps=3 format=2]

[ext_resource path="res://actor/common/sensor/interact_zone/InteractZone.gd" type="Script" id=1]

[sub_resource type="SphereShape" id=1]
radius = 0.5

[node name="InteractZone" type="Area"]
collision_layer = 524801
collision_mask = 524801
script = ExtResource( 1 )

[node name="CollisionShape" type="CollisionShape" parent="."]
shape = SubResource( 1 )
