[gd_scene load_steps=3 format=2]

[ext_resource path="res://actor/person/skeleton/rigidbodies/upperbody/UpperBody.gd" type="Script" id=1]

[sub_resource type="BoxShape" id=1]
extents = Vector3( 0.250437, 0.346536, 0.127251 )

[node name="UpperBody" type="RigidBody"]
transform = Transform( 1, 0, 0, 0, 1, 0, 0, 0, 1, 0, 0, 0.1 )
script = ExtResource( 1 )
variant = 1

[node name="Variants" type="Spatial" parent="."]
transform = Transform( 1, 0, 0, 0, 1, 0, 0, 0, 1, 0, 0, -0.1 )

[node name="CollisionShape" type="CollisionShape" parent="."]
transform = Transform( 1, 0, 0, 0, 1, 0, 0, 0, 1, 0, 0.30064, -0.1 )
shape = SubResource( 1 )
