[gd_scene load_steps=3 format=2]

[ext_resource path="res://sound/noisemaker/NoiseMaker.gd" type="Script" id=1]

[sub_resource type="SphereShape" id=1]
radius = 5.0

[node name="NoiseMaker" type="Spatial" groups=[
"makes_sound",
"root_parent",
]]
script = ExtResource( 1 )

[node name="Timer" type="Timer" parent="."]
one_shot = true

[node name="Area" type="Area" parent="." groups=[
"has_root_parent",
]]
collision_layer = 65536
collision_mask = 65536

[node name="CollisionShape" type="CollisionShape" parent="Area"]
shape = SubResource( 1 )
[connection signal="timeout" from="Timer" to="." method="_on_Timer_timeout"]
