[gd_scene load_steps=4 format=2]

[ext_resource path="res://mesh/exterior/chopping_block.obj" type="ArrayMesh" id=1]
[ext_resource path="res://material/house/WallExterior.tres" type="Material" id=2]

[sub_resource type="ConvexPolygonShape" id=1]
points = PoolVector3Array( -0.493337, 0.188487, -0.024473, 0.002559, 0.188487, -0.009425, -0.357323, 0.188487, 0.325832, -0.002914, 0.188487, 0.470054, -0.002914, -0.188487, 0.470054, -0.357323, 0.188487, 0.325832, -0.357323, -0.188487, 0.325832, -0.493337, 0.188487, -0.024473, -0.493337, -0.188487, -0.024473, -0.347062, 0.188487, -0.36201, -0.347062, -0.188487, -0.36201, 0.500279, -0.188487, -0.042714, 0.002559, -0.188487, -0.009425, 0.358336, -0.188487, 0.34088, 0.500279, 0.188487, -0.042714, 0.500279, -0.188487, -0.042714, 0.358336, 0.188487, 0.34088, 0.358336, -0.188487, 0.34088, 0.021712, 0.188487, -0.487535, 0.021712, -0.188487, -0.487535, 0.363808, 0.188487, -0.380251, 0.363808, -0.188487, -0.380251, 0.363808, -0.188487, -0.380251, -0.357323, 0.188487, 0.325832, -0.357323, -0.188487, 0.325832, -0.347062, 0.188487, -0.36201, 0.021712, 0.188487, -0.487535, 0.363808, 0.188487, -0.380251, 0.021712, -0.188487, -0.487535, -0.347062, -0.188487, -0.36201, -0.002914, -0.188487, 0.470054, -0.357323, -0.188487, 0.325832, -0.002914, 0.188487, 0.470054, 0.358336, 0.188487, 0.34088, 0.500279, 0.188487, -0.042714, -0.493337, -0.188487, -0.024473 )

[node name="ChoppingBlock" type="StaticBody" groups=[
"flammable",
]]

[node name="MeshInstance" type="MeshInstance" parent="."]
transform = Transform( 1, 0, 0, 0, 1, 0, 0, 0, 1, 0, 0.178533, 0 )
material_override = ExtResource( 2 )
mesh = ExtResource( 1 )
material/0 = null

[node name="CollisionShape" type="CollisionShape" parent="."]
transform = Transform( 1, 0, 0, 0, 1, 0, 0, 0, 1, 0, 0.178533, 0 )
shape = SubResource( 1 )
