[gd_scene load_steps=3 format=2]

[ext_resource path="res://mesh/exterior/pot.obj" type="ArrayMesh" id=1]
[ext_resource path="res://material/furniture/woodplanks.tres" type="Material" id=2]

[node name="Pot" type="Spatial"]

[node name="MeshInstance" type="MeshInstance" parent="."]
material_override = ExtResource( 2 )
mesh = ExtResource( 1 )
material/0 = null
