[gd_scene load_steps=4 format=2]

[ext_resource path="res://world/exterior/Pot.tscn" type="PackedScene" id=1]
[ext_resource path="res://mesh/exterior/pot_dirt.obj" type="ArrayMesh" id=2]

[sub_resource type="SpatialMaterial" id=1]
albedo_color = Color( 0.196078, 0.0823529, 0, 1 )

[node name="PotWithDirt" type="Spatial"]

[node name="Dirt" type="MeshInstance" parent="."]
mesh = ExtResource( 2 )
material/0 = SubResource( 1 )

[node name="Pot" parent="." instance=ExtResource( 1 )]
