[gd_scene load_steps=17 format=2]

[sub_resource type="SpatialMaterial" id=1]
vertex_color_use_as_albedo = true

[sub_resource type="ArrayMesh" id=2]
resource_name = "Plank"
surfaces/0 = {
"aabb": AABB( -1, -1, -1, 2, 2, 2.00001 ),
"array_data": PoolByteArray( 0, 0, 128, 191, 0, 0, 128, 191, 0, 0, 128, 63, 129, 0, 0, 0, 0, 127, 0, 127, 0, 54, 0, 60, 0, 0, 128, 191, 0, 0, 128, 191, 0, 0, 128, 63, 0, 129, 0, 0, 127, 0, 0, 127, 0, 48, 0, 52, 0, 0, 128, 191, 0, 0, 128, 191, 0, 0, 128, 63, 0, 0, 127, 0, 0, 127, 0, 127, 0, 54, 0, 0, 0, 0, 128, 191, 0, 0, 128, 63, 0, 0, 128, 63, 129, 0, 0, 0, 0, 127, 0, 127, 0, 57, 0, 60, 0, 0, 128, 191, 0, 0, 128, 63, 0, 0, 128, 63, 0, 0, 127, 0, 0, 127, 0, 127, 0, 57, 0, 0, 0, 0, 128, 191, 0, 0, 128, 63, 0, 0, 128, 63, 0, 127, 0, 0, 129, 0, 0, 127, 0, 59, 0, 52, 0, 0, 128, 191, 0, 0, 128, 191, 0, 0, 128, 191, 129, 0, 0, 0, 0, 127, 0, 127, 0, 54, 0, 58, 0, 0, 128, 191, 0, 0, 128, 191, 0, 0, 128, 191, 0, 129, 0, 0, 127, 0, 0, 127, 0, 48, 0, 56, 0, 0, 128, 191, 0, 0, 128, 191, 0, 0, 128, 191, 0, 0, 129, 0, 0, 127, 0, 127, 0, 54, 0, 58, 0, 0, 128, 191, 0, 0, 128, 63, 0, 0, 128, 191, 129, 0, 0, 0, 0, 127, 0, 127, 0, 57, 0, 58, 0, 0, 128, 191, 0, 0, 128, 63, 0, 0, 128, 191, 0, 0, 129, 0, 0, 127, 0, 127, 0, 57, 0, 58, 0, 0, 128, 191, 0, 0, 128, 63, 0, 0, 128, 191, 0, 127, 0, 0, 129, 0, 0, 127, 0, 59, 0, 56, 0, 0, 128, 63, 0, 0, 128, 191, 0, 0, 128, 63, 0, 129, 0, 0, 127, 0, 0, 127, 0, 54, 0, 52, 0, 0, 128, 63, 0, 0, 128, 191, 0, 0, 128, 63, 0, 0, 127, 0, 0, 127, 0, 127, 0, 54, 0, 52, 0, 0, 128, 63, 0, 0, 128, 191, 0, 0, 128, 63, 127, 0, 0, 0, 0, 127, 0, 127, 0, 54, 0, 52, 0, 0, 128, 63, 0, 0, 128, 63, 0, 0, 128, 63, 0, 0, 127, 0, 0, 127, 0, 127, 0, 57, 0, 52, 0, 0, 128, 63, 0, 0, 128, 63, 0, 0, 128, 63, 0, 127, 0, 0, 129, 0, 0, 127, 0, 57, 0, 52, 0, 0, 128, 63, 0, 0, 128, 63, 0, 0, 128, 63, 127, 0, 0, 0, 0, 127, 0, 127, 0, 57, 0, 52, 0, 0, 128, 63, 0, 0, 128, 191, 0, 0, 128, 191, 0, 129, 0, 0, 127, 0, 0, 127, 0, 54, 0, 56, 0, 0, 128, 63, 0, 0, 128, 191, 0, 0, 128, 191, 0, 0, 129, 0, 0, 127, 0, 127, 0, 54, 0, 56, 0, 0, 128, 63, 0, 0, 128, 191, 0, 0, 128, 191, 127, 0, 0, 0, 0, 127, 0, 127, 0, 54, 0, 56, 0, 0, 128, 63, 0, 0, 128, 63, 0, 0, 128, 191, 0, 0, 129, 0, 0, 127, 0, 127, 0, 57, 0, 56, 0, 0, 128, 63, 0, 0, 128, 63, 0, 0, 128, 191, 0, 127, 0, 0, 129, 0, 0, 127, 0, 57, 0, 56, 0, 0, 128, 63, 0, 0, 128, 63, 0, 0, 128, 191, 127, 0, 0, 0, 0, 127, 0, 127, 0, 57, 0, 56 ),
"array_index_data": PoolByteArray( 0, 0, 9, 0, 3, 0, 0, 0, 6, 0, 9, 0, 8, 0, 21, 0, 10, 0, 8, 0, 19, 0, 21, 0, 20, 0, 17, 0, 23, 0, 20, 0, 14, 0, 17, 0, 13, 0, 4, 0, 15, 0, 13, 0, 2, 0, 4, 0, 7, 0, 12, 0, 18, 0, 7, 0, 1, 0, 12, 0, 22, 0, 5, 0, 11, 0, 22, 0, 16, 0, 5, 0 ),
"blend_shape_data": [  ],
"format": 97559,
"index_count": 36,
"material": SubResource( 1 ),
"primitive": 4,
"skeleton_aabb": [  ],
"vertex_count": 24
}

[sub_resource type="SpatialMaterial" id=3]
vertex_color_use_as_albedo = true

[sub_resource type="ArrayMesh" id=4]
resource_name = "Plank3"
surfaces/0 = {
"aabb": AABB( -1, -1, -1, 2, 2, 2.00001 ),
"array_data": PoolByteArray( 0, 0, 128, 191, 0, 0, 128, 191, 0, 0, 128, 63, 129, 0, 0, 0, 0, 127, 0, 127, 0, 54, 0, 60, 0, 0, 128, 191, 0, 0, 128, 191, 0, 0, 128, 63, 0, 129, 0, 0, 127, 0, 0, 127, 0, 48, 0, 52, 0, 0, 128, 191, 0, 0, 128, 191, 0, 0, 128, 63, 0, 0, 127, 0, 0, 127, 0, 127, 0, 54, 0, 0, 0, 0, 128, 191, 0, 0, 128, 63, 0, 0, 128, 63, 129, 0, 0, 0, 0, 127, 0, 127, 0, 57, 0, 60, 0, 0, 128, 191, 0, 0, 128, 63, 0, 0, 128, 63, 0, 0, 127, 0, 0, 127, 0, 127, 0, 57, 0, 0, 0, 0, 128, 191, 0, 0, 128, 63, 0, 0, 128, 63, 0, 127, 0, 0, 129, 0, 0, 127, 0, 59, 0, 52, 0, 0, 128, 191, 0, 0, 128, 191, 0, 0, 128, 191, 129, 0, 0, 0, 0, 127, 0, 127, 0, 54, 0, 58, 0, 0, 128, 191, 0, 0, 128, 191, 0, 0, 128, 191, 0, 129, 0, 0, 127, 0, 0, 127, 0, 48, 0, 56, 0, 0, 128, 191, 0, 0, 128, 191, 0, 0, 128, 191, 0, 0, 129, 0, 0, 127, 0, 127, 0, 54, 0, 58, 0, 0, 128, 191, 0, 0, 128, 63, 0, 0, 128, 191, 129, 0, 0, 0, 0, 127, 0, 127, 0, 57, 0, 58, 0, 0, 128, 191, 0, 0, 128, 63, 0, 0, 128, 191, 0, 0, 129, 0, 0, 127, 0, 127, 0, 57, 0, 58, 0, 0, 128, 191, 0, 0, 128, 63, 0, 0, 128, 191, 0, 127, 0, 0, 129, 0, 0, 127, 0, 59, 0, 56, 0, 0, 128, 63, 0, 0, 128, 191, 0, 0, 128, 63, 0, 129, 0, 0, 127, 0, 0, 127, 0, 54, 0, 52, 0, 0, 128, 63, 0, 0, 128, 191, 0, 0, 128, 63, 0, 0, 127, 0, 0, 127, 0, 127, 0, 54, 0, 52, 0, 0, 128, 63, 0, 0, 128, 191, 0, 0, 128, 63, 127, 0, 0, 0, 0, 127, 0, 127, 0, 54, 0, 52, 0, 0, 128, 63, 0, 0, 128, 63, 0, 0, 128, 63, 0, 0, 127, 0, 0, 127, 0, 127, 0, 57, 0, 52, 0, 0, 128, 63, 0, 0, 128, 63, 0, 0, 128, 63, 0, 127, 0, 0, 129, 0, 0, 127, 0, 57, 0, 52, 0, 0, 128, 63, 0, 0, 128, 63, 0, 0, 128, 63, 127, 0, 0, 0, 0, 127, 0, 127, 0, 57, 0, 52, 0, 0, 128, 63, 0, 0, 128, 191, 0, 0, 128, 191, 0, 129, 0, 0, 127, 0, 0, 127, 0, 54, 0, 56, 0, 0, 128, 63, 0, 0, 128, 191, 0, 0, 128, 191, 0, 0, 129, 0, 0, 127, 0, 127, 0, 54, 0, 56, 0, 0, 128, 63, 0, 0, 128, 191, 0, 0, 128, 191, 127, 0, 0, 0, 0, 127, 0, 127, 0, 54, 0, 56, 0, 0, 128, 63, 0, 0, 128, 63, 0, 0, 128, 191, 0, 0, 129, 0, 0, 127, 0, 127, 0, 57, 0, 56, 0, 0, 128, 63, 0, 0, 128, 63, 0, 0, 128, 191, 0, 127, 0, 0, 129, 0, 0, 127, 0, 57, 0, 56, 0, 0, 128, 63, 0, 0, 128, 63, 0, 0, 128, 191, 127, 0, 0, 0, 0, 127, 0, 127, 0, 57, 0, 56 ),
"array_index_data": PoolByteArray( 0, 0, 9, 0, 3, 0, 0, 0, 6, 0, 9, 0, 8, 0, 21, 0, 10, 0, 8, 0, 19, 0, 21, 0, 20, 0, 17, 0, 23, 0, 20, 0, 14, 0, 17, 0, 13, 0, 4, 0, 15, 0, 13, 0, 2, 0, 4, 0, 7, 0, 12, 0, 18, 0, 7, 0, 1, 0, 12, 0, 22, 0, 5, 0, 11, 0, 22, 0, 16, 0, 5, 0 ),
"blend_shape_data": [  ],
"format": 97559,
"index_count": 36,
"material": SubResource( 3 ),
"primitive": 4,
"skeleton_aabb": [  ],
"vertex_count": 24
}

[sub_resource type="SpatialMaterial" id=5]
vertex_color_use_as_albedo = true

[sub_resource type="ArrayMesh" id=6]
resource_name = "Plank2"
surfaces/0 = {
"aabb": AABB( -1, -1, -1, 2, 2, 2.00001 ),
"array_data": PoolByteArray( 0, 0, 128, 191, 0, 0, 128, 191, 0, 0, 128, 63, 129, 0, 0, 0, 0, 127, 0, 127, 0, 54, 0, 60, 0, 0, 128, 191, 0, 0, 128, 191, 0, 0, 128, 63, 0, 129, 0, 0, 127, 0, 0, 127, 0, 48, 0, 52, 0, 0, 128, 191, 0, 0, 128, 191, 0, 0, 128, 63, 0, 0, 127, 0, 0, 127, 0, 127, 0, 54, 0, 0, 0, 0, 128, 191, 0, 0, 128, 63, 0, 0, 128, 63, 129, 0, 0, 0, 0, 127, 0, 127, 0, 57, 0, 60, 0, 0, 128, 191, 0, 0, 128, 63, 0, 0, 128, 63, 0, 0, 127, 0, 0, 127, 0, 127, 0, 57, 0, 0, 0, 0, 128, 191, 0, 0, 128, 63, 0, 0, 128, 63, 0, 127, 0, 0, 129, 0, 0, 127, 0, 59, 0, 52, 0, 0, 128, 191, 0, 0, 128, 191, 0, 0, 128, 191, 129, 0, 0, 0, 0, 127, 0, 127, 0, 54, 0, 58, 0, 0, 128, 191, 0, 0, 128, 191, 0, 0, 128, 191, 0, 129, 0, 0, 127, 0, 0, 127, 0, 48, 0, 56, 0, 0, 128, 191, 0, 0, 128, 191, 0, 0, 128, 191, 0, 0, 129, 0, 0, 127, 0, 127, 0, 54, 0, 58, 0, 0, 128, 191, 0, 0, 128, 63, 0, 0, 128, 191, 129, 0, 0, 0, 0, 127, 0, 127, 0, 57, 0, 58, 0, 0, 128, 191, 0, 0, 128, 63, 0, 0, 128, 191, 0, 0, 129, 0, 0, 127, 0, 127, 0, 57, 0, 58, 0, 0, 128, 191, 0, 0, 128, 63, 0, 0, 128, 191, 0, 127, 0, 0, 129, 0, 0, 127, 0, 59, 0, 56, 0, 0, 128, 63, 0, 0, 128, 191, 0, 0, 128, 63, 0, 129, 0, 0, 127, 0, 0, 127, 0, 54, 0, 52, 0, 0, 128, 63, 0, 0, 128, 191, 0, 0, 128, 63, 0, 0, 127, 0, 0, 127, 0, 127, 0, 54, 0, 52, 0, 0, 128, 63, 0, 0, 128, 191, 0, 0, 128, 63, 127, 0, 0, 0, 0, 127, 0, 127, 0, 54, 0, 52, 0, 0, 128, 63, 0, 0, 128, 63, 0, 0, 128, 63, 0, 0, 127, 0, 0, 127, 0, 127, 0, 57, 0, 52, 0, 0, 128, 63, 0, 0, 128, 63, 0, 0, 128, 63, 0, 127, 0, 0, 129, 0, 0, 127, 0, 57, 0, 52, 0, 0, 128, 63, 0, 0, 128, 63, 0, 0, 128, 63, 127, 0, 0, 0, 0, 127, 0, 127, 0, 57, 0, 52, 0, 0, 128, 63, 0, 0, 128, 191, 0, 0, 128, 191, 0, 129, 0, 0, 127, 0, 0, 127, 0, 54, 0, 56, 0, 0, 128, 63, 0, 0, 128, 191, 0, 0, 128, 191, 0, 0, 129, 0, 0, 127, 0, 127, 0, 54, 0, 56, 0, 0, 128, 63, 0, 0, 128, 191, 0, 0, 128, 191, 127, 0, 0, 0, 0, 127, 0, 127, 0, 54, 0, 56, 0, 0, 128, 63, 0, 0, 128, 63, 0, 0, 128, 191, 0, 0, 129, 0, 0, 127, 0, 127, 0, 57, 0, 56, 0, 0, 128, 63, 0, 0, 128, 63, 0, 0, 128, 191, 0, 127, 0, 0, 129, 0, 0, 127, 0, 57, 0, 56, 0, 0, 128, 63, 0, 0, 128, 63, 0, 0, 128, 191, 127, 0, 0, 0, 0, 127, 0, 127, 0, 57, 0, 56 ),
"array_index_data": PoolByteArray( 0, 0, 9, 0, 3, 0, 0, 0, 6, 0, 9, 0, 8, 0, 21, 0, 10, 0, 8, 0, 19, 0, 21, 0, 20, 0, 17, 0, 23, 0, 20, 0, 14, 0, 17, 0, 13, 0, 4, 0, 15, 0, 13, 0, 2, 0, 4, 0, 7, 0, 12, 0, 18, 0, 7, 0, 1, 0, 12, 0, 22, 0, 5, 0, 11, 0, 22, 0, 16, 0, 5, 0 ),
"blend_shape_data": [  ],
"format": 97559,
"index_count": 36,
"material": SubResource( 5 ),
"primitive": 4,
"skeleton_aabb": [  ],
"vertex_count": 24
}

[sub_resource type="SpatialMaterial" id=7]
vertex_color_use_as_albedo = true

[sub_resource type="ArrayMesh" id=8]
resource_name = "Cylinder"
surfaces/0 = {
"aabb": AABB( -1, -1, -1, 2, 2, 2 ),
"array_data": PoolByteArray( 0, 0, 0, 0, 0, 0, 128, 191, 0, 0, 128, 191, 244, 0, 130, 0, 130, 0, 12, 127, 0, 0, 0, 56, 0, 0, 0, 0, 0, 0, 128, 191, 0, 0, 128, 191, 0, 130, 0, 0, 126, 0, 0, 129, 0, 58, 20, 56, 0, 0, 0, 0, 0, 0, 128, 191, 0, 0, 128, 191, 12, 0, 130, 0, 130, 0, 244, 127, 0, 60, 0, 56, 0, 0, 0, 0, 0, 0, 128, 63, 0, 0, 128, 191, 244, 0, 130, 0, 130, 0, 12, 127, 0, 0, 0, 0, 0, 0, 0, 0, 0, 0, 128, 63, 0, 0, 128, 191, 12, 0, 130, 0, 130, 0, 244, 127, 0, 60, 0, 0, 194, 197, 71, 62, 0, 0, 128, 191, 190, 20, 123, 191, 0, 130, 0, 0, 127, 0, 0, 129, 95, 58, 29, 56, 194, 197, 71, 62, 0, 0, 128, 191, 190, 20, 123, 191, 12, 0, 130, 0, 130, 0, 244, 127, 192, 59, 0, 56, 194, 197, 71, 62, 0, 0, 128, 191, 190, 20, 123, 191, 36, 0, 135, 0, 135, 0, 220, 127, 192, 59, 0, 56, 194, 197, 71, 62, 0, 0, 128, 63, 190, 20, 123, 191, 12, 0, 130, 0, 130, 0, 244, 127, 192, 59, 0, 0, 194, 197, 71, 62, 0, 0, 128, 63, 190, 20, 123, 191, 36, 0, 135, 0, 135, 0, 220, 127, 192, 59, 0, 0, 22, 239, 195, 62, 0, 0, 128, 191, 94, 131, 108, 191, 0, 130, 0, 0, 127, 0, 0, 129, 188, 58, 57, 56, 22, 239, 195, 62, 0, 0, 128, 191, 94, 131, 108, 191, 36, 0, 135, 0, 135, 0, 220, 127, 128, 59, 0, 56, 22, 239, 195, 62, 0, 0, 128, 191, 94, 131, 108, 191, 59, 0, 144, 0, 144, 0, 197, 127, 128, 59, 0, 56, 22, 239, 195, 62, 0, 0, 128, 63, 94, 131, 108, 191, 36, 0, 135, 0, 135, 0, 220, 127, 128, 59, 0, 0, 22, 239, 195, 62, 0, 0, 128, 63, 94, 131, 108, 191, 59, 0, 144, 0, 144, 0, 197, 127, 128, 59, 0, 0, 218, 57, 14, 63, 0, 0, 128, 191, 49, 219, 84, 191, 0, 130, 0, 0, 126, 0, 0, 129, 17, 59, 103, 56, 218, 57, 14, 63, 0, 0, 128, 191, 49, 219, 84, 191, 59, 0, 144, 0, 144, 0, 197, 127, 64, 59, 0, 56, 218, 57, 14, 63, 0, 0, 128, 191, 49, 219, 84, 191, 80, 0, 158, 0, 158, 0, 176, 127, 64, 59, 0, 56, 218, 57, 14, 63, 0, 0, 128, 63, 49, 219, 84, 191, 59, 0, 144, 0, 144, 0, 197, 127, 64, 59, 0, 0, 218, 57, 14, 63, 0, 0, 128, 63, 49, 219, 84, 191, 80, 0, 158, 0, 158, 0, 176, 127, 64, 59, 0, 0, 243, 4, 53, 63, 0, 0, 128, 191, 243, 4, 53, 191, 0, 130, 0, 0, 126, 0, 0, 129, 91, 59, 164, 56, 243, 4, 53, 63, 0, 0, 128, 191, 243, 4, 53, 191, 80, 0, 158, 0, 158, 0, 176, 127, 0, 59, 0, 56, 243, 4, 53, 63, 0, 0, 128, 191, 243, 4, 53, 191, 98, 0, 176, 0, 176, 0, 158, 127, 0, 59, 0, 56, 243, 4, 53, 63, 0, 0, 128, 63, 243, 4, 53, 191, 80, 0, 158, 0, 158, 0, 176, 127, 0, 59, 0, 0, 243, 4, 53, 63, 0, 0, 128, 63, 243, 4, 53, 191, 98, 0, 176, 0, 176, 0, 158, 127, 0, 59, 0, 0, 49, 219, 84, 63, 0, 0, 128, 191, 218, 57, 14, 191, 0, 130, 0, 0, 127, 0, 0, 129, 152, 59, 238, 56, 49, 219, 84, 63, 0, 0, 128, 191, 218, 57, 14, 191, 98, 0, 176, 0, 176, 0, 158, 127, 192, 58, 0, 56, 49, 219, 84, 63, 0, 0, 128, 191, 218, 57, 14, 191, 112, 0, 197, 0, 197, 0, 144, 127, 192, 58, 0, 56, 49, 219, 84, 63, 0, 0, 128, 63, 218, 57, 14, 191, 98, 0, 176, 0, 176, 0, 158, 127, 192, 58, 0, 0, 49, 219, 84, 63, 0, 0, 128, 63, 218, 57, 14, 191, 112, 0, 197, 0, 197, 0, 144, 127, 192, 58, 0, 0, 94, 131, 108, 63, 0, 0, 128, 191, 21, 239, 195, 190, 0, 130, 0, 0, 127, 0, 0, 129, 198, 59, 67, 57, 94, 131, 108, 63, 0, 0, 128, 191, 21, 239, 195, 190, 112, 0, 197, 0, 197, 0, 144, 127, 128, 58, 0, 56, 94, 131, 108, 63, 0, 0, 128, 191, 21, 239, 195, 190, 121, 0, 220, 0, 220, 0, 135, 127, 128, 58, 0, 56, 94, 131, 108, 63, 0, 0, 128, 63, 21, 239, 195, 190, 112, 0, 197, 0, 197, 0, 144, 127, 128, 58, 0, 0, 94, 131, 108, 63, 0, 0, 128, 63, 21, 239, 195, 190, 121, 0, 220, 0, 220, 0, 135, 127, 128, 58, 0, 0, 190, 20, 123, 63, 0, 0, 128, 191, 196, 197, 71, 190, 0, 130, 0, 0, 127, 0, 0, 129, 226, 59, 160, 57, 190, 20, 123, 63, 0, 0, 128, 191, 196, 197, 71, 190, 121, 0, 220, 0, 220, 0, 135, 127, 64, 58, 0, 56, 190, 20, 123, 63, 0, 0, 128, 191, 196, 197, 71, 190, 126, 0, 244, 0, 244, 0, 130, 127, 64, 58, 0, 56, 190, 20, 123, 63, 0, 0, 128, 63, 196, 197, 71, 190, 121, 0, 220, 0, 220, 0, 135, 127, 64, 58, 0, 0, 190, 20, 123, 63, 0, 0, 128, 63, 196, 197, 71, 190, 126, 0, 244, 0, 244, 0, 130, 127, 64, 58, 0, 0, 0, 0, 128, 63, 0, 0, 128, 191, 46, 189, 59, 51, 0, 130, 0, 0, 126, 0, 0, 129, 235, 59, 0, 58, 0, 0, 128, 63, 0, 0, 128, 191, 46, 189, 59, 51, 126, 0, 244, 0, 244, 0, 130, 127, 0, 58, 0, 56, 0, 0, 128, 63, 0, 0, 128, 191, 46, 189, 59, 51, 126, 0, 12, 0, 12, 0, 130, 127, 0, 58, 0, 56, 0, 0, 128, 63, 0, 0, 128, 63, 46, 189, 59, 51, 126, 0, 244, 0, 244, 0, 130, 127, 0, 58, 0, 0, 0, 0, 128, 63, 0, 0, 128, 63, 46, 189, 59, 51, 126, 0, 12, 0, 12, 0, 130, 127, 0, 58, 0, 0, 190, 20, 123, 63, 0, 0, 128, 191, 194, 197, 71, 62, 0, 130, 0, 0, 126, 0, 0, 129, 226, 59, 95, 58, 190, 20, 123, 63, 0, 0, 128, 191, 194, 197, 71, 62, 121, 0, 36, 0, 36, 0, 135, 127, 192, 57, 0, 56, 190, 20, 123, 63, 0, 0, 128, 191, 194, 197, 71, 62, 126, 0, 12, 0, 12, 0, 130, 127, 192, 57, 0, 56, 190, 20, 123, 63, 0, 0, 128, 63, 194, 197, 71, 62, 121, 0, 36, 0, 36, 0, 135, 127, 192, 57, 0, 0, 190, 20, 123, 63, 0, 0, 128, 63, 194, 197, 71, 62, 126, 0, 12, 0, 12, 0, 130, 127, 192, 57, 0, 0, 95, 131, 108, 63, 0, 0, 128, 191, 20, 239, 195, 62, 0, 130, 0, 0, 126, 0, 0, 129, 198, 59, 188, 58, 95, 131, 108, 63, 0, 0, 128, 191, 20, 239, 195, 62, 112, 0, 59, 0, 59, 0, 144, 127, 128, 57, 0, 56, 95, 131, 108, 63, 0, 0, 128, 191, 20, 239, 195, 62, 121, 0, 36, 0, 36, 0, 135, 127, 128, 57, 0, 56, 95, 131, 108, 63, 0, 0, 128, 63, 20, 239, 195, 62, 112, 0, 59, 0, 59, 0, 144, 127, 128, 57, 0, 0, 95, 131, 108, 63, 0, 0, 128, 63, 20, 239, 195, 62, 121, 0, 36, 0, 36, 0, 135, 127, 128, 57, 0, 0, 50, 219, 84, 63, 0, 0, 128, 191, 217, 57, 14, 63, 0, 130, 0, 0, 127, 0, 0, 129, 152, 59, 17, 59, 50, 219, 84, 63, 0, 0, 128, 191, 217, 57, 14, 63, 98, 0, 80, 0, 80, 0, 158, 127, 64, 57, 0, 56, 50, 219, 84, 63, 0, 0, 128, 191, 217, 57, 14, 63, 112, 0, 59, 0, 59, 0, 144, 127, 64, 57, 0, 56, 50, 219, 84, 63, 0, 0, 128, 63, 217, 57, 14, 63, 98, 0, 80, 0, 80, 0, 158, 127, 64, 57, 0, 0, 50, 219, 84, 63, 0, 0, 128, 63, 217, 57, 14, 63, 112, 0, 59, 0, 59, 0, 144, 127, 64, 57, 0, 0, 243, 4, 53, 63, 0, 0, 128, 191, 243, 4, 53, 63, 0, 130, 0, 0, 127, 0, 0, 129, 91, 59, 91, 59, 243, 4, 53, 63, 0, 0, 128, 191, 243, 4, 53, 63, 80, 0, 98, 0, 98, 0, 176, 127, 0, 57, 0, 56, 243, 4, 53, 63, 0, 0, 128, 191, 243, 4, 53, 63, 98, 0, 80, 0, 80, 0, 158, 127, 0, 57, 0, 56, 243, 4, 53, 63, 0, 0, 128, 63, 243, 4, 53, 63, 80, 0, 98, 0, 98, 0, 176, 127, 0, 57, 0, 0, 243, 4, 53, 63, 0, 0, 128, 63, 243, 4, 53, 63, 98, 0, 80, 0, 80, 0, 158, 127, 0, 57, 0, 0, 217, 57, 14, 63, 0, 0, 128, 191, 50, 219, 84, 63, 0, 130, 0, 0, 127, 0, 0, 129, 17, 59, 152, 59, 217, 57, 14, 63, 0, 0, 128, 191, 50, 219, 84, 63, 59, 0, 112, 0, 112, 0, 197, 127, 192, 56, 0, 56, 217, 57, 14, 63, 0, 0, 128, 191, 50, 219, 84, 63, 80, 0, 98, 0, 98, 0, 176, 127, 192, 56, 0, 56, 217, 57, 14, 63, 0, 0, 128, 63, 50, 219, 84, 63, 59, 0, 112, 0, 112, 0, 197, 127, 192, 56, 0, 0, 217, 57, 14, 63, 0, 0, 128, 63, 50, 219, 84, 63, 80, 0, 98, 0, 98, 0, 176, 127, 192, 56, 0, 0, 23, 239, 195, 62, 0, 0, 128, 191, 94, 131, 108, 63, 0, 130, 0, 0, 126, 0, 0, 129, 188, 58, 198, 59, 23, 239, 195, 62, 0, 0, 128, 191, 94, 131, 108, 63, 36, 0, 121, 0, 121, 0, 220, 127, 128, 56, 0, 56, 23, 239, 195, 62, 0, 0, 128, 191, 94, 131, 108, 63, 59, 0, 112, 0, 112, 0, 197, 127, 128, 56, 0, 56, 23, 239, 195, 62, 0, 0, 128, 63, 94, 131, 108, 63, 36, 0, 121, 0, 121, 0, 220, 127, 128, 56, 0, 0, 23, 239, 195, 62, 0, 0, 128, 63, 94, 131, 108, 63, 59, 0, 112, 0, 112, 0, 197, 127, 128, 56, 0, 0, 193, 197, 71, 62, 0, 0, 128, 191, 191, 20, 123, 63, 0, 130, 0, 0, 127, 0, 0, 129, 95, 58, 226, 59, 193, 197, 71, 62, 0, 0, 128, 191, 191, 20, 123, 63, 12, 0, 126, 0, 126, 0, 244, 127, 64, 56, 0, 56, 193, 197, 71, 62, 0, 0, 128, 191, 191, 20, 123, 63, 36, 0, 121, 0, 121, 0, 220, 127, 64, 56, 0, 56, 193, 197, 71, 62, 0, 0, 128, 63, 191, 20, 123, 63, 12, 0, 126, 0, 126, 0, 244, 127, 64, 56, 0, 0, 193, 197, 71, 62, 0, 0, 128, 63, 191, 20, 123, 63, 36, 0, 121, 0, 121, 0, 220, 127, 64, 56, 0, 0, 46, 189, 187, 179, 0, 0, 128, 191, 0, 0, 128, 63, 244, 0, 126, 0, 126, 0, 12, 127, 0, 56, 0, 56, 46, 189, 187, 179, 0, 0, 128, 191, 0, 0, 128, 63, 0, 130, 0, 0, 127, 0, 0, 129, 0, 58, 235, 59, 46, 189, 187, 179, 0, 0, 128, 191, 0, 0, 128, 63, 12, 0, 126, 0, 126, 0, 244, 127, 0, 56, 0, 56, 46, 189, 187, 179, 0, 0, 128, 63, 0, 0, 128, 63, 244, 0, 126, 0, 126, 0, 12, 127, 0, 56, 0, 0, 46, 189, 187, 179, 0, 0, 128, 63, 0, 0, 128, 63, 12, 0, 126, 0, 126, 0, 244, 127, 0, 56, 0, 0, 189, 197, 71, 190, 0, 0, 128, 191, 191, 20, 123, 63, 220, 0, 121, 0, 121, 0, 36, 127, 128, 55, 0, 56, 189, 197, 71, 190, 0, 0, 128, 191, 191, 20, 123, 63, 244, 0, 126, 0, 126, 0, 12, 127, 128, 55, 0, 56, 189, 197, 71, 190, 0, 0, 128, 191, 191, 20, 123, 63, 0, 130, 0, 0, 127, 0, 0, 129, 160, 57, 226, 59, 189, 197, 71, 190, 0, 0, 128, 63, 191, 20, 123, 63, 220, 0, 121, 0, 121, 0, 36, 127, 128, 55, 0, 0, 189, 197, 71, 190, 0, 0, 128, 63, 191, 20, 123, 63, 244, 0, 126, 0, 126, 0, 12, 127, 128, 55, 0, 0, 21, 239, 195, 190, 0, 0, 128, 191, 94, 131, 108, 63, 197, 0, 112, 0, 112, 0, 59, 127, 0, 55, 0, 56, 21, 239, 195, 190, 0, 0, 128, 191, 94, 131, 108, 63, 220, 0, 121, 0, 121, 0, 36, 127, 0, 55, 0, 56, 21, 239, 195, 190, 0, 0, 128, 191, 94, 131, 108, 63, 0, 130, 0, 0, 126, 0, 0, 129, 67, 57, 198, 59, 21, 239, 195, 190, 0, 0, 128, 63, 94, 131, 108, 63, 197, 0, 112, 0, 112, 0, 59, 127, 0, 55, 0, 0, 21, 239, 195, 190, 0, 0, 128, 63, 94, 131, 108, 63, 220, 0, 121, 0, 121, 0, 36, 127, 0, 55, 0, 0, 219, 57, 14, 191, 0, 0, 128, 191, 48, 219, 84, 63, 176, 0, 98, 0, 98, 0, 80, 127, 128, 54, 0, 56, 219, 57, 14, 191, 0, 0, 128, 191, 48, 219, 84, 63, 197, 0, 112, 0, 112, 0, 59, 127, 128, 54, 0, 56, 219, 57, 14, 191, 0, 0, 128, 191, 48, 219, 84, 63, 0, 130, 0, 0, 127, 0, 0, 129, 238, 56, 152, 59, 219, 57, 14, 191, 0, 0, 128, 63, 48, 219, 84, 63, 176, 0, 98, 0, 98, 0, 80, 127, 128, 54, 0, 0, 219, 57, 14, 191, 0, 0, 128, 63, 48, 219, 84, 63, 197, 0, 112, 0, 112, 0, 59, 127, 128, 54, 0, 0, 242, 4, 53, 191, 0, 0, 128, 191, 244, 4, 53, 63, 158, 0, 80, 0, 80, 0, 98, 127, 0, 54, 0, 56, 242, 4, 53, 191, 0, 0, 128, 191, 244, 4, 53, 63, 176, 0, 98, 0, 98, 0, 80, 127, 0, 54, 0, 56, 242, 4, 53, 191, 0, 0, 128, 191, 244, 4, 53, 63, 0, 130, 0, 0, 127, 0, 0, 129, 164, 56, 91, 59, 242, 4, 53, 191, 0, 0, 128, 63, 244, 4, 53, 63, 158, 0, 80, 0, 80, 0, 98, 127, 0, 54, 0, 0, 242, 4, 53, 191, 0, 0, 128, 63, 244, 4, 53, 63, 176, 0, 98, 0, 98, 0, 80, 127, 0, 54, 0, 0, 47, 219, 84, 191, 0, 0, 128, 191, 221, 57, 14, 63, 144, 0, 59, 0, 59, 0, 112, 127, 128, 53, 0, 56, 47, 219, 84, 191, 0, 0, 128, 191, 221, 57, 14, 63, 158, 0, 80, 0, 80, 0, 98, 127, 128, 53, 0, 56, 47, 219, 84, 191, 0, 0, 128, 191, 221, 57, 14, 63, 0, 130, 0, 0, 127, 0, 0, 129, 103, 56, 17, 59, 47, 219, 84, 191, 0, 0, 128, 63, 221, 57, 14, 63, 144, 0, 59, 0, 59, 0, 112, 127, 128, 53, 0, 0, 47, 219, 84, 191, 0, 0, 128, 63, 221, 57, 14, 63, 158, 0, 80, 0, 80, 0, 98, 127, 128, 53, 0, 0, 94, 131, 108, 191, 0, 0, 128, 191, 26, 239, 195, 62, 135, 0, 36, 0, 36, 0, 121, 127, 0, 53, 0, 56, 94, 131, 108, 191, 0, 0, 128, 191, 26, 239, 195, 62, 144, 0, 59, 0, 59, 0, 112, 127, 0, 53, 0, 56, 94, 131, 108, 191, 0, 0, 128, 191, 26, 239, 195, 62, 0, 130, 0, 0, 126, 0, 0, 129, 57, 56, 188, 58, 94, 131, 108, 191, 0, 0, 128, 63, 26, 239, 195, 62, 135, 0, 36, 0, 36, 0, 121, 127, 0, 53, 0, 0, 94, 131, 108, 191, 0, 0, 128, 63, 26, 239, 195, 62, 144, 0, 59, 0, 59, 0, 112, 127, 0, 53, 0, 0, 190, 20, 123, 191, 0, 0, 128, 191, 198, 197, 71, 62, 130, 0, 12, 0, 12, 0, 126, 127, 128, 52, 0, 56, 190, 20, 123, 191, 0, 0, 128, 191, 198, 197, 71, 62, 135, 0, 36, 0, 36, 0, 121, 127, 128, 52, 0, 56, 190, 20, 123, 191, 0, 0, 128, 191, 198, 197, 71, 62, 0, 130, 0, 0, 127, 0, 0, 129, 29, 56, 95, 58, 190, 20, 123, 191, 0, 0, 128, 63, 198, 197, 71, 62, 130, 0, 12, 0, 12, 0, 126, 127, 128, 52, 0, 0, 190, 20, 123, 191, 0, 0, 128, 63, 198, 197, 71, 62, 135, 0, 36, 0, 36, 0, 121, 127, 128, 52, 0, 0, 0, 0, 128, 191, 0, 0, 128, 191, 46, 222, 76, 178, 130, 0, 244, 0, 244, 0, 126, 127, 0, 52, 0, 56, 0, 0, 128, 191, 0, 0, 128, 191, 46, 222, 76, 178, 130, 0, 12, 0, 12, 0, 126, 127, 0, 52, 0, 56, 0, 0, 128, 191, 0, 0, 128, 191, 46, 222, 76, 178, 0, 130, 0, 0, 126, 0, 0, 129, 20, 56, 0, 58, 0, 0, 128, 191, 0, 0, 128, 63, 46, 222, 76, 178, 130, 0, 244, 0, 244, 0, 126, 127, 0, 52, 0, 0, 0, 0, 128, 191, 0, 0, 128, 63, 46, 222, 76, 178, 130, 0, 12, 0, 12, 0, 126, 127, 0, 52, 0, 0, 190, 20, 123, 191, 0, 0, 128, 191, 200, 197, 71, 190, 130, 0, 244, 0, 244, 0, 126, 127, 0, 51, 0, 56, 190, 20, 123, 191, 0, 0, 128, 191, 200, 197, 71, 190, 135, 0, 220, 0, 220, 0, 121, 127, 0, 51, 0, 56, 190, 20, 123, 191, 0, 0, 128, 191, 200, 197, 71, 190, 0, 130, 0, 0, 127, 0, 0, 129, 29, 56, 160, 57, 190, 20, 123, 191, 0, 0, 128, 63, 200, 197, 71, 190, 130, 0, 244, 0, 244, 0, 126, 127, 0, 51, 0, 0, 190, 20, 123, 191, 0, 0, 128, 63, 200, 197, 71, 190, 135, 0, 220, 0, 220, 0, 121, 127, 0, 51, 0, 0, 93, 131, 108, 191, 0, 0, 128, 191, 27, 239, 195, 190, 135, 0, 220, 0, 220, 0, 121, 127, 0, 50, 0, 56, 93, 131, 108, 191, 0, 0, 128, 191, 27, 239, 195, 190, 144, 0, 197, 0, 197, 0, 112, 127, 0, 50, 0, 56, 93, 131, 108, 191, 0, 0, 128, 191, 27, 239, 195, 190, 0, 130, 0, 0, 127, 0, 0, 129, 57, 56, 67, 57, 93, 131, 108, 191, 0, 0, 128, 63, 27, 239, 195, 190, 135, 0, 220, 0, 220, 0, 121, 127, 0, 50, 0, 0, 93, 131, 108, 191, 0, 0, 128, 63, 27, 239, 195, 190, 144, 0, 197, 0, 197, 0, 112, 127, 0, 50, 0, 0, 51, 219, 84, 191, 0, 0, 128, 191, 215, 57, 14, 191, 144, 0, 197, 0, 197, 0, 112, 127, 0, 49, 0, 56, 51, 219, 84, 191, 0, 0, 128, 191, 215, 57, 14, 191, 158, 0, 176, 0, 176, 0, 98, 127, 0, 49, 0, 56, 51, 219, 84, 191, 0, 0, 128, 191, 215, 57, 14, 191, 0, 130, 0, 0, 127, 0, 0, 129, 103, 56, 238, 56, 51, 219, 84, 191, 0, 0, 128, 63, 215, 57, 14, 191, 144, 0, 197, 0, 197, 0, 112, 127, 0, 49, 0, 0, 51, 219, 84, 191, 0, 0, 128, 63, 215, 57, 14, 191, 158, 0, 176, 0, 176, 0, 98, 127, 0, 49, 0, 0, 245, 4, 53, 191, 0, 0, 128, 191, 241, 4, 53, 191, 158, 0, 176, 0, 176, 0, 98, 127, 0, 48, 0, 56, 245, 4, 53, 191, 0, 0, 128, 191, 241, 4, 53, 191, 176, 0, 158, 0, 158, 0, 80, 127, 0, 48, 0, 56, 245, 4, 53, 191, 0, 0, 128, 191, 241, 4, 53, 191, 0, 130, 0, 0, 127, 0, 0, 129, 164, 56, 164, 56, 245, 4, 53, 191, 0, 0, 128, 63, 241, 4, 53, 191, 158, 0, 176, 0, 176, 0, 98, 127, 0, 48, 0, 0, 245, 4, 53, 191, 0, 0, 128, 63, 241, 4, 53, 191, 176, 0, 158, 0, 158, 0, 80, 127, 0, 48, 0, 0, 219, 57, 14, 191, 0, 0, 128, 191, 49, 219, 84, 191, 176, 0, 158, 0, 158, 0, 80, 127, 0, 46, 0, 56, 219, 57, 14, 191, 0, 0, 128, 191, 49, 219, 84, 191, 197, 0, 144, 0, 144, 0, 59, 127, 0, 46, 0, 56, 219, 57, 14, 191, 0, 0, 128, 191, 49, 219, 84, 191, 0, 130, 0, 0, 126, 0, 0, 129, 238, 56, 103, 56, 219, 57, 14, 191, 0, 0, 128, 63, 49, 219, 84, 191, 176, 0, 158, 0, 158, 0, 80, 127, 0, 46, 0, 0, 219, 57, 14, 191, 0, 0, 128, 63, 49, 219, 84, 191, 197, 0, 144, 0, 144, 0, 59, 127, 0, 46, 0, 0, 21, 239, 195, 190, 0, 0, 128, 191, 95, 131, 108, 191, 197, 0, 144, 0, 144, 0, 59, 127, 0, 44, 0, 56, 21, 239, 195, 190, 0, 0, 128, 191, 95, 131, 108, 191, 220, 0, 135, 0, 135, 0, 36, 127, 0, 44, 0, 56, 21, 239, 195, 190, 0, 0, 128, 191, 95, 131, 108, 191, 0, 130, 0, 0, 126, 0, 0, 129, 67, 57, 57, 56, 21, 239, 195, 190, 0, 0, 128, 63, 95, 131, 108, 191, 197, 0, 144, 0, 144, 0, 59, 127, 0, 44, 0, 0, 21, 239, 195, 190, 0, 0, 128, 63, 95, 131, 108, 191, 220, 0, 135, 0, 135, 0, 36, 127, 0, 44, 0, 0, 188, 197, 71, 190, 0, 0, 128, 191, 191, 20, 123, 191, 220, 0, 135, 0, 135, 0, 36, 127, 0, 40, 0, 56, 188, 197, 71, 190, 0, 0, 128, 191, 191, 20, 123, 191, 244, 0, 130, 0, 130, 0, 12, 127, 0, 40, 0, 56, 188, 197, 71, 190, 0, 0, 128, 191, 191, 20, 123, 191, 0, 130, 0, 0, 127, 0, 0, 129, 160, 57, 29, 56, 188, 197, 71, 190, 0, 0, 128, 63, 191, 20, 123, 191, 220, 0, 135, 0, 135, 0, 36, 127, 0, 40, 0, 0, 188, 197, 71, 190, 0, 0, 128, 63, 191, 20, 123, 191, 244, 0, 130, 0, 130, 0, 12, 127, 0, 40, 0, 0 ),
"array_index_data": PoolByteArray( 2, 0, 8, 0, 4, 0, 2, 0, 6, 0, 8, 0, 7, 0, 13, 0, 9, 0, 7, 0, 11, 0, 13, 0, 12, 0, 18, 0, 14, 0, 12, 0, 16, 0, 18, 0, 17, 0, 23, 0, 19, 0, 17, 0, 21, 0, 23, 0, 22, 0, 28, 0, 24, 0, 22, 0, 26, 0, 28, 0, 27, 0, 33, 0, 29, 0, 27, 0, 31, 0, 33, 0, 32, 0, 38, 0, 34, 0, 32, 0, 36, 0, 38, 0, 37, 0, 43, 0, 39, 0, 37, 0, 41, 0, 43, 0, 42, 0, 49, 0, 44, 0, 42, 0, 47, 0, 49, 0, 46, 0, 54, 0, 48, 0, 46, 0, 52, 0, 54, 0, 51, 0, 59, 0, 53, 0, 51, 0, 57, 0, 59, 0, 56, 0, 64, 0, 58, 0, 56, 0, 62, 0, 64, 0, 61, 0, 69, 0, 63, 0, 61, 0, 67, 0, 69, 0, 66, 0, 74, 0, 68, 0, 66, 0, 72, 0, 74, 0, 71, 0, 79, 0, 73, 0, 71, 0, 77, 0, 79, 0, 76, 0, 84, 0, 78, 0, 76, 0, 82, 0, 84, 0, 80, 0, 89, 0, 83, 0, 80, 0, 86, 0, 89, 0, 85, 0, 94, 0, 88, 0, 85, 0, 91, 0, 94, 0, 90, 0, 99, 0, 93, 0, 90, 0, 96, 0, 99, 0, 95, 0, 104, 0, 98, 0, 95, 0, 101, 0, 104, 0, 100, 0, 109, 0, 103, 0, 100, 0, 106, 0, 109, 0, 105, 0, 114, 0, 108, 0, 105, 0, 111, 0, 114, 0, 110, 0, 119, 0, 113, 0, 110, 0, 116, 0, 119, 0, 115, 0, 124, 0, 118, 0, 115, 0, 121, 0, 124, 0, 120, 0, 128, 0, 123, 0, 120, 0, 125, 0, 128, 0, 126, 0, 133, 0, 129, 0, 126, 0, 130, 0, 133, 0, 131, 0, 138, 0, 134, 0, 131, 0, 135, 0, 138, 0, 136, 0, 143, 0, 139, 0, 136, 0, 140, 0, 143, 0, 141, 0, 148, 0, 144, 0, 141, 0, 145, 0, 148, 0, 146, 0, 153, 0, 149, 0, 146, 0, 150, 0, 153, 0, 151, 0, 158, 0, 154, 0, 151, 0, 155, 0, 158, 0, 156, 0, 3, 0, 159, 0, 156, 0, 0, 0, 3, 0, 157, 0, 5, 0, 1, 0, 5, 0, 15, 0, 10, 0, 15, 0, 25, 0, 20, 0, 25, 0, 35, 0, 30, 0, 35, 0, 45, 0, 40, 0, 45, 0, 55, 0, 50, 0, 55, 0, 65, 0, 60, 0, 65, 0, 75, 0, 70, 0, 75, 0, 87, 0, 81, 0, 87, 0, 97, 0, 92, 0, 97, 0, 107, 0, 102, 0, 107, 0, 117, 0, 112, 0, 117, 0, 127, 0, 122, 0, 127, 0, 137, 0, 132, 0, 137, 0, 147, 0, 142, 0, 147, 0, 157, 0, 152, 0, 157, 0, 15, 0, 5, 0, 15, 0, 35, 0, 25, 0, 35, 0, 55, 0, 45, 0, 55, 0, 75, 0, 65, 0, 75, 0, 97, 0, 87, 0, 97, 0, 117, 0, 107, 0, 117, 0, 137, 0, 127, 0, 137, 0, 157, 0, 147, 0, 157, 0, 35, 0, 15, 0, 35, 0, 75, 0, 55, 0, 75, 0, 117, 0, 97, 0, 117, 0, 157, 0, 137, 0, 157, 0, 75, 0, 35, 0, 75, 0, 157, 0, 117, 0 ),
"blend_shape_data": [  ],
"format": 97559,
"index_count": 282,
"material": SubResource( 7 ),
"primitive": 4,
"skeleton_aabb": [  ],
"vertex_count": 160
}

[sub_resource type="SpatialMaterial" id=9]
vertex_color_use_as_albedo = true

[sub_resource type="ArrayMesh" id=10]
resource_name = "Cylinder001"
surfaces/0 = {
"aabb": AABB( -1, -1, -1, 2, 2, 2 ),
"array_data": PoolByteArray( 0, 0, 0, 0, 0, 0, 128, 191, 0, 0, 128, 191, 244, 0, 130, 0, 130, 0, 12, 127, 0, 0, 0, 56, 0, 0, 0, 0, 0, 0, 128, 191, 0, 0, 128, 191, 0, 130, 0, 0, 126, 0, 0, 129, 0, 58, 20, 56, 0, 0, 0, 0, 0, 0, 128, 191, 0, 0, 128, 191, 12, 0, 130, 0, 130, 0, 244, 127, 0, 60, 0, 56, 0, 0, 0, 0, 0, 0, 128, 63, 0, 0, 128, 191, 244, 0, 130, 0, 130, 0, 12, 127, 0, 0, 0, 0, 0, 0, 0, 0, 0, 0, 128, 63, 0, 0, 128, 191, 12, 0, 130, 0, 130, 0, 244, 127, 0, 60, 0, 0, 194, 197, 71, 62, 0, 0, 128, 191, 190, 20, 123, 191, 0, 130, 0, 0, 127, 0, 0, 129, 95, 58, 29, 56, 194, 197, 71, 62, 0, 0, 128, 191, 190, 20, 123, 191, 12, 0, 130, 0, 130, 0, 244, 127, 192, 59, 0, 56, 194, 197, 71, 62, 0, 0, 128, 191, 190, 20, 123, 191, 36, 0, 135, 0, 135, 0, 220, 127, 192, 59, 0, 56, 194, 197, 71, 62, 0, 0, 128, 63, 190, 20, 123, 191, 12, 0, 130, 0, 130, 0, 244, 127, 192, 59, 0, 0, 194, 197, 71, 62, 0, 0, 128, 63, 190, 20, 123, 191, 36, 0, 135, 0, 135, 0, 220, 127, 192, 59, 0, 0, 22, 239, 195, 62, 0, 0, 128, 191, 94, 131, 108, 191, 0, 130, 0, 0, 127, 0, 0, 129, 188, 58, 57, 56, 22, 239, 195, 62, 0, 0, 128, 191, 94, 131, 108, 191, 36, 0, 135, 0, 135, 0, 220, 127, 128, 59, 0, 56, 22, 239, 195, 62, 0, 0, 128, 191, 94, 131, 108, 191, 59, 0, 144, 0, 144, 0, 197, 127, 128, 59, 0, 56, 22, 239, 195, 62, 0, 0, 128, 63, 94, 131, 108, 191, 36, 0, 135, 0, 135, 0, 220, 127, 128, 59, 0, 0, 22, 239, 195, 62, 0, 0, 128, 63, 94, 131, 108, 191, 59, 0, 144, 0, 144, 0, 197, 127, 128, 59, 0, 0, 218, 57, 14, 63, 0, 0, 128, 191, 49, 219, 84, 191, 0, 130, 0, 0, 126, 0, 0, 129, 17, 59, 103, 56, 218, 57, 14, 63, 0, 0, 128, 191, 49, 219, 84, 191, 59, 0, 144, 0, 144, 0, 197, 127, 64, 59, 0, 56, 218, 57, 14, 63, 0, 0, 128, 191, 49, 219, 84, 191, 80, 0, 158, 0, 158, 0, 176, 127, 64, 59, 0, 56, 218, 57, 14, 63, 0, 0, 128, 63, 49, 219, 84, 191, 59, 0, 144, 0, 144, 0, 197, 127, 64, 59, 0, 0, 218, 57, 14, 63, 0, 0, 128, 63, 49, 219, 84, 191, 80, 0, 158, 0, 158, 0, 176, 127, 64, 59, 0, 0, 243, 4, 53, 63, 0, 0, 128, 191, 243, 4, 53, 191, 0, 130, 0, 0, 126, 0, 0, 129, 91, 59, 164, 56, 243, 4, 53, 63, 0, 0, 128, 191, 243, 4, 53, 191, 80, 0, 158, 0, 158, 0, 176, 127, 0, 59, 0, 56, 243, 4, 53, 63, 0, 0, 128, 191, 243, 4, 53, 191, 98, 0, 176, 0, 176, 0, 158, 127, 0, 59, 0, 56, 243, 4, 53, 63, 0, 0, 128, 63, 243, 4, 53, 191, 80, 0, 158, 0, 158, 0, 176, 127, 0, 59, 0, 0, 243, 4, 53, 63, 0, 0, 128, 63, 243, 4, 53, 191, 98, 0, 176, 0, 176, 0, 158, 127, 0, 59, 0, 0, 49, 219, 84, 63, 0, 0, 128, 191, 218, 57, 14, 191, 0, 130, 0, 0, 127, 0, 0, 129, 152, 59, 238, 56, 49, 219, 84, 63, 0, 0, 128, 191, 218, 57, 14, 191, 98, 0, 176, 0, 176, 0, 158, 127, 192, 58, 0, 56, 49, 219, 84, 63, 0, 0, 128, 191, 218, 57, 14, 191, 112, 0, 197, 0, 197, 0, 144, 127, 192, 58, 0, 56, 49, 219, 84, 63, 0, 0, 128, 63, 218, 57, 14, 191, 98, 0, 176, 0, 176, 0, 158, 127, 192, 58, 0, 0, 49, 219, 84, 63, 0, 0, 128, 63, 218, 57, 14, 191, 112, 0, 197, 0, 197, 0, 144, 127, 192, 58, 0, 0, 94, 131, 108, 63, 0, 0, 128, 191, 21, 239, 195, 190, 0, 130, 0, 0, 127, 0, 0, 129, 198, 59, 67, 57, 94, 131, 108, 63, 0, 0, 128, 191, 21, 239, 195, 190, 112, 0, 197, 0, 197, 0, 144, 127, 128, 58, 0, 56, 94, 131, 108, 63, 0, 0, 128, 191, 21, 239, 195, 190, 121, 0, 220, 0, 220, 0, 135, 127, 128, 58, 0, 56, 94, 131, 108, 63, 0, 0, 128, 63, 21, 239, 195, 190, 112, 0, 197, 0, 197, 0, 144, 127, 128, 58, 0, 0, 94, 131, 108, 63, 0, 0, 128, 63, 21, 239, 195, 190, 121, 0, 220, 0, 220, 0, 135, 127, 128, 58, 0, 0, 190, 20, 123, 63, 0, 0, 128, 191, 196, 197, 71, 190, 0, 130, 0, 0, 127, 0, 0, 129, 226, 59, 160, 57, 190, 20, 123, 63, 0, 0, 128, 191, 196, 197, 71, 190, 121, 0, 220, 0, 220, 0, 135, 127, 64, 58, 0, 56, 190, 20, 123, 63, 0, 0, 128, 191, 196, 197, 71, 190, 126, 0, 244, 0, 244, 0, 130, 127, 64, 58, 0, 56, 190, 20, 123, 63, 0, 0, 128, 63, 196, 197, 71, 190, 121, 0, 220, 0, 220, 0, 135, 127, 64, 58, 0, 0, 190, 20, 123, 63, 0, 0, 128, 63, 196, 197, 71, 190, 126, 0, 244, 0, 244, 0, 130, 127, 64, 58, 0, 0, 0, 0, 128, 63, 0, 0, 128, 191, 46, 189, 59, 51, 0, 130, 0, 0, 126, 0, 0, 129, 235, 59, 0, 58, 0, 0, 128, 63, 0, 0, 128, 191, 46, 189, 59, 51, 126, 0, 244, 0, 244, 0, 130, 127, 0, 58, 0, 56, 0, 0, 128, 63, 0, 0, 128, 191, 46, 189, 59, 51, 126, 0, 12, 0, 12, 0, 130, 127, 0, 58, 0, 56, 0, 0, 128, 63, 0, 0, 128, 63, 46, 189, 59, 51, 126, 0, 244, 0, 244, 0, 130, 127, 0, 58, 0, 0, 0, 0, 128, 63, 0, 0, 128, 63, 46, 189, 59, 51, 126, 0, 12, 0, 12, 0, 130, 127, 0, 58, 0, 0, 190, 20, 123, 63, 0, 0, 128, 191, 194, 197, 71, 62, 0, 130, 0, 0, 126, 0, 0, 129, 226, 59, 95, 58, 190, 20, 123, 63, 0, 0, 128, 191, 194, 197, 71, 62, 121, 0, 36, 0, 36, 0, 135, 127, 192, 57, 0, 56, 190, 20, 123, 63, 0, 0, 128, 191, 194, 197, 71, 62, 126, 0, 12, 0, 12, 0, 130, 127, 192, 57, 0, 56, 190, 20, 123, 63, 0, 0, 128, 63, 194, 197, 71, 62, 121, 0, 36, 0, 36, 0, 135, 127, 192, 57, 0, 0, 190, 20, 123, 63, 0, 0, 128, 63, 194, 197, 71, 62, 126, 0, 12, 0, 12, 0, 130, 127, 192, 57, 0, 0, 95, 131, 108, 63, 0, 0, 128, 191, 20, 239, 195, 62, 0, 130, 0, 0, 126, 0, 0, 129, 198, 59, 188, 58, 95, 131, 108, 63, 0, 0, 128, 191, 20, 239, 195, 62, 112, 0, 59, 0, 59, 0, 144, 127, 128, 57, 0, 56, 95, 131, 108, 63, 0, 0, 128, 191, 20, 239, 195, 62, 121, 0, 36, 0, 36, 0, 135, 127, 128, 57, 0, 56, 95, 131, 108, 63, 0, 0, 128, 63, 20, 239, 195, 62, 112, 0, 59, 0, 59, 0, 144, 127, 128, 57, 0, 0, 95, 131, 108, 63, 0, 0, 128, 63, 20, 239, 195, 62, 121, 0, 36, 0, 36, 0, 135, 127, 128, 57, 0, 0, 50, 219, 84, 63, 0, 0, 128, 191, 217, 57, 14, 63, 0, 130, 0, 0, 127, 0, 0, 129, 152, 59, 17, 59, 50, 219, 84, 63, 0, 0, 128, 191, 217, 57, 14, 63, 98, 0, 80, 0, 80, 0, 158, 127, 64, 57, 0, 56, 50, 219, 84, 63, 0, 0, 128, 191, 217, 57, 14, 63, 112, 0, 59, 0, 59, 0, 144, 127, 64, 57, 0, 56, 50, 219, 84, 63, 0, 0, 128, 63, 217, 57, 14, 63, 98, 0, 80, 0, 80, 0, 158, 127, 64, 57, 0, 0, 50, 219, 84, 63, 0, 0, 128, 63, 217, 57, 14, 63, 112, 0, 59, 0, 59, 0, 144, 127, 64, 57, 0, 0, 243, 4, 53, 63, 0, 0, 128, 191, 243, 4, 53, 63, 0, 130, 0, 0, 127, 0, 0, 129, 91, 59, 91, 59, 243, 4, 53, 63, 0, 0, 128, 191, 243, 4, 53, 63, 80, 0, 98, 0, 98, 0, 176, 127, 0, 57, 0, 56, 243, 4, 53, 63, 0, 0, 128, 191, 243, 4, 53, 63, 98, 0, 80, 0, 80, 0, 158, 127, 0, 57, 0, 56, 243, 4, 53, 63, 0, 0, 128, 63, 243, 4, 53, 63, 80, 0, 98, 0, 98, 0, 176, 127, 0, 57, 0, 0, 243, 4, 53, 63, 0, 0, 128, 63, 243, 4, 53, 63, 98, 0, 80, 0, 80, 0, 158, 127, 0, 57, 0, 0, 217, 57, 14, 63, 0, 0, 128, 191, 50, 219, 84, 63, 0, 130, 0, 0, 127, 0, 0, 129, 17, 59, 152, 59, 217, 57, 14, 63, 0, 0, 128, 191, 50, 219, 84, 63, 59, 0, 112, 0, 112, 0, 197, 127, 192, 56, 0, 56, 217, 57, 14, 63, 0, 0, 128, 191, 50, 219, 84, 63, 80, 0, 98, 0, 98, 0, 176, 127, 192, 56, 0, 56, 217, 57, 14, 63, 0, 0, 128, 63, 50, 219, 84, 63, 59, 0, 112, 0, 112, 0, 197, 127, 192, 56, 0, 0, 217, 57, 14, 63, 0, 0, 128, 63, 50, 219, 84, 63, 80, 0, 98, 0, 98, 0, 176, 127, 192, 56, 0, 0, 23, 239, 195, 62, 0, 0, 128, 191, 94, 131, 108, 63, 0, 130, 0, 0, 126, 0, 0, 129, 188, 58, 198, 59, 23, 239, 195, 62, 0, 0, 128, 191, 94, 131, 108, 63, 36, 0, 121, 0, 121, 0, 220, 127, 128, 56, 0, 56, 23, 239, 195, 62, 0, 0, 128, 191, 94, 131, 108, 63, 59, 0, 112, 0, 112, 0, 197, 127, 128, 56, 0, 56, 23, 239, 195, 62, 0, 0, 128, 63, 94, 131, 108, 63, 36, 0, 121, 0, 121, 0, 220, 127, 128, 56, 0, 0, 23, 239, 195, 62, 0, 0, 128, 63, 94, 131, 108, 63, 59, 0, 112, 0, 112, 0, 197, 127, 128, 56, 0, 0, 193, 197, 71, 62, 0, 0, 128, 191, 191, 20, 123, 63, 0, 130, 0, 0, 127, 0, 0, 129, 95, 58, 226, 59, 193, 197, 71, 62, 0, 0, 128, 191, 191, 20, 123, 63, 12, 0, 126, 0, 126, 0, 244, 127, 64, 56, 0, 56, 193, 197, 71, 62, 0, 0, 128, 191, 191, 20, 123, 63, 36, 0, 121, 0, 121, 0, 220, 127, 64, 56, 0, 56, 193, 197, 71, 62, 0, 0, 128, 63, 191, 20, 123, 63, 12, 0, 126, 0, 126, 0, 244, 127, 64, 56, 0, 0, 193, 197, 71, 62, 0, 0, 128, 63, 191, 20, 123, 63, 36, 0, 121, 0, 121, 0, 220, 127, 64, 56, 0, 0, 46, 189, 187, 179, 0, 0, 128, 191, 0, 0, 128, 63, 244, 0, 126, 0, 126, 0, 12, 127, 0, 56, 0, 56, 46, 189, 187, 179, 0, 0, 128, 191, 0, 0, 128, 63, 0, 130, 0, 0, 127, 0, 0, 129, 0, 58, 235, 59, 46, 189, 187, 179, 0, 0, 128, 191, 0, 0, 128, 63, 12, 0, 126, 0, 126, 0, 244, 127, 0, 56, 0, 56, 46, 189, 187, 179, 0, 0, 128, 63, 0, 0, 128, 63, 244, 0, 126, 0, 126, 0, 12, 127, 0, 56, 0, 0, 46, 189, 187, 179, 0, 0, 128, 63, 0, 0, 128, 63, 12, 0, 126, 0, 126, 0, 244, 127, 0, 56, 0, 0, 189, 197, 71, 190, 0, 0, 128, 191, 191, 20, 123, 63, 220, 0, 121, 0, 121, 0, 36, 127, 128, 55, 0, 56, 189, 197, 71, 190, 0, 0, 128, 191, 191, 20, 123, 63, 244, 0, 126, 0, 126, 0, 12, 127, 128, 55, 0, 56, 189, 197, 71, 190, 0, 0, 128, 191, 191, 20, 123, 63, 0, 130, 0, 0, 127, 0, 0, 129, 160, 57, 226, 59, 189, 197, 71, 190, 0, 0, 128, 63, 191, 20, 123, 63, 220, 0, 121, 0, 121, 0, 36, 127, 128, 55, 0, 0, 189, 197, 71, 190, 0, 0, 128, 63, 191, 20, 123, 63, 244, 0, 126, 0, 126, 0, 12, 127, 128, 55, 0, 0, 21, 239, 195, 190, 0, 0, 128, 191, 94, 131, 108, 63, 197, 0, 112, 0, 112, 0, 59, 127, 0, 55, 0, 56, 21, 239, 195, 190, 0, 0, 128, 191, 94, 131, 108, 63, 220, 0, 121, 0, 121, 0, 36, 127, 0, 55, 0, 56, 21, 239, 195, 190, 0, 0, 128, 191, 94, 131, 108, 63, 0, 130, 0, 0, 126, 0, 0, 129, 67, 57, 198, 59, 21, 239, 195, 190, 0, 0, 128, 63, 94, 131, 108, 63, 197, 0, 112, 0, 112, 0, 59, 127, 0, 55, 0, 0, 21, 239, 195, 190, 0, 0, 128, 63, 94, 131, 108, 63, 220, 0, 121, 0, 121, 0, 36, 127, 0, 55, 0, 0, 219, 57, 14, 191, 0, 0, 128, 191, 48, 219, 84, 63, 176, 0, 98, 0, 98, 0, 80, 127, 128, 54, 0, 56, 219, 57, 14, 191, 0, 0, 128, 191, 48, 219, 84, 63, 197, 0, 112, 0, 112, 0, 59, 127, 128, 54, 0, 56, 219, 57, 14, 191, 0, 0, 128, 191, 48, 219, 84, 63, 0, 130, 0, 0, 127, 0, 0, 129, 238, 56, 152, 59, 219, 57, 14, 191, 0, 0, 128, 63, 48, 219, 84, 63, 176, 0, 98, 0, 98, 0, 80, 127, 128, 54, 0, 0, 219, 57, 14, 191, 0, 0, 128, 63, 48, 219, 84, 63, 197, 0, 112, 0, 112, 0, 59, 127, 128, 54, 0, 0, 242, 4, 53, 191, 0, 0, 128, 191, 244, 4, 53, 63, 158, 0, 80, 0, 80, 0, 98, 127, 0, 54, 0, 56, 242, 4, 53, 191, 0, 0, 128, 191, 244, 4, 53, 63, 176, 0, 98, 0, 98, 0, 80, 127, 0, 54, 0, 56, 242, 4, 53, 191, 0, 0, 128, 191, 244, 4, 53, 63, 0, 130, 0, 0, 127, 0, 0, 129, 164, 56, 91, 59, 242, 4, 53, 191, 0, 0, 128, 63, 244, 4, 53, 63, 158, 0, 80, 0, 80, 0, 98, 127, 0, 54, 0, 0, 242, 4, 53, 191, 0, 0, 128, 63, 244, 4, 53, 63, 176, 0, 98, 0, 98, 0, 80, 127, 0, 54, 0, 0, 47, 219, 84, 191, 0, 0, 128, 191, 221, 57, 14, 63, 144, 0, 59, 0, 59, 0, 112, 127, 128, 53, 0, 56, 47, 219, 84, 191, 0, 0, 128, 191, 221, 57, 14, 63, 158, 0, 80, 0, 80, 0, 98, 127, 128, 53, 0, 56, 47, 219, 84, 191, 0, 0, 128, 191, 221, 57, 14, 63, 0, 130, 0, 0, 127, 0, 0, 129, 103, 56, 17, 59, 47, 219, 84, 191, 0, 0, 128, 63, 221, 57, 14, 63, 144, 0, 59, 0, 59, 0, 112, 127, 128, 53, 0, 0, 47, 219, 84, 191, 0, 0, 128, 63, 221, 57, 14, 63, 158, 0, 80, 0, 80, 0, 98, 127, 128, 53, 0, 0, 94, 131, 108, 191, 0, 0, 128, 191, 26, 239, 195, 62, 135, 0, 36, 0, 36, 0, 121, 127, 0, 53, 0, 56, 94, 131, 108, 191, 0, 0, 128, 191, 26, 239, 195, 62, 144, 0, 59, 0, 59, 0, 112, 127, 0, 53, 0, 56, 94, 131, 108, 191, 0, 0, 128, 191, 26, 239, 195, 62, 0, 130, 0, 0, 126, 0, 0, 129, 57, 56, 188, 58, 94, 131, 108, 191, 0, 0, 128, 63, 26, 239, 195, 62, 135, 0, 36, 0, 36, 0, 121, 127, 0, 53, 0, 0, 94, 131, 108, 191, 0, 0, 128, 63, 26, 239, 195, 62, 144, 0, 59, 0, 59, 0, 112, 127, 0, 53, 0, 0, 190, 20, 123, 191, 0, 0, 128, 191, 198, 197, 71, 62, 130, 0, 12, 0, 12, 0, 126, 127, 128, 52, 0, 56, 190, 20, 123, 191, 0, 0, 128, 191, 198, 197, 71, 62, 135, 0, 36, 0, 36, 0, 121, 127, 128, 52, 0, 56, 190, 20, 123, 191, 0, 0, 128, 191, 198, 197, 71, 62, 0, 130, 0, 0, 127, 0, 0, 129, 29, 56, 95, 58, 190, 20, 123, 191, 0, 0, 128, 63, 198, 197, 71, 62, 130, 0, 12, 0, 12, 0, 126, 127, 128, 52, 0, 0, 190, 20, 123, 191, 0, 0, 128, 63, 198, 197, 71, 62, 135, 0, 36, 0, 36, 0, 121, 127, 128, 52, 0, 0, 0, 0, 128, 191, 0, 0, 128, 191, 46, 222, 76, 178, 130, 0, 244, 0, 244, 0, 126, 127, 0, 52, 0, 56, 0, 0, 128, 191, 0, 0, 128, 191, 46, 222, 76, 178, 130, 0, 12, 0, 12, 0, 126, 127, 0, 52, 0, 56, 0, 0, 128, 191, 0, 0, 128, 191, 46, 222, 76, 178, 0, 130, 0, 0, 126, 0, 0, 129, 20, 56, 0, 58, 0, 0, 128, 191, 0, 0, 128, 63, 46, 222, 76, 178, 130, 0, 244, 0, 244, 0, 126, 127, 0, 52, 0, 0, 0, 0, 128, 191, 0, 0, 128, 63, 46, 222, 76, 178, 130, 0, 12, 0, 12, 0, 126, 127, 0, 52, 0, 0, 190, 20, 123, 191, 0, 0, 128, 191, 200, 197, 71, 190, 130, 0, 244, 0, 244, 0, 126, 127, 0, 51, 0, 56, 190, 20, 123, 191, 0, 0, 128, 191, 200, 197, 71, 190, 135, 0, 220, 0, 220, 0, 121, 127, 0, 51, 0, 56, 190, 20, 123, 191, 0, 0, 128, 191, 200, 197, 71, 190, 0, 130, 0, 0, 127, 0, 0, 129, 29, 56, 160, 57, 190, 20, 123, 191, 0, 0, 128, 63, 200, 197, 71, 190, 130, 0, 244, 0, 244, 0, 126, 127, 0, 51, 0, 0, 190, 20, 123, 191, 0, 0, 128, 63, 200, 197, 71, 190, 135, 0, 220, 0, 220, 0, 121, 127, 0, 51, 0, 0, 93, 131, 108, 191, 0, 0, 128, 191, 27, 239, 195, 190, 135, 0, 220, 0, 220, 0, 121, 127, 0, 50, 0, 56, 93, 131, 108, 191, 0, 0, 128, 191, 27, 239, 195, 190, 144, 0, 197, 0, 197, 0, 112, 127, 0, 50, 0, 56, 93, 131, 108, 191, 0, 0, 128, 191, 27, 239, 195, 190, 0, 130, 0, 0, 127, 0, 0, 129, 57, 56, 67, 57, 93, 131, 108, 191, 0, 0, 128, 63, 27, 239, 195, 190, 135, 0, 220, 0, 220, 0, 121, 127, 0, 50, 0, 0, 93, 131, 108, 191, 0, 0, 128, 63, 27, 239, 195, 190, 144, 0, 197, 0, 197, 0, 112, 127, 0, 50, 0, 0, 51, 219, 84, 191, 0, 0, 128, 191, 215, 57, 14, 191, 144, 0, 197, 0, 197, 0, 112, 127, 0, 49, 0, 56, 51, 219, 84, 191, 0, 0, 128, 191, 215, 57, 14, 191, 158, 0, 176, 0, 176, 0, 98, 127, 0, 49, 0, 56, 51, 219, 84, 191, 0, 0, 128, 191, 215, 57, 14, 191, 0, 130, 0, 0, 127, 0, 0, 129, 103, 56, 238, 56, 51, 219, 84, 191, 0, 0, 128, 63, 215, 57, 14, 191, 144, 0, 197, 0, 197, 0, 112, 127, 0, 49, 0, 0, 51, 219, 84, 191, 0, 0, 128, 63, 215, 57, 14, 191, 158, 0, 176, 0, 176, 0, 98, 127, 0, 49, 0, 0, 245, 4, 53, 191, 0, 0, 128, 191, 241, 4, 53, 191, 158, 0, 176, 0, 176, 0, 98, 127, 0, 48, 0, 56, 245, 4, 53, 191, 0, 0, 128, 191, 241, 4, 53, 191, 176, 0, 158, 0, 158, 0, 80, 127, 0, 48, 0, 56, 245, 4, 53, 191, 0, 0, 128, 191, 241, 4, 53, 191, 0, 130, 0, 0, 127, 0, 0, 129, 164, 56, 164, 56, 245, 4, 53, 191, 0, 0, 128, 63, 241, 4, 53, 191, 158, 0, 176, 0, 176, 0, 98, 127, 0, 48, 0, 0, 245, 4, 53, 191, 0, 0, 128, 63, 241, 4, 53, 191, 176, 0, 158, 0, 158, 0, 80, 127, 0, 48, 0, 0, 219, 57, 14, 191, 0, 0, 128, 191, 49, 219, 84, 191, 176, 0, 158, 0, 158, 0, 80, 127, 0, 46, 0, 56, 219, 57, 14, 191, 0, 0, 128, 191, 49, 219, 84, 191, 197, 0, 144, 0, 144, 0, 59, 127, 0, 46, 0, 56, 219, 57, 14, 191, 0, 0, 128, 191, 49, 219, 84, 191, 0, 130, 0, 0, 126, 0, 0, 129, 238, 56, 103, 56, 219, 57, 14, 191, 0, 0, 128, 63, 49, 219, 84, 191, 176, 0, 158, 0, 158, 0, 80, 127, 0, 46, 0, 0, 219, 57, 14, 191, 0, 0, 128, 63, 49, 219, 84, 191, 197, 0, 144, 0, 144, 0, 59, 127, 0, 46, 0, 0, 21, 239, 195, 190, 0, 0, 128, 191, 95, 131, 108, 191, 197, 0, 144, 0, 144, 0, 59, 127, 0, 44, 0, 56, 21, 239, 195, 190, 0, 0, 128, 191, 95, 131, 108, 191, 220, 0, 135, 0, 135, 0, 36, 127, 0, 44, 0, 56, 21, 239, 195, 190, 0, 0, 128, 191, 95, 131, 108, 191, 0, 130, 0, 0, 126, 0, 0, 129, 67, 57, 57, 56, 21, 239, 195, 190, 0, 0, 128, 63, 95, 131, 108, 191, 197, 0, 144, 0, 144, 0, 59, 127, 0, 44, 0, 0, 21, 239, 195, 190, 0, 0, 128, 63, 95, 131, 108, 191, 220, 0, 135, 0, 135, 0, 36, 127, 0, 44, 0, 0, 188, 197, 71, 190, 0, 0, 128, 191, 191, 20, 123, 191, 220, 0, 135, 0, 135, 0, 36, 127, 0, 40, 0, 56, 188, 197, 71, 190, 0, 0, 128, 191, 191, 20, 123, 191, 244, 0, 130, 0, 130, 0, 12, 127, 0, 40, 0, 56, 188, 197, 71, 190, 0, 0, 128, 191, 191, 20, 123, 191, 0, 130, 0, 0, 127, 0, 0, 129, 160, 57, 29, 56, 188, 197, 71, 190, 0, 0, 128, 63, 191, 20, 123, 191, 220, 0, 135, 0, 135, 0, 36, 127, 0, 40, 0, 0, 188, 197, 71, 190, 0, 0, 128, 63, 191, 20, 123, 191, 244, 0, 130, 0, 130, 0, 12, 127, 0, 40, 0, 0 ),
"array_index_data": PoolByteArray( 2, 0, 8, 0, 4, 0, 2, 0, 6, 0, 8, 0, 7, 0, 13, 0, 9, 0, 7, 0, 11, 0, 13, 0, 12, 0, 18, 0, 14, 0, 12, 0, 16, 0, 18, 0, 17, 0, 23, 0, 19, 0, 17, 0, 21, 0, 23, 0, 22, 0, 28, 0, 24, 0, 22, 0, 26, 0, 28, 0, 27, 0, 33, 0, 29, 0, 27, 0, 31, 0, 33, 0, 32, 0, 38, 0, 34, 0, 32, 0, 36, 0, 38, 0, 37, 0, 43, 0, 39, 0, 37, 0, 41, 0, 43, 0, 42, 0, 49, 0, 44, 0, 42, 0, 47, 0, 49, 0, 46, 0, 54, 0, 48, 0, 46, 0, 52, 0, 54, 0, 51, 0, 59, 0, 53, 0, 51, 0, 57, 0, 59, 0, 56, 0, 64, 0, 58, 0, 56, 0, 62, 0, 64, 0, 61, 0, 69, 0, 63, 0, 61, 0, 67, 0, 69, 0, 66, 0, 74, 0, 68, 0, 66, 0, 72, 0, 74, 0, 71, 0, 79, 0, 73, 0, 71, 0, 77, 0, 79, 0, 76, 0, 84, 0, 78, 0, 76, 0, 82, 0, 84, 0, 80, 0, 89, 0, 83, 0, 80, 0, 86, 0, 89, 0, 85, 0, 94, 0, 88, 0, 85, 0, 91, 0, 94, 0, 90, 0, 99, 0, 93, 0, 90, 0, 96, 0, 99, 0, 95, 0, 104, 0, 98, 0, 95, 0, 101, 0, 104, 0, 100, 0, 109, 0, 103, 0, 100, 0, 106, 0, 109, 0, 105, 0, 114, 0, 108, 0, 105, 0, 111, 0, 114, 0, 110, 0, 119, 0, 113, 0, 110, 0, 116, 0, 119, 0, 115, 0, 124, 0, 118, 0, 115, 0, 121, 0, 124, 0, 120, 0, 128, 0, 123, 0, 120, 0, 125, 0, 128, 0, 126, 0, 133, 0, 129, 0, 126, 0, 130, 0, 133, 0, 131, 0, 138, 0, 134, 0, 131, 0, 135, 0, 138, 0, 136, 0, 143, 0, 139, 0, 136, 0, 140, 0, 143, 0, 141, 0, 148, 0, 144, 0, 141, 0, 145, 0, 148, 0, 146, 0, 153, 0, 149, 0, 146, 0, 150, 0, 153, 0, 151, 0, 158, 0, 154, 0, 151, 0, 155, 0, 158, 0, 156, 0, 3, 0, 159, 0, 156, 0, 0, 0, 3, 0, 157, 0, 5, 0, 1, 0, 5, 0, 15, 0, 10, 0, 15, 0, 25, 0, 20, 0, 25, 0, 35, 0, 30, 0, 35, 0, 45, 0, 40, 0, 45, 0, 55, 0, 50, 0, 55, 0, 65, 0, 60, 0, 65, 0, 75, 0, 70, 0, 75, 0, 87, 0, 81, 0, 87, 0, 97, 0, 92, 0, 97, 0, 107, 0, 102, 0, 107, 0, 117, 0, 112, 0, 117, 0, 127, 0, 122, 0, 127, 0, 137, 0, 132, 0, 137, 0, 147, 0, 142, 0, 147, 0, 157, 0, 152, 0, 157, 0, 15, 0, 5, 0, 15, 0, 35, 0, 25, 0, 35, 0, 55, 0, 45, 0, 55, 0, 75, 0, 65, 0, 75, 0, 97, 0, 87, 0, 97, 0, 117, 0, 107, 0, 117, 0, 137, 0, 127, 0, 137, 0, 157, 0, 147, 0, 157, 0, 35, 0, 15, 0, 35, 0, 75, 0, 55, 0, 75, 0, 117, 0, 97, 0, 117, 0, 157, 0, 137, 0, 157, 0, 75, 0, 35, 0, 75, 0, 157, 0, 117, 0 ),
"blend_shape_data": [  ],
"format": 97559,
"index_count": 282,
"material": SubResource( 9 ),
"primitive": 4,
"skeleton_aabb": [  ],
"vertex_count": 160
}

[sub_resource type="SpatialMaterial" id=11]
vertex_color_use_as_albedo = true

[sub_resource type="ArrayMesh" id=12]
resource_name = "Cylinder002"
surfaces/0 = {
"aabb": AABB( -1, -1, -1, 2, 2, 2 ),
"array_data": PoolByteArray( 0, 0, 0, 0, 0, 0, 128, 191, 0, 0, 128, 191, 244, 0, 130, 0, 130, 0, 12, 127, 0, 0, 0, 56, 0, 0, 0, 0, 0, 0, 128, 191, 0, 0, 128, 191, 0, 130, 0, 0, 126, 0, 0, 129, 0, 58, 20, 56, 0, 0, 0, 0, 0, 0, 128, 191, 0, 0, 128, 191, 12, 0, 130, 0, 130, 0, 244, 127, 0, 60, 0, 56, 0, 0, 0, 0, 0, 0, 128, 63, 0, 0, 128, 191, 244, 0, 130, 0, 130, 0, 12, 127, 0, 0, 0, 0, 0, 0, 0, 0, 0, 0, 128, 63, 0, 0, 128, 191, 12, 0, 130, 0, 130, 0, 244, 127, 0, 60, 0, 0, 194, 197, 71, 62, 0, 0, 128, 191, 190, 20, 123, 191, 0, 130, 0, 0, 127, 0, 0, 129, 95, 58, 29, 56, 194, 197, 71, 62, 0, 0, 128, 191, 190, 20, 123, 191, 12, 0, 130, 0, 130, 0, 244, 127, 192, 59, 0, 56, 194, 197, 71, 62, 0, 0, 128, 191, 190, 20, 123, 191, 36, 0, 135, 0, 135, 0, 220, 127, 192, 59, 0, 56, 194, 197, 71, 62, 0, 0, 128, 63, 190, 20, 123, 191, 12, 0, 130, 0, 130, 0, 244, 127, 192, 59, 0, 0, 194, 197, 71, 62, 0, 0, 128, 63, 190, 20, 123, 191, 36, 0, 135, 0, 135, 0, 220, 127, 192, 59, 0, 0, 22, 239, 195, 62, 0, 0, 128, 191, 94, 131, 108, 191, 0, 130, 0, 0, 127, 0, 0, 129, 188, 58, 57, 56, 22, 239, 195, 62, 0, 0, 128, 191, 94, 131, 108, 191, 36, 0, 135, 0, 135, 0, 220, 127, 128, 59, 0, 56, 22, 239, 195, 62, 0, 0, 128, 191, 94, 131, 108, 191, 59, 0, 144, 0, 144, 0, 197, 127, 128, 59, 0, 56, 22, 239, 195, 62, 0, 0, 128, 63, 94, 131, 108, 191, 36, 0, 135, 0, 135, 0, 220, 127, 128, 59, 0, 0, 22, 239, 195, 62, 0, 0, 128, 63, 94, 131, 108, 191, 59, 0, 144, 0, 144, 0, 197, 127, 128, 59, 0, 0, 218, 57, 14, 63, 0, 0, 128, 191, 49, 219, 84, 191, 0, 130, 0, 0, 126, 0, 0, 129, 17, 59, 103, 56, 218, 57, 14, 63, 0, 0, 128, 191, 49, 219, 84, 191, 59, 0, 144, 0, 144, 0, 197, 127, 64, 59, 0, 56, 218, 57, 14, 63, 0, 0, 128, 191, 49, 219, 84, 191, 80, 0, 158, 0, 158, 0, 176, 127, 64, 59, 0, 56, 218, 57, 14, 63, 0, 0, 128, 63, 49, 219, 84, 191, 59, 0, 144, 0, 144, 0, 197, 127, 64, 59, 0, 0, 218, 57, 14, 63, 0, 0, 128, 63, 49, 219, 84, 191, 80, 0, 158, 0, 158, 0, 176, 127, 64, 59, 0, 0, 243, 4, 53, 63, 0, 0, 128, 191, 243, 4, 53, 191, 0, 130, 0, 0, 126, 0, 0, 129, 91, 59, 164, 56, 243, 4, 53, 63, 0, 0, 128, 191, 243, 4, 53, 191, 80, 0, 158, 0, 158, 0, 176, 127, 0, 59, 0, 56, 243, 4, 53, 63, 0, 0, 128, 191, 243, 4, 53, 191, 98, 0, 176, 0, 176, 0, 158, 127, 0, 59, 0, 56, 243, 4, 53, 63, 0, 0, 128, 63, 243, 4, 53, 191, 80, 0, 158, 0, 158, 0, 176, 127, 0, 59, 0, 0, 243, 4, 53, 63, 0, 0, 128, 63, 243, 4, 53, 191, 98, 0, 176, 0, 176, 0, 158, 127, 0, 59, 0, 0, 49, 219, 84, 63, 0, 0, 128, 191, 218, 57, 14, 191, 0, 130, 0, 0, 127, 0, 0, 129, 152, 59, 238, 56, 49, 219, 84, 63, 0, 0, 128, 191, 218, 57, 14, 191, 98, 0, 176, 0, 176, 0, 158, 127, 192, 58, 0, 56, 49, 219, 84, 63, 0, 0, 128, 191, 218, 57, 14, 191, 112, 0, 197, 0, 197, 0, 144, 127, 192, 58, 0, 56, 49, 219, 84, 63, 0, 0, 128, 63, 218, 57, 14, 191, 98, 0, 176, 0, 176, 0, 158, 127, 192, 58, 0, 0, 49, 219, 84, 63, 0, 0, 128, 63, 218, 57, 14, 191, 112, 0, 197, 0, 197, 0, 144, 127, 192, 58, 0, 0, 94, 131, 108, 63, 0, 0, 128, 191, 21, 239, 195, 190, 0, 130, 0, 0, 127, 0, 0, 129, 198, 59, 67, 57, 94, 131, 108, 63, 0, 0, 128, 191, 21, 239, 195, 190, 112, 0, 197, 0, 197, 0, 144, 127, 128, 58, 0, 56, 94, 131, 108, 63, 0, 0, 128, 191, 21, 239, 195, 190, 121, 0, 220, 0, 220, 0, 135, 127, 128, 58, 0, 56, 94, 131, 108, 63, 0, 0, 128, 63, 21, 239, 195, 190, 112, 0, 197, 0, 197, 0, 144, 127, 128, 58, 0, 0, 94, 131, 108, 63, 0, 0, 128, 63, 21, 239, 195, 190, 121, 0, 220, 0, 220, 0, 135, 127, 128, 58, 0, 0, 190, 20, 123, 63, 0, 0, 128, 191, 196, 197, 71, 190, 0, 130, 0, 0, 127, 0, 0, 129, 226, 59, 160, 57, 190, 20, 123, 63, 0, 0, 128, 191, 196, 197, 71, 190, 121, 0, 220, 0, 220, 0, 135, 127, 64, 58, 0, 56, 190, 20, 123, 63, 0, 0, 128, 191, 196, 197, 71, 190, 126, 0, 244, 0, 244, 0, 130, 127, 64, 58, 0, 56, 190, 20, 123, 63, 0, 0, 128, 63, 196, 197, 71, 190, 121, 0, 220, 0, 220, 0, 135, 127, 64, 58, 0, 0, 190, 20, 123, 63, 0, 0, 128, 63, 196, 197, 71, 190, 126, 0, 244, 0, 244, 0, 130, 127, 64, 58, 0, 0, 0, 0, 128, 63, 0, 0, 128, 191, 46, 189, 59, 51, 0, 130, 0, 0, 126, 0, 0, 129, 235, 59, 0, 58, 0, 0, 128, 63, 0, 0, 128, 191, 46, 189, 59, 51, 126, 0, 244, 0, 244, 0, 130, 127, 0, 58, 0, 56, 0, 0, 128, 63, 0, 0, 128, 191, 46, 189, 59, 51, 126, 0, 12, 0, 12, 0, 130, 127, 0, 58, 0, 56, 0, 0, 128, 63, 0, 0, 128, 63, 46, 189, 59, 51, 126, 0, 244, 0, 244, 0, 130, 127, 0, 58, 0, 0, 0, 0, 128, 63, 0, 0, 128, 63, 46, 189, 59, 51, 126, 0, 12, 0, 12, 0, 130, 127, 0, 58, 0, 0, 190, 20, 123, 63, 0, 0, 128, 191, 194, 197, 71, 62, 0, 130, 0, 0, 126, 0, 0, 129, 226, 59, 95, 58, 190, 20, 123, 63, 0, 0, 128, 191, 194, 197, 71, 62, 121, 0, 36, 0, 36, 0, 135, 127, 192, 57, 0, 56, 190, 20, 123, 63, 0, 0, 128, 191, 194, 197, 71, 62, 126, 0, 12, 0, 12, 0, 130, 127, 192, 57, 0, 56, 190, 20, 123, 63, 0, 0, 128, 63, 194, 197, 71, 62, 121, 0, 36, 0, 36, 0, 135, 127, 192, 57, 0, 0, 190, 20, 123, 63, 0, 0, 128, 63, 194, 197, 71, 62, 126, 0, 12, 0, 12, 0, 130, 127, 192, 57, 0, 0, 95, 131, 108, 63, 0, 0, 128, 191, 20, 239, 195, 62, 0, 130, 0, 0, 126, 0, 0, 129, 198, 59, 188, 58, 95, 131, 108, 63, 0, 0, 128, 191, 20, 239, 195, 62, 112, 0, 59, 0, 59, 0, 144, 127, 128, 57, 0, 56, 95, 131, 108, 63, 0, 0, 128, 191, 20, 239, 195, 62, 121, 0, 36, 0, 36, 0, 135, 127, 128, 57, 0, 56, 95, 131, 108, 63, 0, 0, 128, 63, 20, 239, 195, 62, 112, 0, 59, 0, 59, 0, 144, 127, 128, 57, 0, 0, 95, 131, 108, 63, 0, 0, 128, 63, 20, 239, 195, 62, 121, 0, 36, 0, 36, 0, 135, 127, 128, 57, 0, 0, 50, 219, 84, 63, 0, 0, 128, 191, 217, 57, 14, 63, 0, 130, 0, 0, 127, 0, 0, 129, 152, 59, 17, 59, 50, 219, 84, 63, 0, 0, 128, 191, 217, 57, 14, 63, 98, 0, 80, 0, 80, 0, 158, 127, 64, 57, 0, 56, 50, 219, 84, 63, 0, 0, 128, 191, 217, 57, 14, 63, 112, 0, 59, 0, 59, 0, 144, 127, 64, 57, 0, 56, 50, 219, 84, 63, 0, 0, 128, 63, 217, 57, 14, 63, 98, 0, 80, 0, 80, 0, 158, 127, 64, 57, 0, 0, 50, 219, 84, 63, 0, 0, 128, 63, 217, 57, 14, 63, 112, 0, 59, 0, 59, 0, 144, 127, 64, 57, 0, 0, 243, 4, 53, 63, 0, 0, 128, 191, 243, 4, 53, 63, 0, 130, 0, 0, 127, 0, 0, 129, 91, 59, 91, 59, 243, 4, 53, 63, 0, 0, 128, 191, 243, 4, 53, 63, 80, 0, 98, 0, 98, 0, 176, 127, 0, 57, 0, 56, 243, 4, 53, 63, 0, 0, 128, 191, 243, 4, 53, 63, 98, 0, 80, 0, 80, 0, 158, 127, 0, 57, 0, 56, 243, 4, 53, 63, 0, 0, 128, 63, 243, 4, 53, 63, 80, 0, 98, 0, 98, 0, 176, 127, 0, 57, 0, 0, 243, 4, 53, 63, 0, 0, 128, 63, 243, 4, 53, 63, 98, 0, 80, 0, 80, 0, 158, 127, 0, 57, 0, 0, 217, 57, 14, 63, 0, 0, 128, 191, 50, 219, 84, 63, 0, 130, 0, 0, 127, 0, 0, 129, 17, 59, 152, 59, 217, 57, 14, 63, 0, 0, 128, 191, 50, 219, 84, 63, 59, 0, 112, 0, 112, 0, 197, 127, 192, 56, 0, 56, 217, 57, 14, 63, 0, 0, 128, 191, 50, 219, 84, 63, 80, 0, 98, 0, 98, 0, 176, 127, 192, 56, 0, 56, 217, 57, 14, 63, 0, 0, 128, 63, 50, 219, 84, 63, 59, 0, 112, 0, 112, 0, 197, 127, 192, 56, 0, 0, 217, 57, 14, 63, 0, 0, 128, 63, 50, 219, 84, 63, 80, 0, 98, 0, 98, 0, 176, 127, 192, 56, 0, 0, 23, 239, 195, 62, 0, 0, 128, 191, 94, 131, 108, 63, 0, 130, 0, 0, 126, 0, 0, 129, 188, 58, 198, 59, 23, 239, 195, 62, 0, 0, 128, 191, 94, 131, 108, 63, 36, 0, 121, 0, 121, 0, 220, 127, 128, 56, 0, 56, 23, 239, 195, 62, 0, 0, 128, 191, 94, 131, 108, 63, 59, 0, 112, 0, 112, 0, 197, 127, 128, 56, 0, 56, 23, 239, 195, 62, 0, 0, 128, 63, 94, 131, 108, 63, 36, 0, 121, 0, 121, 0, 220, 127, 128, 56, 0, 0, 23, 239, 195, 62, 0, 0, 128, 63, 94, 131, 108, 63, 59, 0, 112, 0, 112, 0, 197, 127, 128, 56, 0, 0, 193, 197, 71, 62, 0, 0, 128, 191, 191, 20, 123, 63, 0, 130, 0, 0, 127, 0, 0, 129, 95, 58, 226, 59, 193, 197, 71, 62, 0, 0, 128, 191, 191, 20, 123, 63, 12, 0, 126, 0, 126, 0, 244, 127, 64, 56, 0, 56, 193, 197, 71, 62, 0, 0, 128, 191, 191, 20, 123, 63, 36, 0, 121, 0, 121, 0, 220, 127, 64, 56, 0, 56, 193, 197, 71, 62, 0, 0, 128, 63, 191, 20, 123, 63, 12, 0, 126, 0, 126, 0, 244, 127, 64, 56, 0, 0, 193, 197, 71, 62, 0, 0, 128, 63, 191, 20, 123, 63, 36, 0, 121, 0, 121, 0, 220, 127, 64, 56, 0, 0, 46, 189, 187, 179, 0, 0, 128, 191, 0, 0, 128, 63, 244, 0, 126, 0, 126, 0, 12, 127, 0, 56, 0, 56, 46, 189, 187, 179, 0, 0, 128, 191, 0, 0, 128, 63, 0, 130, 0, 0, 127, 0, 0, 129, 0, 58, 235, 59, 46, 189, 187, 179, 0, 0, 128, 191, 0, 0, 128, 63, 12, 0, 126, 0, 126, 0, 244, 127, 0, 56, 0, 56, 46, 189, 187, 179, 0, 0, 128, 63, 0, 0, 128, 63, 244, 0, 126, 0, 126, 0, 12, 127, 0, 56, 0, 0, 46, 189, 187, 179, 0, 0, 128, 63, 0, 0, 128, 63, 12, 0, 126, 0, 126, 0, 244, 127, 0, 56, 0, 0, 189, 197, 71, 190, 0, 0, 128, 191, 191, 20, 123, 63, 220, 0, 121, 0, 121, 0, 36, 127, 128, 55, 0, 56, 189, 197, 71, 190, 0, 0, 128, 191, 191, 20, 123, 63, 244, 0, 126, 0, 126, 0, 12, 127, 128, 55, 0, 56, 189, 197, 71, 190, 0, 0, 128, 191, 191, 20, 123, 63, 0, 130, 0, 0, 127, 0, 0, 129, 160, 57, 226, 59, 189, 197, 71, 190, 0, 0, 128, 63, 191, 20, 123, 63, 220, 0, 121, 0, 121, 0, 36, 127, 128, 55, 0, 0, 189, 197, 71, 190, 0, 0, 128, 63, 191, 20, 123, 63, 244, 0, 126, 0, 126, 0, 12, 127, 128, 55, 0, 0, 21, 239, 195, 190, 0, 0, 128, 191, 94, 131, 108, 63, 197, 0, 112, 0, 112, 0, 59, 127, 0, 55, 0, 56, 21, 239, 195, 190, 0, 0, 128, 191, 94, 131, 108, 63, 220, 0, 121, 0, 121, 0, 36, 127, 0, 55, 0, 56, 21, 239, 195, 190, 0, 0, 128, 191, 94, 131, 108, 63, 0, 130, 0, 0, 126, 0, 0, 129, 67, 57, 198, 59, 21, 239, 195, 190, 0, 0, 128, 63, 94, 131, 108, 63, 197, 0, 112, 0, 112, 0, 59, 127, 0, 55, 0, 0, 21, 239, 195, 190, 0, 0, 128, 63, 94, 131, 108, 63, 220, 0, 121, 0, 121, 0, 36, 127, 0, 55, 0, 0, 219, 57, 14, 191, 0, 0, 128, 191, 48, 219, 84, 63, 176, 0, 98, 0, 98, 0, 80, 127, 128, 54, 0, 56, 219, 57, 14, 191, 0, 0, 128, 191, 48, 219, 84, 63, 197, 0, 112, 0, 112, 0, 59, 127, 128, 54, 0, 56, 219, 57, 14, 191, 0, 0, 128, 191, 48, 219, 84, 63, 0, 130, 0, 0, 127, 0, 0, 129, 238, 56, 152, 59, 219, 57, 14, 191, 0, 0, 128, 63, 48, 219, 84, 63, 176, 0, 98, 0, 98, 0, 80, 127, 128, 54, 0, 0, 219, 57, 14, 191, 0, 0, 128, 63, 48, 219, 84, 63, 197, 0, 112, 0, 112, 0, 59, 127, 128, 54, 0, 0, 242, 4, 53, 191, 0, 0, 128, 191, 244, 4, 53, 63, 158, 0, 80, 0, 80, 0, 98, 127, 0, 54, 0, 56, 242, 4, 53, 191, 0, 0, 128, 191, 244, 4, 53, 63, 176, 0, 98, 0, 98, 0, 80, 127, 0, 54, 0, 56, 242, 4, 53, 191, 0, 0, 128, 191, 244, 4, 53, 63, 0, 130, 0, 0, 127, 0, 0, 129, 164, 56, 91, 59, 242, 4, 53, 191, 0, 0, 128, 63, 244, 4, 53, 63, 158, 0, 80, 0, 80, 0, 98, 127, 0, 54, 0, 0, 242, 4, 53, 191, 0, 0, 128, 63, 244, 4, 53, 63, 176, 0, 98, 0, 98, 0, 80, 127, 0, 54, 0, 0, 47, 219, 84, 191, 0, 0, 128, 191, 221, 57, 14, 63, 144, 0, 59, 0, 59, 0, 112, 127, 128, 53, 0, 56, 47, 219, 84, 191, 0, 0, 128, 191, 221, 57, 14, 63, 158, 0, 80, 0, 80, 0, 98, 127, 128, 53, 0, 56, 47, 219, 84, 191, 0, 0, 128, 191, 221, 57, 14, 63, 0, 130, 0, 0, 127, 0, 0, 129, 103, 56, 17, 59, 47, 219, 84, 191, 0, 0, 128, 63, 221, 57, 14, 63, 144, 0, 59, 0, 59, 0, 112, 127, 128, 53, 0, 0, 47, 219, 84, 191, 0, 0, 128, 63, 221, 57, 14, 63, 158, 0, 80, 0, 80, 0, 98, 127, 128, 53, 0, 0, 94, 131, 108, 191, 0, 0, 128, 191, 26, 239, 195, 62, 135, 0, 36, 0, 36, 0, 121, 127, 0, 53, 0, 56, 94, 131, 108, 191, 0, 0, 128, 191, 26, 239, 195, 62, 144, 0, 59, 0, 59, 0, 112, 127, 0, 53, 0, 56, 94, 131, 108, 191, 0, 0, 128, 191, 26, 239, 195, 62, 0, 130, 0, 0, 126, 0, 0, 129, 57, 56, 188, 58, 94, 131, 108, 191, 0, 0, 128, 63, 26, 239, 195, 62, 135, 0, 36, 0, 36, 0, 121, 127, 0, 53, 0, 0, 94, 131, 108, 191, 0, 0, 128, 63, 26, 239, 195, 62, 144, 0, 59, 0, 59, 0, 112, 127, 0, 53, 0, 0, 190, 20, 123, 191, 0, 0, 128, 191, 198, 197, 71, 62, 130, 0, 12, 0, 12, 0, 126, 127, 128, 52, 0, 56, 190, 20, 123, 191, 0, 0, 128, 191, 198, 197, 71, 62, 135, 0, 36, 0, 36, 0, 121, 127, 128, 52, 0, 56, 190, 20, 123, 191, 0, 0, 128, 191, 198, 197, 71, 62, 0, 130, 0, 0, 127, 0, 0, 129, 29, 56, 95, 58, 190, 20, 123, 191, 0, 0, 128, 63, 198, 197, 71, 62, 130, 0, 12, 0, 12, 0, 126, 127, 128, 52, 0, 0, 190, 20, 123, 191, 0, 0, 128, 63, 198, 197, 71, 62, 135, 0, 36, 0, 36, 0, 121, 127, 128, 52, 0, 0, 0, 0, 128, 191, 0, 0, 128, 191, 46, 222, 76, 178, 130, 0, 244, 0, 244, 0, 126, 127, 0, 52, 0, 56, 0, 0, 128, 191, 0, 0, 128, 191, 46, 222, 76, 178, 130, 0, 12, 0, 12, 0, 126, 127, 0, 52, 0, 56, 0, 0, 128, 191, 0, 0, 128, 191, 46, 222, 76, 178, 0, 130, 0, 0, 126, 0, 0, 129, 20, 56, 0, 58, 0, 0, 128, 191, 0, 0, 128, 63, 46, 222, 76, 178, 130, 0, 244, 0, 244, 0, 126, 127, 0, 52, 0, 0, 0, 0, 128, 191, 0, 0, 128, 63, 46, 222, 76, 178, 130, 0, 12, 0, 12, 0, 126, 127, 0, 52, 0, 0, 190, 20, 123, 191, 0, 0, 128, 191, 200, 197, 71, 190, 130, 0, 244, 0, 244, 0, 126, 127, 0, 51, 0, 56, 190, 20, 123, 191, 0, 0, 128, 191, 200, 197, 71, 190, 135, 0, 220, 0, 220, 0, 121, 127, 0, 51, 0, 56, 190, 20, 123, 191, 0, 0, 128, 191, 200, 197, 71, 190, 0, 130, 0, 0, 127, 0, 0, 129, 29, 56, 160, 57, 190, 20, 123, 191, 0, 0, 128, 63, 200, 197, 71, 190, 130, 0, 244, 0, 244, 0, 126, 127, 0, 51, 0, 0, 190, 20, 123, 191, 0, 0, 128, 63, 200, 197, 71, 190, 135, 0, 220, 0, 220, 0, 121, 127, 0, 51, 0, 0, 93, 131, 108, 191, 0, 0, 128, 191, 27, 239, 195, 190, 135, 0, 220, 0, 220, 0, 121, 127, 0, 50, 0, 56, 93, 131, 108, 191, 0, 0, 128, 191, 27, 239, 195, 190, 144, 0, 197, 0, 197, 0, 112, 127, 0, 50, 0, 56, 93, 131, 108, 191, 0, 0, 128, 191, 27, 239, 195, 190, 0, 130, 0, 0, 127, 0, 0, 129, 57, 56, 67, 57, 93, 131, 108, 191, 0, 0, 128, 63, 27, 239, 195, 190, 135, 0, 220, 0, 220, 0, 121, 127, 0, 50, 0, 0, 93, 131, 108, 191, 0, 0, 128, 63, 27, 239, 195, 190, 144, 0, 197, 0, 197, 0, 112, 127, 0, 50, 0, 0, 51, 219, 84, 191, 0, 0, 128, 191, 215, 57, 14, 191, 144, 0, 197, 0, 197, 0, 112, 127, 0, 49, 0, 56, 51, 219, 84, 191, 0, 0, 128, 191, 215, 57, 14, 191, 158, 0, 176, 0, 176, 0, 98, 127, 0, 49, 0, 56, 51, 219, 84, 191, 0, 0, 128, 191, 215, 57, 14, 191, 0, 130, 0, 0, 127, 0, 0, 129, 103, 56, 238, 56, 51, 219, 84, 191, 0, 0, 128, 63, 215, 57, 14, 191, 144, 0, 197, 0, 197, 0, 112, 127, 0, 49, 0, 0, 51, 219, 84, 191, 0, 0, 128, 63, 215, 57, 14, 191, 158, 0, 176, 0, 176, 0, 98, 127, 0, 49, 0, 0, 245, 4, 53, 191, 0, 0, 128, 191, 241, 4, 53, 191, 158, 0, 176, 0, 176, 0, 98, 127, 0, 48, 0, 56, 245, 4, 53, 191, 0, 0, 128, 191, 241, 4, 53, 191, 176, 0, 158, 0, 158, 0, 80, 127, 0, 48, 0, 56, 245, 4, 53, 191, 0, 0, 128, 191, 241, 4, 53, 191, 0, 130, 0, 0, 127, 0, 0, 129, 164, 56, 164, 56, 245, 4, 53, 191, 0, 0, 128, 63, 241, 4, 53, 191, 158, 0, 176, 0, 176, 0, 98, 127, 0, 48, 0, 0, 245, 4, 53, 191, 0, 0, 128, 63, 241, 4, 53, 191, 176, 0, 158, 0, 158, 0, 80, 127, 0, 48, 0, 0, 219, 57, 14, 191, 0, 0, 128, 191, 49, 219, 84, 191, 176, 0, 158, 0, 158, 0, 80, 127, 0, 46, 0, 56, 219, 57, 14, 191, 0, 0, 128, 191, 49, 219, 84, 191, 197, 0, 144, 0, 144, 0, 59, 127, 0, 46, 0, 56, 219, 57, 14, 191, 0, 0, 128, 191, 49, 219, 84, 191, 0, 130, 0, 0, 126, 0, 0, 129, 238, 56, 103, 56, 219, 57, 14, 191, 0, 0, 128, 63, 49, 219, 84, 191, 176, 0, 158, 0, 158, 0, 80, 127, 0, 46, 0, 0, 219, 57, 14, 191, 0, 0, 128, 63, 49, 219, 84, 191, 197, 0, 144, 0, 144, 0, 59, 127, 0, 46, 0, 0, 21, 239, 195, 190, 0, 0, 128, 191, 95, 131, 108, 191, 197, 0, 144, 0, 144, 0, 59, 127, 0, 44, 0, 56, 21, 239, 195, 190, 0, 0, 128, 191, 95, 131, 108, 191, 220, 0, 135, 0, 135, 0, 36, 127, 0, 44, 0, 56, 21, 239, 195, 190, 0, 0, 128, 191, 95, 131, 108, 191, 0, 130, 0, 0, 126, 0, 0, 129, 67, 57, 57, 56, 21, 239, 195, 190, 0, 0, 128, 63, 95, 131, 108, 191, 197, 0, 144, 0, 144, 0, 59, 127, 0, 44, 0, 0, 21, 239, 195, 190, 0, 0, 128, 63, 95, 131, 108, 191, 220, 0, 135, 0, 135, 0, 36, 127, 0, 44, 0, 0, 188, 197, 71, 190, 0, 0, 128, 191, 191, 20, 123, 191, 220, 0, 135, 0, 135, 0, 36, 127, 0, 40, 0, 56, 188, 197, 71, 190, 0, 0, 128, 191, 191, 20, 123, 191, 244, 0, 130, 0, 130, 0, 12, 127, 0, 40, 0, 56, 188, 197, 71, 190, 0, 0, 128, 191, 191, 20, 123, 191, 0, 130, 0, 0, 127, 0, 0, 129, 160, 57, 29, 56, 188, 197, 71, 190, 0, 0, 128, 63, 191, 20, 123, 191, 220, 0, 135, 0, 135, 0, 36, 127, 0, 40, 0, 0, 188, 197, 71, 190, 0, 0, 128, 63, 191, 20, 123, 191, 244, 0, 130, 0, 130, 0, 12, 127, 0, 40, 0, 0 ),
"array_index_data": PoolByteArray( 2, 0, 8, 0, 4, 0, 2, 0, 6, 0, 8, 0, 7, 0, 13, 0, 9, 0, 7, 0, 11, 0, 13, 0, 12, 0, 18, 0, 14, 0, 12, 0, 16, 0, 18, 0, 17, 0, 23, 0, 19, 0, 17, 0, 21, 0, 23, 0, 22, 0, 28, 0, 24, 0, 22, 0, 26, 0, 28, 0, 27, 0, 33, 0, 29, 0, 27, 0, 31, 0, 33, 0, 32, 0, 38, 0, 34, 0, 32, 0, 36, 0, 38, 0, 37, 0, 43, 0, 39, 0, 37, 0, 41, 0, 43, 0, 42, 0, 49, 0, 44, 0, 42, 0, 47, 0, 49, 0, 46, 0, 54, 0, 48, 0, 46, 0, 52, 0, 54, 0, 51, 0, 59, 0, 53, 0, 51, 0, 57, 0, 59, 0, 56, 0, 64, 0, 58, 0, 56, 0, 62, 0, 64, 0, 61, 0, 69, 0, 63, 0, 61, 0, 67, 0, 69, 0, 66, 0, 74, 0, 68, 0, 66, 0, 72, 0, 74, 0, 71, 0, 79, 0, 73, 0, 71, 0, 77, 0, 79, 0, 76, 0, 84, 0, 78, 0, 76, 0, 82, 0, 84, 0, 80, 0, 89, 0, 83, 0, 80, 0, 86, 0, 89, 0, 85, 0, 94, 0, 88, 0, 85, 0, 91, 0, 94, 0, 90, 0, 99, 0, 93, 0, 90, 0, 96, 0, 99, 0, 95, 0, 104, 0, 98, 0, 95, 0, 101, 0, 104, 0, 100, 0, 109, 0, 103, 0, 100, 0, 106, 0, 109, 0, 105, 0, 114, 0, 108, 0, 105, 0, 111, 0, 114, 0, 110, 0, 119, 0, 113, 0, 110, 0, 116, 0, 119, 0, 115, 0, 124, 0, 118, 0, 115, 0, 121, 0, 124, 0, 120, 0, 128, 0, 123, 0, 120, 0, 125, 0, 128, 0, 126, 0, 133, 0, 129, 0, 126, 0, 130, 0, 133, 0, 131, 0, 138, 0, 134, 0, 131, 0, 135, 0, 138, 0, 136, 0, 143, 0, 139, 0, 136, 0, 140, 0, 143, 0, 141, 0, 148, 0, 144, 0, 141, 0, 145, 0, 148, 0, 146, 0, 153, 0, 149, 0, 146, 0, 150, 0, 153, 0, 151, 0, 158, 0, 154, 0, 151, 0, 155, 0, 158, 0, 156, 0, 3, 0, 159, 0, 156, 0, 0, 0, 3, 0, 157, 0, 5, 0, 1, 0, 5, 0, 15, 0, 10, 0, 15, 0, 25, 0, 20, 0, 25, 0, 35, 0, 30, 0, 35, 0, 45, 0, 40, 0, 45, 0, 55, 0, 50, 0, 55, 0, 65, 0, 60, 0, 65, 0, 75, 0, 70, 0, 75, 0, 87, 0, 81, 0, 87, 0, 97, 0, 92, 0, 97, 0, 107, 0, 102, 0, 107, 0, 117, 0, 112, 0, 117, 0, 127, 0, 122, 0, 127, 0, 137, 0, 132, 0, 137, 0, 147, 0, 142, 0, 147, 0, 157, 0, 152, 0, 157, 0, 15, 0, 5, 0, 15, 0, 35, 0, 25, 0, 35, 0, 55, 0, 45, 0, 55, 0, 75, 0, 65, 0, 75, 0, 97, 0, 87, 0, 97, 0, 117, 0, 107, 0, 117, 0, 137, 0, 127, 0, 137, 0, 157, 0, 147, 0, 157, 0, 35, 0, 15, 0, 35, 0, 75, 0, 55, 0, 75, 0, 117, 0, 97, 0, 117, 0, 157, 0, 137, 0, 157, 0, 75, 0, 35, 0, 75, 0, 157, 0, 117, 0 ),
"blend_shape_data": [  ],
"format": 97559,
"index_count": 282,
"material": SubResource( 11 ),
"primitive": 4,
"skeleton_aabb": [  ],
"vertex_count": 160
}

[sub_resource type="SpatialMaterial" id=13]
vertex_color_use_as_albedo = true

[sub_resource type="ArrayMesh" id=14]
resource_name = "Cylinder003"
surfaces/0 = {
"aabb": AABB( -1, -1, -1, 2, 2, 2 ),
"array_data": PoolByteArray( 0, 0, 0, 0, 0, 0, 128, 191, 0, 0, 128, 191, 244, 0, 130, 0, 130, 0, 12, 127, 0, 0, 0, 56, 0, 0, 0, 0, 0, 0, 128, 191, 0, 0, 128, 191, 0, 130, 0, 0, 126, 0, 0, 129, 0, 58, 20, 56, 0, 0, 0, 0, 0, 0, 128, 191, 0, 0, 128, 191, 12, 0, 130, 0, 130, 0, 244, 127, 0, 60, 0, 56, 0, 0, 0, 0, 0, 0, 128, 63, 0, 0, 128, 191, 244, 0, 130, 0, 130, 0, 12, 127, 0, 0, 0, 0, 0, 0, 0, 0, 0, 0, 128, 63, 0, 0, 128, 191, 12, 0, 130, 0, 130, 0, 244, 127, 0, 60, 0, 0, 194, 197, 71, 62, 0, 0, 128, 191, 190, 20, 123, 191, 0, 130, 0, 0, 127, 0, 0, 129, 95, 58, 29, 56, 194, 197, 71, 62, 0, 0, 128, 191, 190, 20, 123, 191, 12, 0, 130, 0, 130, 0, 244, 127, 192, 59, 0, 56, 194, 197, 71, 62, 0, 0, 128, 191, 190, 20, 123, 191, 36, 0, 135, 0, 135, 0, 220, 127, 192, 59, 0, 56, 194, 197, 71, 62, 0, 0, 128, 63, 190, 20, 123, 191, 12, 0, 130, 0, 130, 0, 244, 127, 192, 59, 0, 0, 194, 197, 71, 62, 0, 0, 128, 63, 190, 20, 123, 191, 36, 0, 135, 0, 135, 0, 220, 127, 192, 59, 0, 0, 22, 239, 195, 62, 0, 0, 128, 191, 94, 131, 108, 191, 0, 130, 0, 0, 127, 0, 0, 129, 188, 58, 57, 56, 22, 239, 195, 62, 0, 0, 128, 191, 94, 131, 108, 191, 36, 0, 135, 0, 135, 0, 220, 127, 128, 59, 0, 56, 22, 239, 195, 62, 0, 0, 128, 191, 94, 131, 108, 191, 59, 0, 144, 0, 144, 0, 197, 127, 128, 59, 0, 56, 22, 239, 195, 62, 0, 0, 128, 63, 94, 131, 108, 191, 36, 0, 135, 0, 135, 0, 220, 127, 128, 59, 0, 0, 22, 239, 195, 62, 0, 0, 128, 63, 94, 131, 108, 191, 59, 0, 144, 0, 144, 0, 197, 127, 128, 59, 0, 0, 218, 57, 14, 63, 0, 0, 128, 191, 49, 219, 84, 191, 0, 130, 0, 0, 126, 0, 0, 129, 17, 59, 103, 56, 218, 57, 14, 63, 0, 0, 128, 191, 49, 219, 84, 191, 59, 0, 144, 0, 144, 0, 197, 127, 64, 59, 0, 56, 218, 57, 14, 63, 0, 0, 128, 191, 49, 219, 84, 191, 80, 0, 158, 0, 158, 0, 176, 127, 64, 59, 0, 56, 218, 57, 14, 63, 0, 0, 128, 63, 49, 219, 84, 191, 59, 0, 144, 0, 144, 0, 197, 127, 64, 59, 0, 0, 218, 57, 14, 63, 0, 0, 128, 63, 49, 219, 84, 191, 80, 0, 158, 0, 158, 0, 176, 127, 64, 59, 0, 0, 243, 4, 53, 63, 0, 0, 128, 191, 243, 4, 53, 191, 0, 130, 0, 0, 126, 0, 0, 129, 91, 59, 164, 56, 243, 4, 53, 63, 0, 0, 128, 191, 243, 4, 53, 191, 80, 0, 158, 0, 158, 0, 176, 127, 0, 59, 0, 56, 243, 4, 53, 63, 0, 0, 128, 191, 243, 4, 53, 191, 98, 0, 176, 0, 176, 0, 158, 127, 0, 59, 0, 56, 243, 4, 53, 63, 0, 0, 128, 63, 243, 4, 53, 191, 80, 0, 158, 0, 158, 0, 176, 127, 0, 59, 0, 0, 243, 4, 53, 63, 0, 0, 128, 63, 243, 4, 53, 191, 98, 0, 176, 0, 176, 0, 158, 127, 0, 59, 0, 0, 49, 219, 84, 63, 0, 0, 128, 191, 218, 57, 14, 191, 0, 130, 0, 0, 127, 0, 0, 129, 152, 59, 238, 56, 49, 219, 84, 63, 0, 0, 128, 191, 218, 57, 14, 191, 98, 0, 176, 0, 176, 0, 158, 127, 192, 58, 0, 56, 49, 219, 84, 63, 0, 0, 128, 191, 218, 57, 14, 191, 112, 0, 197, 0, 197, 0, 144, 127, 192, 58, 0, 56, 49, 219, 84, 63, 0, 0, 128, 63, 218, 57, 14, 191, 98, 0, 176, 0, 176, 0, 158, 127, 192, 58, 0, 0, 49, 219, 84, 63, 0, 0, 128, 63, 218, 57, 14, 191, 112, 0, 197, 0, 197, 0, 144, 127, 192, 58, 0, 0, 94, 131, 108, 63, 0, 0, 128, 191, 21, 239, 195, 190, 0, 130, 0, 0, 127, 0, 0, 129, 198, 59, 67, 57, 94, 131, 108, 63, 0, 0, 128, 191, 21, 239, 195, 190, 112, 0, 197, 0, 197, 0, 144, 127, 128, 58, 0, 56, 94, 131, 108, 63, 0, 0, 128, 191, 21, 239, 195, 190, 121, 0, 220, 0, 220, 0, 135, 127, 128, 58, 0, 56, 94, 131, 108, 63, 0, 0, 128, 63, 21, 239, 195, 190, 112, 0, 197, 0, 197, 0, 144, 127, 128, 58, 0, 0, 94, 131, 108, 63, 0, 0, 128, 63, 21, 239, 195, 190, 121, 0, 220, 0, 220, 0, 135, 127, 128, 58, 0, 0, 190, 20, 123, 63, 0, 0, 128, 191, 196, 197, 71, 190, 0, 130, 0, 0, 127, 0, 0, 129, 226, 59, 160, 57, 190, 20, 123, 63, 0, 0, 128, 191, 196, 197, 71, 190, 121, 0, 220, 0, 220, 0, 135, 127, 64, 58, 0, 56, 190, 20, 123, 63, 0, 0, 128, 191, 196, 197, 71, 190, 126, 0, 244, 0, 244, 0, 130, 127, 64, 58, 0, 56, 190, 20, 123, 63, 0, 0, 128, 63, 196, 197, 71, 190, 121, 0, 220, 0, 220, 0, 135, 127, 64, 58, 0, 0, 190, 20, 123, 63, 0, 0, 128, 63, 196, 197, 71, 190, 126, 0, 244, 0, 244, 0, 130, 127, 64, 58, 0, 0, 0, 0, 128, 63, 0, 0, 128, 191, 46, 189, 59, 51, 0, 130, 0, 0, 126, 0, 0, 129, 235, 59, 0, 58, 0, 0, 128, 63, 0, 0, 128, 191, 46, 189, 59, 51, 126, 0, 244, 0, 244, 0, 130, 127, 0, 58, 0, 56, 0, 0, 128, 63, 0, 0, 128, 191, 46, 189, 59, 51, 126, 0, 12, 0, 12, 0, 130, 127, 0, 58, 0, 56, 0, 0, 128, 63, 0, 0, 128, 63, 46, 189, 59, 51, 126, 0, 244, 0, 244, 0, 130, 127, 0, 58, 0, 0, 0, 0, 128, 63, 0, 0, 128, 63, 46, 189, 59, 51, 126, 0, 12, 0, 12, 0, 130, 127, 0, 58, 0, 0, 190, 20, 123, 63, 0, 0, 128, 191, 194, 197, 71, 62, 0, 130, 0, 0, 126, 0, 0, 129, 226, 59, 95, 58, 190, 20, 123, 63, 0, 0, 128, 191, 194, 197, 71, 62, 121, 0, 36, 0, 36, 0, 135, 127, 192, 57, 0, 56, 190, 20, 123, 63, 0, 0, 128, 191, 194, 197, 71, 62, 126, 0, 12, 0, 12, 0, 130, 127, 192, 57, 0, 56, 190, 20, 123, 63, 0, 0, 128, 63, 194, 197, 71, 62, 121, 0, 36, 0, 36, 0, 135, 127, 192, 57, 0, 0, 190, 20, 123, 63, 0, 0, 128, 63, 194, 197, 71, 62, 126, 0, 12, 0, 12, 0, 130, 127, 192, 57, 0, 0, 95, 131, 108, 63, 0, 0, 128, 191, 20, 239, 195, 62, 0, 130, 0, 0, 126, 0, 0, 129, 198, 59, 188, 58, 95, 131, 108, 63, 0, 0, 128, 191, 20, 239, 195, 62, 112, 0, 59, 0, 59, 0, 144, 127, 128, 57, 0, 56, 95, 131, 108, 63, 0, 0, 128, 191, 20, 239, 195, 62, 121, 0, 36, 0, 36, 0, 135, 127, 128, 57, 0, 56, 95, 131, 108, 63, 0, 0, 128, 63, 20, 239, 195, 62, 112, 0, 59, 0, 59, 0, 144, 127, 128, 57, 0, 0, 95, 131, 108, 63, 0, 0, 128, 63, 20, 239, 195, 62, 121, 0, 36, 0, 36, 0, 135, 127, 128, 57, 0, 0, 50, 219, 84, 63, 0, 0, 128, 191, 217, 57, 14, 63, 0, 130, 0, 0, 127, 0, 0, 129, 152, 59, 17, 59, 50, 219, 84, 63, 0, 0, 128, 191, 217, 57, 14, 63, 98, 0, 80, 0, 80, 0, 158, 127, 64, 57, 0, 56, 50, 219, 84, 63, 0, 0, 128, 191, 217, 57, 14, 63, 112, 0, 59, 0, 59, 0, 144, 127, 64, 57, 0, 56, 50, 219, 84, 63, 0, 0, 128, 63, 217, 57, 14, 63, 98, 0, 80, 0, 80, 0, 158, 127, 64, 57, 0, 0, 50, 219, 84, 63, 0, 0, 128, 63, 217, 57, 14, 63, 112, 0, 59, 0, 59, 0, 144, 127, 64, 57, 0, 0, 243, 4, 53, 63, 0, 0, 128, 191, 243, 4, 53, 63, 0, 130, 0, 0, 127, 0, 0, 129, 91, 59, 91, 59, 243, 4, 53, 63, 0, 0, 128, 191, 243, 4, 53, 63, 80, 0, 98, 0, 98, 0, 176, 127, 0, 57, 0, 56, 243, 4, 53, 63, 0, 0, 128, 191, 243, 4, 53, 63, 98, 0, 80, 0, 80, 0, 158, 127, 0, 57, 0, 56, 243, 4, 53, 63, 0, 0, 128, 63, 243, 4, 53, 63, 80, 0, 98, 0, 98, 0, 176, 127, 0, 57, 0, 0, 243, 4, 53, 63, 0, 0, 128, 63, 243, 4, 53, 63, 98, 0, 80, 0, 80, 0, 158, 127, 0, 57, 0, 0, 217, 57, 14, 63, 0, 0, 128, 191, 50, 219, 84, 63, 0, 130, 0, 0, 127, 0, 0, 129, 17, 59, 152, 59, 217, 57, 14, 63, 0, 0, 128, 191, 50, 219, 84, 63, 59, 0, 112, 0, 112, 0, 197, 127, 192, 56, 0, 56, 217, 57, 14, 63, 0, 0, 128, 191, 50, 219, 84, 63, 80, 0, 98, 0, 98, 0, 176, 127, 192, 56, 0, 56, 217, 57, 14, 63, 0, 0, 128, 63, 50, 219, 84, 63, 59, 0, 112, 0, 112, 0, 197, 127, 192, 56, 0, 0, 217, 57, 14, 63, 0, 0, 128, 63, 50, 219, 84, 63, 80, 0, 98, 0, 98, 0, 176, 127, 192, 56, 0, 0, 23, 239, 195, 62, 0, 0, 128, 191, 94, 131, 108, 63, 0, 130, 0, 0, 126, 0, 0, 129, 188, 58, 198, 59, 23, 239, 195, 62, 0, 0, 128, 191, 94, 131, 108, 63, 36, 0, 121, 0, 121, 0, 220, 127, 128, 56, 0, 56, 23, 239, 195, 62, 0, 0, 128, 191, 94, 131, 108, 63, 59, 0, 112, 0, 112, 0, 197, 127, 128, 56, 0, 56, 23, 239, 195, 62, 0, 0, 128, 63, 94, 131, 108, 63, 36, 0, 121, 0, 121, 0, 220, 127, 128, 56, 0, 0, 23, 239, 195, 62, 0, 0, 128, 63, 94, 131, 108, 63, 59, 0, 112, 0, 112, 0, 197, 127, 128, 56, 0, 0, 193, 197, 71, 62, 0, 0, 128, 191, 191, 20, 123, 63, 0, 130, 0, 0, 127, 0, 0, 129, 95, 58, 226, 59, 193, 197, 71, 62, 0, 0, 128, 191, 191, 20, 123, 63, 12, 0, 126, 0, 126, 0, 244, 127, 64, 56, 0, 56, 193, 197, 71, 62, 0, 0, 128, 191, 191, 20, 123, 63, 36, 0, 121, 0, 121, 0, 220, 127, 64, 56, 0, 56, 193, 197, 71, 62, 0, 0, 128, 63, 191, 20, 123, 63, 12, 0, 126, 0, 126, 0, 244, 127, 64, 56, 0, 0, 193, 197, 71, 62, 0, 0, 128, 63, 191, 20, 123, 63, 36, 0, 121, 0, 121, 0, 220, 127, 64, 56, 0, 0, 46, 189, 187, 179, 0, 0, 128, 191, 0, 0, 128, 63, 244, 0, 126, 0, 126, 0, 12, 127, 0, 56, 0, 56, 46, 189, 187, 179, 0, 0, 128, 191, 0, 0, 128, 63, 0, 130, 0, 0, 127, 0, 0, 129, 0, 58, 235, 59, 46, 189, 187, 179, 0, 0, 128, 191, 0, 0, 128, 63, 12, 0, 126, 0, 126, 0, 244, 127, 0, 56, 0, 56, 46, 189, 187, 179, 0, 0, 128, 63, 0, 0, 128, 63, 244, 0, 126, 0, 126, 0, 12, 127, 0, 56, 0, 0, 46, 189, 187, 179, 0, 0, 128, 63, 0, 0, 128, 63, 12, 0, 126, 0, 126, 0, 244, 127, 0, 56, 0, 0, 189, 197, 71, 190, 0, 0, 128, 191, 191, 20, 123, 63, 220, 0, 121, 0, 121, 0, 36, 127, 128, 55, 0, 56, 189, 197, 71, 190, 0, 0, 128, 191, 191, 20, 123, 63, 244, 0, 126, 0, 126, 0, 12, 127, 128, 55, 0, 56, 189, 197, 71, 190, 0, 0, 128, 191, 191, 20, 123, 63, 0, 130, 0, 0, 127, 0, 0, 129, 160, 57, 226, 59, 189, 197, 71, 190, 0, 0, 128, 63, 191, 20, 123, 63, 220, 0, 121, 0, 121, 0, 36, 127, 128, 55, 0, 0, 189, 197, 71, 190, 0, 0, 128, 63, 191, 20, 123, 63, 244, 0, 126, 0, 126, 0, 12, 127, 128, 55, 0, 0, 21, 239, 195, 190, 0, 0, 128, 191, 94, 131, 108, 63, 197, 0, 112, 0, 112, 0, 59, 127, 0, 55, 0, 56, 21, 239, 195, 190, 0, 0, 128, 191, 94, 131, 108, 63, 220, 0, 121, 0, 121, 0, 36, 127, 0, 55, 0, 56, 21, 239, 195, 190, 0, 0, 128, 191, 94, 131, 108, 63, 0, 130, 0, 0, 126, 0, 0, 129, 67, 57, 198, 59, 21, 239, 195, 190, 0, 0, 128, 63, 94, 131, 108, 63, 197, 0, 112, 0, 112, 0, 59, 127, 0, 55, 0, 0, 21, 239, 195, 190, 0, 0, 128, 63, 94, 131, 108, 63, 220, 0, 121, 0, 121, 0, 36, 127, 0, 55, 0, 0, 219, 57, 14, 191, 0, 0, 128, 191, 48, 219, 84, 63, 176, 0, 98, 0, 98, 0, 80, 127, 128, 54, 0, 56, 219, 57, 14, 191, 0, 0, 128, 191, 48, 219, 84, 63, 197, 0, 112, 0, 112, 0, 59, 127, 128, 54, 0, 56, 219, 57, 14, 191, 0, 0, 128, 191, 48, 219, 84, 63, 0, 130, 0, 0, 127, 0, 0, 129, 238, 56, 152, 59, 219, 57, 14, 191, 0, 0, 128, 63, 48, 219, 84, 63, 176, 0, 98, 0, 98, 0, 80, 127, 128, 54, 0, 0, 219, 57, 14, 191, 0, 0, 128, 63, 48, 219, 84, 63, 197, 0, 112, 0, 112, 0, 59, 127, 128, 54, 0, 0, 242, 4, 53, 191, 0, 0, 128, 191, 244, 4, 53, 63, 158, 0, 80, 0, 80, 0, 98, 127, 0, 54, 0, 56, 242, 4, 53, 191, 0, 0, 128, 191, 244, 4, 53, 63, 176, 0, 98, 0, 98, 0, 80, 127, 0, 54, 0, 56, 242, 4, 53, 191, 0, 0, 128, 191, 244, 4, 53, 63, 0, 130, 0, 0, 127, 0, 0, 129, 164, 56, 91, 59, 242, 4, 53, 191, 0, 0, 128, 63, 244, 4, 53, 63, 158, 0, 80, 0, 80, 0, 98, 127, 0, 54, 0, 0, 242, 4, 53, 191, 0, 0, 128, 63, 244, 4, 53, 63, 176, 0, 98, 0, 98, 0, 80, 127, 0, 54, 0, 0, 47, 219, 84, 191, 0, 0, 128, 191, 221, 57, 14, 63, 144, 0, 59, 0, 59, 0, 112, 127, 128, 53, 0, 56, 47, 219, 84, 191, 0, 0, 128, 191, 221, 57, 14, 63, 158, 0, 80, 0, 80, 0, 98, 127, 128, 53, 0, 56, 47, 219, 84, 191, 0, 0, 128, 191, 221, 57, 14, 63, 0, 130, 0, 0, 127, 0, 0, 129, 103, 56, 17, 59, 47, 219, 84, 191, 0, 0, 128, 63, 221, 57, 14, 63, 144, 0, 59, 0, 59, 0, 112, 127, 128, 53, 0, 0, 47, 219, 84, 191, 0, 0, 128, 63, 221, 57, 14, 63, 158, 0, 80, 0, 80, 0, 98, 127, 128, 53, 0, 0, 94, 131, 108, 191, 0, 0, 128, 191, 26, 239, 195, 62, 135, 0, 36, 0, 36, 0, 121, 127, 0, 53, 0, 56, 94, 131, 108, 191, 0, 0, 128, 191, 26, 239, 195, 62, 144, 0, 59, 0, 59, 0, 112, 127, 0, 53, 0, 56, 94, 131, 108, 191, 0, 0, 128, 191, 26, 239, 195, 62, 0, 130, 0, 0, 126, 0, 0, 129, 57, 56, 188, 58, 94, 131, 108, 191, 0, 0, 128, 63, 26, 239, 195, 62, 135, 0, 36, 0, 36, 0, 121, 127, 0, 53, 0, 0, 94, 131, 108, 191, 0, 0, 128, 63, 26, 239, 195, 62, 144, 0, 59, 0, 59, 0, 112, 127, 0, 53, 0, 0, 190, 20, 123, 191, 0, 0, 128, 191, 198, 197, 71, 62, 130, 0, 12, 0, 12, 0, 126, 127, 128, 52, 0, 56, 190, 20, 123, 191, 0, 0, 128, 191, 198, 197, 71, 62, 135, 0, 36, 0, 36, 0, 121, 127, 128, 52, 0, 56, 190, 20, 123, 191, 0, 0, 128, 191, 198, 197, 71, 62, 0, 130, 0, 0, 127, 0, 0, 129, 29, 56, 95, 58, 190, 20, 123, 191, 0, 0, 128, 63, 198, 197, 71, 62, 130, 0, 12, 0, 12, 0, 126, 127, 128, 52, 0, 0, 190, 20, 123, 191, 0, 0, 128, 63, 198, 197, 71, 62, 135, 0, 36, 0, 36, 0, 121, 127, 128, 52, 0, 0, 0, 0, 128, 191, 0, 0, 128, 191, 46, 222, 76, 178, 130, 0, 244, 0, 244, 0, 126, 127, 0, 52, 0, 56, 0, 0, 128, 191, 0, 0, 128, 191, 46, 222, 76, 178, 130, 0, 12, 0, 12, 0, 126, 127, 0, 52, 0, 56, 0, 0, 128, 191, 0, 0, 128, 191, 46, 222, 76, 178, 0, 130, 0, 0, 126, 0, 0, 129, 20, 56, 0, 58, 0, 0, 128, 191, 0, 0, 128, 63, 46, 222, 76, 178, 130, 0, 244, 0, 244, 0, 126, 127, 0, 52, 0, 0, 0, 0, 128, 191, 0, 0, 128, 63, 46, 222, 76, 178, 130, 0, 12, 0, 12, 0, 126, 127, 0, 52, 0, 0, 190, 20, 123, 191, 0, 0, 128, 191, 200, 197, 71, 190, 130, 0, 244, 0, 244, 0, 126, 127, 0, 51, 0, 56, 190, 20, 123, 191, 0, 0, 128, 191, 200, 197, 71, 190, 135, 0, 220, 0, 220, 0, 121, 127, 0, 51, 0, 56, 190, 20, 123, 191, 0, 0, 128, 191, 200, 197, 71, 190, 0, 130, 0, 0, 127, 0, 0, 129, 29, 56, 160, 57, 190, 20, 123, 191, 0, 0, 128, 63, 200, 197, 71, 190, 130, 0, 244, 0, 244, 0, 126, 127, 0, 51, 0, 0, 190, 20, 123, 191, 0, 0, 128, 63, 200, 197, 71, 190, 135, 0, 220, 0, 220, 0, 121, 127, 0, 51, 0, 0, 93, 131, 108, 191, 0, 0, 128, 191, 27, 239, 195, 190, 135, 0, 220, 0, 220, 0, 121, 127, 0, 50, 0, 56, 93, 131, 108, 191, 0, 0, 128, 191, 27, 239, 195, 190, 144, 0, 197, 0, 197, 0, 112, 127, 0, 50, 0, 56, 93, 131, 108, 191, 0, 0, 128, 191, 27, 239, 195, 190, 0, 130, 0, 0, 127, 0, 0, 129, 57, 56, 67, 57, 93, 131, 108, 191, 0, 0, 128, 63, 27, 239, 195, 190, 135, 0, 220, 0, 220, 0, 121, 127, 0, 50, 0, 0, 93, 131, 108, 191, 0, 0, 128, 63, 27, 239, 195, 190, 144, 0, 197, 0, 197, 0, 112, 127, 0, 50, 0, 0, 51, 219, 84, 191, 0, 0, 128, 191, 215, 57, 14, 191, 144, 0, 197, 0, 197, 0, 112, 127, 0, 49, 0, 56, 51, 219, 84, 191, 0, 0, 128, 191, 215, 57, 14, 191, 158, 0, 176, 0, 176, 0, 98, 127, 0, 49, 0, 56, 51, 219, 84, 191, 0, 0, 128, 191, 215, 57, 14, 191, 0, 130, 0, 0, 127, 0, 0, 129, 103, 56, 238, 56, 51, 219, 84, 191, 0, 0, 128, 63, 215, 57, 14, 191, 144, 0, 197, 0, 197, 0, 112, 127, 0, 49, 0, 0, 51, 219, 84, 191, 0, 0, 128, 63, 215, 57, 14, 191, 158, 0, 176, 0, 176, 0, 98, 127, 0, 49, 0, 0, 245, 4, 53, 191, 0, 0, 128, 191, 241, 4, 53, 191, 158, 0, 176, 0, 176, 0, 98, 127, 0, 48, 0, 56, 245, 4, 53, 191, 0, 0, 128, 191, 241, 4, 53, 191, 176, 0, 158, 0, 158, 0, 80, 127, 0, 48, 0, 56, 245, 4, 53, 191, 0, 0, 128, 191, 241, 4, 53, 191, 0, 130, 0, 0, 127, 0, 0, 129, 164, 56, 164, 56, 245, 4, 53, 191, 0, 0, 128, 63, 241, 4, 53, 191, 158, 0, 176, 0, 176, 0, 98, 127, 0, 48, 0, 0, 245, 4, 53, 191, 0, 0, 128, 63, 241, 4, 53, 191, 176, 0, 158, 0, 158, 0, 80, 127, 0, 48, 0, 0, 219, 57, 14, 191, 0, 0, 128, 191, 49, 219, 84, 191, 176, 0, 158, 0, 158, 0, 80, 127, 0, 46, 0, 56, 219, 57, 14, 191, 0, 0, 128, 191, 49, 219, 84, 191, 197, 0, 144, 0, 144, 0, 59, 127, 0, 46, 0, 56, 219, 57, 14, 191, 0, 0, 128, 191, 49, 219, 84, 191, 0, 130, 0, 0, 126, 0, 0, 129, 238, 56, 103, 56, 219, 57, 14, 191, 0, 0, 128, 63, 49, 219, 84, 191, 176, 0, 158, 0, 158, 0, 80, 127, 0, 46, 0, 0, 219, 57, 14, 191, 0, 0, 128, 63, 49, 219, 84, 191, 197, 0, 144, 0, 144, 0, 59, 127, 0, 46, 0, 0, 21, 239, 195, 190, 0, 0, 128, 191, 95, 131, 108, 191, 197, 0, 144, 0, 144, 0, 59, 127, 0, 44, 0, 56, 21, 239, 195, 190, 0, 0, 128, 191, 95, 131, 108, 191, 220, 0, 135, 0, 135, 0, 36, 127, 0, 44, 0, 56, 21, 239, 195, 190, 0, 0, 128, 191, 95, 131, 108, 191, 0, 130, 0, 0, 126, 0, 0, 129, 67, 57, 57, 56, 21, 239, 195, 190, 0, 0, 128, 63, 95, 131, 108, 191, 197, 0, 144, 0, 144, 0, 59, 127, 0, 44, 0, 0, 21, 239, 195, 190, 0, 0, 128, 63, 95, 131, 108, 191, 220, 0, 135, 0, 135, 0, 36, 127, 0, 44, 0, 0, 188, 197, 71, 190, 0, 0, 128, 191, 191, 20, 123, 191, 220, 0, 135, 0, 135, 0, 36, 127, 0, 40, 0, 56, 188, 197, 71, 190, 0, 0, 128, 191, 191, 20, 123, 191, 244, 0, 130, 0, 130, 0, 12, 127, 0, 40, 0, 56, 188, 197, 71, 190, 0, 0, 128, 191, 191, 20, 123, 191, 0, 130, 0, 0, 127, 0, 0, 129, 160, 57, 29, 56, 188, 197, 71, 190, 0, 0, 128, 63, 191, 20, 123, 191, 220, 0, 135, 0, 135, 0, 36, 127, 0, 40, 0, 0, 188, 197, 71, 190, 0, 0, 128, 63, 191, 20, 123, 191, 244, 0, 130, 0, 130, 0, 12, 127, 0, 40, 0, 0 ),
"array_index_data": PoolByteArray( 2, 0, 8, 0, 4, 0, 2, 0, 6, 0, 8, 0, 7, 0, 13, 0, 9, 0, 7, 0, 11, 0, 13, 0, 12, 0, 18, 0, 14, 0, 12, 0, 16, 0, 18, 0, 17, 0, 23, 0, 19, 0, 17, 0, 21, 0, 23, 0, 22, 0, 28, 0, 24, 0, 22, 0, 26, 0, 28, 0, 27, 0, 33, 0, 29, 0, 27, 0, 31, 0, 33, 0, 32, 0, 38, 0, 34, 0, 32, 0, 36, 0, 38, 0, 37, 0, 43, 0, 39, 0, 37, 0, 41, 0, 43, 0, 42, 0, 49, 0, 44, 0, 42, 0, 47, 0, 49, 0, 46, 0, 54, 0, 48, 0, 46, 0, 52, 0, 54, 0, 51, 0, 59, 0, 53, 0, 51, 0, 57, 0, 59, 0, 56, 0, 64, 0, 58, 0, 56, 0, 62, 0, 64, 0, 61, 0, 69, 0, 63, 0, 61, 0, 67, 0, 69, 0, 66, 0, 74, 0, 68, 0, 66, 0, 72, 0, 74, 0, 71, 0, 79, 0, 73, 0, 71, 0, 77, 0, 79, 0, 76, 0, 84, 0, 78, 0, 76, 0, 82, 0, 84, 0, 80, 0, 89, 0, 83, 0, 80, 0, 86, 0, 89, 0, 85, 0, 94, 0, 88, 0, 85, 0, 91, 0, 94, 0, 90, 0, 99, 0, 93, 0, 90, 0, 96, 0, 99, 0, 95, 0, 104, 0, 98, 0, 95, 0, 101, 0, 104, 0, 100, 0, 109, 0, 103, 0, 100, 0, 106, 0, 109, 0, 105, 0, 114, 0, 108, 0, 105, 0, 111, 0, 114, 0, 110, 0, 119, 0, 113, 0, 110, 0, 116, 0, 119, 0, 115, 0, 124, 0, 118, 0, 115, 0, 121, 0, 124, 0, 120, 0, 128, 0, 123, 0, 120, 0, 125, 0, 128, 0, 126, 0, 133, 0, 129, 0, 126, 0, 130, 0, 133, 0, 131, 0, 138, 0, 134, 0, 131, 0, 135, 0, 138, 0, 136, 0, 143, 0, 139, 0, 136, 0, 140, 0, 143, 0, 141, 0, 148, 0, 144, 0, 141, 0, 145, 0, 148, 0, 146, 0, 153, 0, 149, 0, 146, 0, 150, 0, 153, 0, 151, 0, 158, 0, 154, 0, 151, 0, 155, 0, 158, 0, 156, 0, 3, 0, 159, 0, 156, 0, 0, 0, 3, 0, 157, 0, 5, 0, 1, 0, 5, 0, 15, 0, 10, 0, 15, 0, 25, 0, 20, 0, 25, 0, 35, 0, 30, 0, 35, 0, 45, 0, 40, 0, 45, 0, 55, 0, 50, 0, 55, 0, 65, 0, 60, 0, 65, 0, 75, 0, 70, 0, 75, 0, 87, 0, 81, 0, 87, 0, 97, 0, 92, 0, 97, 0, 107, 0, 102, 0, 107, 0, 117, 0, 112, 0, 117, 0, 127, 0, 122, 0, 127, 0, 137, 0, 132, 0, 137, 0, 147, 0, 142, 0, 147, 0, 157, 0, 152, 0, 157, 0, 15, 0, 5, 0, 15, 0, 35, 0, 25, 0, 35, 0, 55, 0, 45, 0, 55, 0, 75, 0, 65, 0, 75, 0, 97, 0, 87, 0, 97, 0, 117, 0, 107, 0, 117, 0, 137, 0, 127, 0, 137, 0, 157, 0, 147, 0, 157, 0, 35, 0, 15, 0, 35, 0, 75, 0, 55, 0, 75, 0, 117, 0, 97, 0, 117, 0, 157, 0, 137, 0, 157, 0, 75, 0, 35, 0, 75, 0, 157, 0, 117, 0 ),
"blend_shape_data": [  ],
"format": 97559,
"index_count": 282,
"material": SubResource( 13 ),
"primitive": 4,
"skeleton_aabb": [  ],
"vertex_count": 160
}

[sub_resource type="BoxShape" id=15]
extents = Vector3( 0.641937, 0.0562262, 0.992768 )

[sub_resource type="CylinderShape" id=16]
radius = 0.0876742
height = 0.923769

[node name="Workbench" type="RigidBody"]
mass = 80.0

[node name="Plank" type="MeshInstance" parent="."]
transform = Transform( 0.211434, 0, 0, 0, 0.0633336, 0, 0, 0, 1, -0.251347, 0.900025, 0.100121 )
mesh = SubResource( 2 )
material/0 = null

[node name="Plank3" type="MeshInstance" parent="."]
transform = Transform( 0.211434, 0, 0, 0, 0.0633336, 0, 0, 0, 1, 0.19317, 0.900025, 0.100121 )
mesh = SubResource( 4 )
material/0 = null

[node name="Plank2" type="MeshInstance" parent="."]
transform = Transform( 0.211434, 0, 0, 0, 0.0633336, 0, 0, 0, 1, 0.624594, 0.900025, 0.100121 )
mesh = SubResource( 6 )
material/0 = null

[node name="Cylinder" type="MeshInstance" parent="."]
transform = Transform( 0.067628, 0, 0, 0, 0.504147, 0, 0, 0, 0.067628, -0.347544, 0.409074, -0.821035 )
mesh = SubResource( 8 )
material/0 = null

[node name="Cylinder001" type="MeshInstance" parent="."]
transform = Transform( 0.067628, 0, 0, 0, 0.504147, 0, 0, 0, 0.067628, 0.735709, 0.409074, -0.821035 )
mesh = SubResource( 10 )
material/0 = null

[node name="Cylinder002" type="MeshInstance" parent="."]
transform = Transform( 0.067628, 0, 0, 0, 0.504147, 0, 0, 0, 0.067628, 0.735709, 0.409074, 0.998086 )
mesh = SubResource( 12 )
material/0 = null

[node name="Cylinder003" type="MeshInstance" parent="."]
transform = Transform( 0.067628, 0, 0, 0, 0.504147, 0, 0, 0, 0.067628, -0.347544, 0.409074, 0.998086 )
mesh = SubResource( 14 )
material/0 = null

[node name="TableCollision" type="CollisionShape" parent="."]
transform = Transform( 1, 0, 0, 0, 1, 0, 0, 0, 1, 0.184651, 0.911164, 0.107948 )
shape = SubResource( 15 )

[node name="LegCollision" type="CollisionShape" parent="."]
transform = Transform( 1, 0, 0, 0, 1, 0, 0, 0, 1, -0.34695, 0.367897, -0.825286 )
shape = SubResource( 16 )

[node name="LegCollision2" type="CollisionShape" parent="."]
transform = Transform( 1, 0, 0, 0, 1, 0, 0, 0, 1, 0.741084, 0.367897, -0.825286 )
shape = SubResource( 16 )

[node name="LegCollision3" type="CollisionShape" parent="."]
transform = Transform( 1, 0, 0, 0, 1, 0, 0, 0, 1, 0.741084, 0.367897, 1.00269 )
shape = SubResource( 16 )

[node name="LegCollision4" type="CollisionShape" parent="."]
transform = Transform( 1, 0, 0, 0, 1, 0, 0, 0, 1, -0.349026, 0.367897, 1.00269 )
shape = SubResource( 16 )
