[gd_scene load_steps=5 format=2]

[ext_resource path="res://player/controller/freelook/FreelookController.gd" type="Script" id=1]
[ext_resource path="res://player/controller/freelook/FreelookCamera.gd" type="Script" id=3]
[ext_resource path="res://player/controller/base/BaseController.tscn" type="PackedScene" id=5]

[sub_resource type="SphereShape" id=1]
radius = 0.1

[node name="FreelookController" type="Spatial"]
script = ExtResource( 1 )

[node name="FreelookCamera" type="RigidBody" parent="."]
collision_layer = 524288
mass = 0.01
gravity_scale = 0.0
can_sleep = false
axis_lock_angular_x = true
axis_lock_angular_y = true
axis_lock_angular_z = true
angular_damp = 1.0
script = ExtResource( 3 )

[node name="CollisionShape" type="CollisionShape" parent="FreelookCamera"]
shape = SubResource( 1 )

[node name="RotatingGimbal" type="Spatial" parent="FreelookCamera" groups=[
"serialize",
]]

[node name="BaseController" parent="FreelookCamera/RotatingGimbal" instance=ExtResource( 5 )]
linked_controller_path = NodePath("../../..")
