[gd_scene load_steps=3 format=2]

[ext_resource path="res://font/Forum/Forum-Regular.ttf" type="DynamicFontData" id=1]

[sub_resource type="DynamicFont" id=1]
size = 26
outline_size = 1
outline_color = Color( 0.439216, 0.439216, 0.439216, 1 )
use_filter = true
font_data = ExtResource( 1 )

[node name="Loading" type="Panel"]
visible = false
anchor_right = 1.0
anchor_bottom = 1.0
__meta__ = {
"_edit_use_anchors_": false
}

[node name="Label" type="Label" parent="."]
anchor_left = 0.5
anchor_top = 0.5
anchor_right = 0.5
anchor_bottom = 0.5
margin_left = -50.0
margin_top = -15.0
margin_right = 50.0
margin_bottom = 15.0
custom_fonts/font = SubResource( 1 )
text = "Loading..."
