[gd_scene load_steps=5 format=2]

[ext_resource path="res://actor/bee/parts/Body.shader" type="Shader" id=1]
[ext_resource path="res://actor/bee/parts/Body.gd" type="Script" id=2]

[sub_resource type="CapsuleMesh" id=1]
radius = 0.1
mid_height = 0.05
radial_segments = 9
rings = 1

[sub_resource type="ShaderMaterial" id=2]
shader = ExtResource( 1 )
shader_param/breathing_intensity = 0.001
shader_param/buzz_intensity = 0.001

[node name="Body" type="Spatial"]
script = ExtResource( 2 )

[node name="MeshInstance" type="MeshInstance" parent="."]
mesh = SubResource( 1 )
material/0 = SubResource( 2 )
