[gd_scene load_steps=3 format=2]

[ext_resource path="res://world/effect/fire/heatarea/HeatArea.gd" type="Script" id=1]

[sub_resource type="SphereShape" id=1]
radius = 2.0

[node name="HeatArea" type="Area"]
script = ExtResource( 1 )
heat_distance = 2.0

[node name="CollisionShape" type="CollisionShape" parent="."]
shape = SubResource( 1 )

[node name="Timer" type="Timer" parent="."]
autostart = true

[connection signal="body_entered" from="." to="." method="_on_HeatArea_body_entered"]
[connection signal="body_exited" from="." to="." method="_on_HeatArea_body_exited"]
[connection signal="timeout" from="Timer" to="." method="_on_Timer_timeout"]
