[gd_resource type="SpatialMaterial" load_steps=2 format=2]

[ext_resource path="res://texture/foliage/pinetreeleaves.png" type="Texture" id=1]

[resource]
flags_transparent = true
params_cull_mode = 2
params_depth_draw_mode = 3
albedo_texture = ExtResource( 1 )
metallic_specular = 0.0
