[gd_scene load_steps=5 format=2]

[ext_resource path="res://mesh/house/floor_stairs.obj" type="ArrayMesh" id=1]
[ext_resource path="res://material/house/WallExterior.tres" type="Material" id=2]

[sub_resource type="BoxShape" id=3]
extents = Vector3( 3, 0.05, 2 )

[sub_resource type="BoxShape" id=4]
extents = Vector3( 0.600159, 0.05, 1 )

[node name="FloorStairs" type="StaticBody" groups=[
"flammable",
]]
collision_layer = 262145

[node name="MeshInstance" type="MeshInstance" parent="."]
material_override = ExtResource( 2 )
mesh = ExtResource( 1 )
material/0 = null

[node name="CollisionShape" type="CollisionShape" parent="."]
transform = Transform( 1, 0, 0, 0, 1, 0, 0, 0, 1, 0, 0, -0.999757 )
shape = SubResource( 3 )

[node name="CollisionShape2" type="CollisionShape" parent="."]
transform = Transform( 1, 0, 0, 0, 1, 0, 0, 0, 1, -2.40189, 0, 2.00388 )
shape = SubResource( 4 )
