[gd_scene load_steps=3 format=2]

[ext_resource path="res://world/effect/fire/heatarea/HeatArea.tscn" type="PackedScene" id=1]
[ext_resource path="res://world/effect/fire/flamebody/FlameBody.gd" type="Script" id=4]

[node name="FlameBody" type="Spatial"]
script = ExtResource( 4 )
__meta__ = {
"_editor_description_": "This is added to every RigidBody that can be set on fire."
}

[node name="Timer" type="Timer" parent="."]
wait_time = 0.4

[node name="HeatArea" parent="." instance=ExtResource( 1 )]
intensity = 0.0

[node name="Effects" type="Spatial" parent="."]

[node name="Covers" type="Spatial" parent="."]

[connection signal="timeout" from="Timer" to="." method="_on_Timer_timeout"]
