[gd_resource type="SpatialMaterial" load_steps=2 format=2]

[ext_resource path="res://texture/interior/book.png" type="Texture" id=1]

[resource]
resource_name = "Material.001"
albedo_color = Color( 0.8, 0.8, 0.8, 1 )
albedo_texture = ExtResource( 1 )
metallic = 0.061224
