[gd_scene load_steps=3 format=2]

[ext_resource path="res://mesh/house/wall_2x.obj" type="ArrayMesh" id=1]
[ext_resource path="res://material/house/WallExterior.tres" type="Material" id=2]

[node name="RoofWallInterior" type="MeshInstance"]
material_override = ExtResource( 2 )
mesh = ExtResource( 1 )
material/0 = null
