[gd_scene load_steps=4 format=2]

[ext_resource path="res://texture/terrain/albedo_scale.png" type="Texture" id=1]
[ext_resource path="res://world/terrain/heightmap/noise/HeightMap.tscn" type="PackedScene" id=2]
[ext_resource path="res://world/terrain/base/TerrainBase.tscn" type="PackedScene" id=3]

[node name="TerrainNH256x256LOD0" type="Spatial"]

[node name="TerrainBase" parent="." instance=ExtResource( 3 )]
size = Vector2( 256, 256 )
mesh_resolution = 4.225
collision_resolution = 3.0
albedo_scale = ExtResource( 1 )

[node name="HeightMap" parent="TerrainBase" instance=ExtResource( 2 )]
