[gd_scene load_steps=7 format=2]

[ext_resource path="res://mesh/house/wall_window.obj" type="ArrayMesh" id=1]
[ext_resource path="res://material/house/WallInterior.tres" type="Material" id=2]
[ext_resource path="res://material/house/WallExterior.tres" type="Material" id=3]

[sub_resource type="BoxShape" id=3]
extents = Vector3( 1.5, 0.605, 0.05 )

[sub_resource type="BoxShape" id=4]
extents = Vector3( 1.499, 0.326647, 0.05 )

[sub_resource type="BoxShape" id=5]
extents = Vector3( 0.368247, 0.567368, 0.05 )

[node name="WallWindow" type="StaticBody" groups=[
"flammable",
]]
collision_layer = 262145

[node name="WallWindow" type="MeshInstance" parent="."]
mesh = ExtResource( 1 )
material/0 = ExtResource( 3 )

[node name="WallWindow2" type="MeshInstance" parent="."]
transform = Transform( -1, 0, -8.74228e-08, 0, 1, 0, 8.74228e-08, 0, -1, 0, 0, 0 )
mesh = ExtResource( 1 )
material/0 = ExtResource( 2 )

[node name="CollisionShape" type="CollisionShape" parent="."]
transform = Transform( 1, 0, 0, 0, 1, 0, 0, 0, 1, 0, 0.606108, 0 )
shape = SubResource( 3 )

[node name="CollisionShape2" type="CollisionShape" parent="."]
transform = Transform( 1, 0, 0, 0, 1, 0, 0, 0, 1, 0, 2.67291, 0 )
shape = SubResource( 4 )

[node name="CollisionShape3" type="CollisionShape" parent="."]
transform = Transform( 1, 0, 0, 0, 1, 0, 0, 0, 1, -1.13235, 1.77885, 0 )
shape = SubResource( 5 )

[node name="CollisionShape4" type="CollisionShape" parent="."]
transform = Transform( 1, 0, 0, 0, 1, 0, 0, 0, 1, 1.132, 1.779, 0 )
shape = SubResource( 5 )
