[gd_scene load_steps=3 format=2]

[ext_resource path="res://world/terrain/base/TerrainBase.tscn" type="PackedScene" id=1]
[ext_resource path="res://world/terrain/heightmap/debugY/HeightMap.tscn" type="PackedScene" id=2]



[node name="YDebugTerrain" type="Spatial"]

[node name="TerrainBase" parent="." instance=ExtResource( 1 )]
mesh_resolution = 2.0
collision_resolution = 4.0
albedo_low_limit = -1.0

[node name="HeightMap" parent="TerrainBase" instance=ExtResource( 2 )]
