[gd_scene load_steps=4 format=2]

[ext_resource path="res://world/terrain/base/TerrainBase.tscn" type="PackedScene" id=1]
[ext_resource path="res://texture/terrain/albedo_scale.png" type="Texture" id=2]
[ext_resource path="res://world/terrain/heightmap/noise/HeightMap.tscn" type="PackedScene" id=3]

[node name="NoiseHills" type="Spatial"]

[node name="TerrainBase" parent="." instance=ExtResource( 1 )]
size = Vector2( 1024, 1024 )
mesh_resolution = 100.0
collision_resolution = 25.0
albedo_scale = ExtResource( 2 )

[node name="HeightMap" parent="TerrainBase" instance=ExtResource( 3 )]
