[gd_scene load_steps=3 format=2]

[ext_resource path="res://world/terrain/base/TerrainBase.tscn" type="PackedScene" id=1]
[ext_resource path="res://world/terrain/heightmap/noise/HeightMap.tscn" type="PackedScene" id=2]

[node name="Noise" type="Spatial"]

[node name="TerrainBase" parent="." instance=ExtResource( 1 )]
size = Vector2( 16, 16 )
mesh_resolution = 20.0
collision_resolution = 20.0

[node name="HeightMap" parent="TerrainBase" instance=ExtResource( 2 )]
