[gd_scene load_steps=3 format=2]

[ext_resource path="res://player/detail/tiereddetail/TieredDetail.gd" type="Script" id=3]

[sub_resource type="BoxShape" id=1]

[node name="TieredDetail" type="Spatial"]
script = ExtResource( 3 )
expand_count = 2
size = 15.0

[node name="Tracker" type="Spatial" parent="."]
transform = Transform( 7.5, 0, 0, 0, 7.5, 0, 0, 0, 7.5, 0, 0, 0 )

[node name="Area" type="Area" parent="Tracker"]

[node name="CollisionShape" type="CollisionShape" parent="Tracker/Area"]
shape = SubResource( 1 )

[node name="DebugView" type="Spatial" parent="."]

[node name="Instances" type="Spatial" parent="."]

[connection signal="area_exited" from="Tracker/Area" to="." method="_on_Area_area_exited"]
