[gd_scene load_steps=2 format=2]

[ext_resource path="res://actor/common/sensor/altitude/AltitudeSensor.gd" type="Script" id=1]

[node name="AltitudeSensor" type="Spatial"]
script = ExtResource( 1 )

[node name="RayCast" type="RayCast" parent="."]
enabled = true
cast_to = Vector3( 0, -100, 0 )
