[gd_scene load_steps=5 format=2]

[ext_resource path="res://actor/rabbit/driver/Driver.gd" type="Script" id=1]

[sub_resource type="BoxShape" id=1]
extents = Vector3( 0.25, 0.196436, 0.25 )

[sub_resource type="CubeMesh" id=2]
size = Vector3( 0.5, 0.5, 0.6 )

[sub_resource type="CubeMesh" id=3]
size = Vector3( 0.05, 0.2, 0.05 )

[node name="RabbitDriver" type="RigidBody"]
script = ExtResource( 1 )

[node name="CollisionShape" type="CollisionShape" parent="."]
shape = SubResource( 1 )

[node name="MeshInstance" type="MeshInstance" parent="."]
mesh = SubResource( 2 )
material/0 = null

[node name="RightEar" type="MeshInstance" parent="."]
transform = Transform( 1, 0, 0, 0, 1, 0, 0, 0, 1, 0.227875, 0.350813, -0.279184 )
mesh = SubResource( 3 )
material/0 = null

[node name="LeftEar" type="MeshInstance" parent="."]
transform = Transform( 1, 0, 0, 0, 1, 0, 0, 0, 1, -0.213037, 0.341267, -0.262343 )
mesh = SubResource( 3 )
material/0 = null
