[gd_scene load_steps=3 format=2]

[sub_resource type="CubeMesh" id=1]
size = Vector3( 0.12, 0.35, 0.12 )

[sub_resource type="SpatialMaterial" id=6]
albedo_color = Color( 0.494118, 0.423529, 0.294118, 1 )

[node name="ArmVariant2" type="Spatial"]
transform = Transform( 1, 0, 0, 0, 1, 0, 0, 0, 1, 0.13, 0, 0 )

[node name="MeshInstance" type="MeshInstance" parent="."]
transform = Transform( -1.62921e-07, 1, 0, -1, -1.62921e-07, 0, 0, 0, 1, 0, 0, 0 )
mesh = SubResource( 1 )
material/0 = SubResource( 6 )
