[gd_scene load_steps=5 format=2]

[ext_resource path="res://world/foliage/gen/fruit/FruitGen.gd" type="Script" id=1]
[ext_resource path="res://mesh/foliage/fruit/fruit0.obj" type="ArrayMesh" id=2]
[ext_resource path="res://texture/foliage/fruit.png" type="Texture" id=3]

[sub_resource type="SpatialMaterial" id=1]
albedo_color = Color( 0, 0.6, 0.1, 1 )
albedo_texture = ExtResource( 3 )

[node name="FruitGen" type="Spatial"]
transform = Transform( 0, 0, 0, 0, 0, 0, 0, 0, 0, 0, 0, 0 )
script = ExtResource( 1 )

[node name="MeshInstance" type="MeshInstance" parent="."]
mesh = ExtResource( 2 )
material/0 = SubResource( 1 )
