[gd_scene load_steps=5 format=2]

[ext_resource path="res://mesh/interior/jar/jar.obj" type="ArrayMesh" id=1]
[ext_resource path="res://shader/material/Glass.shader" type="Shader" id=2]

[sub_resource type="ShaderMaterial" id=1]
render_priority = 1
shader = ExtResource( 2 )

[sub_resource type="ConvexPolygonShape" id=2]
points = PoolVector3Array( -0.025511, 0.049531, -0.11433, -0.106134, 0.049531, -0.074169, -0.016382, -0.074993, -0.073397, -0.067862, -0.074993, -0.047752, -0.004294, 0.110964, -0.019203, -0.025511, 0.049531, -0.11433, 0.010579, 0.110964, -0.017475, 0.067452, 0.049531, -0.103534, -0.017193, 0.110964, -0.012777, -0.004294, 0.110964, -0.019203, -0.025735, 0.286697, -0.018673, -0.006332, 0.286697, -0.028339, 0.08167, 0.049531, 0.096051, 0.127452, 0.049531, -0.016559, 0.052059, -0.074993, 0.060941, 0.081292, -0.074993, -0.010966, -0.106134, 0.049531, -0.074169, -0.120547, 0.049531, 0.044537, -0.067862, -0.074993, -0.047752, -0.077066, -0.074993, 0.028047, 0.127452, 0.049531, -0.016559, 0.067452, 0.049531, -0.103534, 0.081292, -0.074993, -0.010966, 0.04298, -0.074993, -0.066503, -0.120547, 0.049531, 0.044537, -0.036572, 0.049531, 0.115756, -0.077066, -0.074993, 0.028047, -0.023444, -0.074993, 0.073523, 0.010579, 0.110964, -0.017475, 0.016042, 0.286697, -0.025741, 0.020179, 0.110964, -0.00356, 0.127452, 0.049531, -0.016559, 0.012854, 0.110964, 0.014456, 0.08167, 0.049531, 0.096051, -0.006064, 0.110964, 0.017609, -0.036572, 0.049531, 0.115756, -0.019499, 0.110964, 0.006215, -0.120547, 0.049531, 0.044537, -0.017193, 0.110964, -0.012777, -0.106134, 0.049531, -0.074169, 0.04298, -0.074993, -0.066503, -0.016382, -0.074993, -0.073397, 0.081292, -0.074993, -0.010966, 0.052059, -0.074993, 0.060941, -0.023444, -0.074993, 0.073523, -0.077066, -0.074993, 0.028047, -0.067862, -0.074993, -0.047752, -0.019499, 0.110964, 0.006215, -0.017193, 0.110964, -0.012777, -0.029204, 0.286697, 0.009895, -0.025735, 0.286697, -0.018673, -0.006064, 0.110964, 0.017609, -0.019499, 0.110964, 0.006215, -0.008994, 0.286697, 0.027035, -0.029204, 0.286697, 0.009895, 0.012854, 0.110964, 0.014456, 0.019463, 0.286697, 0.022293, 0.030481, 0.286697, -0.004809, 0.020179, 0.110964, -0.00356, 0.030481, 0.286697, -0.004809, 0.020179, 0.110964, -0.00356, -0.006332, 0.286697, -0.028339, 0.016042, 0.286697, -0.025741, -0.025735, 0.286697, -0.018673, -0.025735, 0.286697, -0.018673, 0.016042, 0.286697, -0.025741, -0.008994, 0.286697, 0.027035, 0.016042, 0.286697, -0.025741, 0.019463, 0.286697, 0.022293, 0.030481, 0.286697, -0.004809 )

[node name="Jar" type="Spatial"]

[node name="RigidBody" type="RigidBody" parent="."]

[node name="MeshInstance" type="MeshInstance" parent="RigidBody"]
material_override = SubResource( 1 )
mesh = ExtResource( 1 )
material/0 = null

[node name="CollisionShape" type="CollisionShape" parent="RigidBody"]
shape = SubResource( 2 )
