[gd_scene load_steps=3 format=2]

[ext_resource path="res://material/foliage/tree/Trunk.tres" type="Material" id=1]
[ext_resource path="res://mesh/foliage/tree/pine/PineTreeTrunk.obj" type="ArrayMesh" id=2]

[node name="PineTreeTrunk" type="Spatial"]

[node name="MeshInstance" type="MeshInstance" parent="."]
mesh = ExtResource( 2 )
material/0 = ExtResource( 1 )
