[gd_scene load_steps=4 format=2]

[ext_resource path="res://world/village/FarmHouses.tscn" type="PackedScene" id=1]
[ext_resource path="res://world/environment/global/GlobalEnvironment.tscn" type="PackedScene" id=2]
[ext_resource path="res://player/controller/player/PlayerController.tscn" type="PackedScene" id=3]

[node name="FarmHousesScene" type="Spatial"]

[node name="FarmHouses" parent="." instance=ExtResource( 1 )]

[node name="GlobalEnvironment" parent="." instance=ExtResource( 2 )]
transform = Transform( 1, 0, 0, 0, 1, 0, 0, 0, 1, 0, 3, 0 )
day_of_year = 125
hour_of_day = 9

[node name="PlayerController" parent="." instance=ExtResource( 3 )]
transform = Transform( 0.819152, 0, 0.573576, 0, 1, 0, -0.573576, 0, 0.819152, 9, 0.6, -0.6 )
active = true
