[gd_scene load_steps=4 format=2]

[ext_resource path="res://mesh/interior/book/book_back.obj" type="ArrayMesh" id=1]
[ext_resource path="res://material/interior/Paper.tres" type="Material" id=2]
[ext_resource path="res://material/interior/Book.tres" type="Material" id=3]

[node name="BookBack" type="Spatial"]

[node name="MeshInstance" type="MeshInstance" parent="."]
transform = Transform( 1, 0, 0, 0, 1, 0, 0, 0, 1, 0.0962938, 0, 0 )
mesh = ExtResource( 1 )
material/0 = ExtResource( 3 )
material/1 = ExtResource( 2 )
