[gd_scene load_steps=5 format=2]

[ext_resource path="res://font/Forum/Forum-Regular.ttf" type="DynamicFontData" id=1]
[ext_resource path="res://ui/journal/quest/EntryContainer.gd" type="Script" id=2]

[sub_resource type="StyleBoxFlat" id=1]
bg_color = Color( 0, 0, 0, 0.12549 )

[sub_resource type="DynamicFont" id=2]
size = 32
outline_color = Color( 0, 0, 0, 1 )
font_data = ExtResource( 1 )

[node name="EntryContainer" type="PanelContainer"]
anchor_right = 1.0
anchor_bottom = 1.0
margin_left = 25.0
margin_top = 25.0
margin_right = 25.0
margin_bottom = 25.0
size_flags_horizontal = 3
custom_styles/panel = SubResource( 1 )
script = ExtResource( 2 )
__meta__ = {
"_edit_use_anchors_": false
}

[node name="MarginContainer" type="MarginContainer" parent="."]
margin_right = 1024.0
margin_bottom = 600.0
custom_constants/margin_right = 25
custom_constants/margin_top = 25
custom_constants/margin_left = 25
custom_constants/margin_bottom = 25

[node name="RichTextLabel" type="RichTextLabel" parent="MarginContainer"]
margin_left = 25.0
margin_top = 25.0
margin_right = 999.0
margin_bottom = 575.0
custom_fonts/normal_font = SubResource( 2 )
custom_colors/default_color = Color( 0, 0, 0, 1 )
bbcode_enabled = true
bbcode_text = "This is a sample journal entry. It goes on and on and on."
text = "This is a sample journal entry. It goes on and on and on."
fit_content_height = true
