[gd_scene load_steps=6 format=2]

[ext_resource path="res://font/Forum/Forum-Regular.ttf" type="DynamicFontData" id=1]

[sub_resource type="StyleBoxFlat" id=6]
bg_color = Color( 0.803922, 0.819608, 0.192157, 1 )
border_width_left = 2
border_width_top = 2
border_width_right = 2
border_width_bottom = 2
border_color = Color( 0, 0, 0, 1 )
corner_radius_top_left = 5
corner_radius_top_right = 5
corner_radius_bottom_right = 5
corner_radius_bottom_left = 5

[sub_resource type="StyleBoxFlat" id=7]
bg_color = Color( 0.494118, 0.486275, 0, 1 )
border_width_left = 2
border_width_top = 2
border_width_right = 2
border_width_bottom = 2
border_color = Color( 0, 0, 0, 1 )
corner_radius_top_left = 5
corner_radius_top_right = 5
corner_radius_bottom_right = 5
corner_radius_bottom_left = 5

[sub_resource type="StyleBoxFlat" id=8]
bg_color = Color( 0.85098, 0.847059, 0.352941, 1 )
border_width_left = 2
border_width_top = 2
border_width_right = 2
border_width_bottom = 2
border_color = Color( 0, 0, 0, 1 )
corner_radius_top_left = 5
corner_radius_top_right = 5
corner_radius_bottom_right = 5
corner_radius_bottom_left = 5

[sub_resource type="DynamicFont" id=9]
size = 32
font_data = ExtResource( 1 )

[node name="JournalButton" type="Button"]
margin_right = 40.0
margin_bottom = 20.0
mouse_default_cursor_shape = 2
size_flags_horizontal = 3
custom_styles/hover = SubResource( 6 )
custom_styles/pressed = SubResource( 7 )
custom_styles/normal = SubResource( 8 )
custom_fonts/font = SubResource( 9 )
custom_colors/font_color_disabled = Color( 0, 0, 0, 1 )
custom_colors/font_color = Color( 0, 0, 0, 1 )
custom_colors/font_color_hover = Color( 0, 0, 0, 1 )
custom_colors/font_color_pressed = Color( 0, 0, 0, 1 )
toggle_mode = true
text = "Click"
__meta__ = {
"_edit_use_anchors_": false
}
