[gd_scene load_steps=4 format=2]

[ext_resource path="res://ui/journal/quest/PageContainer.gd" type="Script" id=1]
[ext_resource path="res://font/EastSeaDokdo/EastSeaDokdo-Regular.ttf" type="DynamicFontData" id=2]

[sub_resource type="DynamicFont" id=1]
size = 64
outline_color = Color( 0, 0, 0, 1 )
font_data = ExtResource( 2 )

[node name="PageContainer" type="VBoxContainer"]
anchor_right = 1.0
anchor_bottom = 1.0
size_flags_horizontal = 3
script = ExtResource( 1 )
__meta__ = {
"_edit_use_anchors_": false
}

[node name="Title" type="RichTextLabel" parent="."]
margin_right = 1024.0
margin_bottom = 100.0
rect_min_size = Vector2( 0, 100 )
size_flags_horizontal = 3
custom_fonts/normal_font = SubResource( 1 )
custom_colors/default_color = Color( 0, 0, 0, 1 )
bbcode_enabled = true
bbcode_text = "[center]Some Text[/center]"
text = "Some Text"
scroll_active = false
__meta__ = {
"_edit_use_anchors_": false
}

[node name="ScrollContainer" type="ScrollContainer" parent="."]
margin_top = 104.0
margin_right = 1024.0
margin_bottom = 600.0
size_flags_vertical = 3
scroll_horizontal_enabled = false
__meta__ = {
"_edit_use_anchors_": false
}

[node name="Entries" type="VBoxContainer" parent="ScrollContainer"]
margin_right = 1024.0
margin_bottom = 496.0
size_flags_horizontal = 3
size_flags_vertical = 3
