[gd_scene load_steps=2 format=2]

[ext_resource path="res://handler/builder/BuilderHandler.gd" type="Script" id=1]

[node name="BuilderHandler" type="Spatial"]
transform = Transform( 1, 0, 0, 0, 1, 0, 0, 0, 1, 0, 0, -1 )
script = ExtResource( 1 )
