[gd_scene load_steps=3 format=2]

[ext_resource path="res://world/interior/table/StudyCabinetShellWithStopper.tscn" type="PackedScene" id=1]
[ext_resource path="res://world/interior/table/StudyCabinetDoor.tscn" type="PackedScene" id=2]

[node name="StudyCabinetWithDoor" type="Spatial"]

[node name="StudyCabinetDoor" parent="." instance=ExtResource( 2 )]
transform = Transform( -4.37114e-08, 0, 1, 0, 1, 0, -1, 0, -4.37114e-08, 0.369889, 0.0825519, -0.00770478 )

[node name="StudyCabinetShellWithStopper" parent="." instance=ExtResource( 1 )]
transform = Transform( 1, 0, 0, 0, 1, 0, 0, 0, 1, -0.0106959, 0, 0 )
