[gd_scene load_steps=5 format=2]

[sub_resource type="SpatialMaterial" id=7]
albedo_color = Color( 0.341176, 0.243137, 0.0431373, 1 )

[sub_resource type="CubeMesh" id=8]
material = SubResource( 7 )
size = Vector3( 0.15, 0.35, 0.05 )

[sub_resource type="SpatialMaterial" id=9]
albedo_color = Color( 0.341176, 0.243137, 0.0431373, 1 )

[sub_resource type="CubeMesh" id=10]
material = SubResource( 9 )
size = Vector3( 0.455, 0.15, 0.455 )

[node name="HeadVariant" type="Spatial"]

[node name="MeshInstance3" type="MeshInstance" parent="."]
transform = Transform( 0.8, 0, 0, 0, 0.739839, 0.304366, 0, -0.304366, 0.739839, 0.0486546, 0.236074, 0.198801 )
mesh = SubResource( 8 )
material/0 = null

[node name="MeshInstance4" type="MeshInstance" parent="."]
transform = Transform( 0.8, 0, 0, 0, 0.8, 0, 0, 0, 0.8, 0, 0.324155, -0.00073477 )
mesh = SubResource( 10 )
material/0 = null
