[gd_scene load_steps=3 format=2]

[ext_resource path="res://world/terrain/heightmap/noise/HeightMap.gd" type="Script" id=1]
[ext_resource path="res://shader/terrain/shape/Noise.shader" type="Shader" id=2]

[node name="HeightMap" type="Spatial"]
script = ExtResource( 1 )
shader = ExtResource( 2 )
