[gd_scene load_steps=6 format=2]

[ext_resource path="res://mesh/house/roof_panels_flat_2x.obj" type="ArrayMesh" id=1]
[ext_resource path="res://mesh/house/roof_ceiling_flat_2x.obj" type="ArrayMesh" id=2]
[ext_resource path="res://material/house/WallInterior.tres" type="Material" id=3]
[ext_resource path="res://material/house/RoofPanel.tres" type="Material" id=4]

[sub_resource type="BoxShape" id=1]
extents = Vector3( 3, 0.05, 3 )

[node name="RoofPanelFlat2x2z" type="StaticBody" groups=[
"flammable",
]]
collision_layer = 262145
collision_mask = 262145

[node name="MeshInstance" type="MeshInstance" parent="."]
transform = Transform( 1, 0, 0, 0, 1, 0, 0, 0, 1, 4.54747e-13, 0, 0 )
material_override = ExtResource( 4 )
mesh = ExtResource( 1 )
material/0 = null

[node name="MeshInstanceInterior" type="MeshInstance" parent="."]
transform = Transform( 1, 0, 0, 0, 1, 0, 0, 0, 1, 4.54747e-13, 0, 0 )
material_override = ExtResource( 3 )
mesh = ExtResource( 2 )
material/0 = null

[node name="CollisionShape" type="CollisionShape" parent="."]
shape = SubResource( 1 )
