[gd_scene load_steps=5 format=2]

[ext_resource path="res://material/house/WallExterior.tres" type="Material" id=1]

[sub_resource type="BoxShape" id=1]
extents = Vector3( 0.226978, 1.06531, 0.22591 )

[sub_resource type="SphereMesh" id=2]
radius = 0.32
height = 1.5
radial_segments = 4
rings = 2

[sub_resource type="CubeMesh" id=3]
size = Vector3( 0.4, 1.5, 0.4 )

[node name="FencePost" type="Spatial"]

[node name="StaticBody" type="StaticBody" parent="."]
transform = Transform( 1, 0, 0, 0, 1, 0, 0, 0, 1, 0, 0.7, 0 )

[node name="CollisionShape" type="CollisionShape" parent="StaticBody"]
transform = Transform( 1, 0, 0, 0, 1, 0, 0, 0, 1, 0, 0.07254, 0 )
shape = SubResource( 1 )

[node name="FencePostTop" type="MeshInstance" parent="StaticBody"]
transform = Transform( 0.707107, 0, 0.707107, 0, 1, 0, -0.707107, 0, 0.707107, 0, 0.3884, 0 )
mesh = SubResource( 2 )
material/0 = ExtResource( 1 )

[node name="FencePost" type="MeshInstance" parent="StaticBody"]
transform = Transform( 1, 0, 0, 0, 1, 0, 0, 0, 1, 0, -0.247125, 0 )
material_override = ExtResource( 1 )
mesh = SubResource( 3 )
material/0 = null
