[gd_scene load_steps=6 format=2]

[ext_resource path="res://world/house/parts/foundation/StoneFoundation2x1.tscn" type="PackedScene" id=1]
[ext_resource path="res://world/lod/house/parts/1x1x1BlockLOD0.tscn" type="PackedScene" id=2]
[ext_resource path="res://world/lod/house/parts/2x1x1BlockLOD0.tscn" type="PackedScene" id=3]
[ext_resource path="res://world/lod/house/parts/2x1x1RoofLOD0.tscn" type="PackedScene" id=4]
[ext_resource path="res://world/house/frame/WallPillar.tscn" type="PackedScene" id=5]

[node name="CarpentersHouseLOD0" type="Spatial"]

[node name="2x1x1BlockLOD0" parent="." instance=ExtResource( 3 )]
transform = Transform( -1, 0, 0, 0, 1, 0, 0, 0, -1, 0, 2.95615, 0 )

[node name="1x1x1BlockLOD0" parent="." instance=ExtResource( 2 )]
transform = Transform( -1, 0, -8.74228e-08, 0, 1, 0, 8.74228e-08, 0, -1, -0.0218339, 0.0286396, 3.02412 )

[node name="2x1x1RoofLOD0" parent="." instance=ExtResource( 4 )]
transform = Transform( 1, 0, 0, 0, 1, 0, 0, 0, 1, 0, 6.24193, 0 )

[node name="WallPillar" parent="." instance=ExtResource( 5 )]
transform = Transform( 1, 0, 0, 0, 1, 0, 0, 0, 1, 2.91979, 0, -5.92778 )

[node name="WallPillar2" parent="." instance=ExtResource( 5 )]
transform = Transform( 1, 0, 0, 0, 1, 0, 0, 0, 1, -2.93505, 0, -5.91067 )

[node name="StaticBody" parent="." instance=ExtResource( 1 )]
