[gd_scene load_steps=4 format=2]

[ext_resource path="res://mesh/lod/house/house1x1.obj" type="ArrayMesh" id=1]
[ext_resource path="res://texture/house/1x1house.png" type="Texture" id=2]

[sub_resource type="SpatialMaterial" id=1]
albedo_texture = ExtResource( 2 )
metallic_specular = 0.0

[node name="Simple1x1HouseLOD0" type="Spatial"]

[node name="MeshInstance" type="MeshInstance" parent="."]
transform = Transform( -1, 0, -1.50996e-07, 0, 1, 0, 1.50996e-07, 0, -1, 0, 0, 0 )
mesh = ExtResource( 1 )
material/0 = SubResource( 1 )
