[gd_scene load_steps=3 format=2]

[sub_resource type="SpatialMaterial" id=3]
albedo_color = Color( 0.976471, 0.819608, 0.647059, 1 )

[sub_resource type="CubeMesh" id=2]
material = SubResource( 3 )
size = Vector3( 0.185, 0.38, 0.185 )

[node name="LegVariant2" type="Spatial"]

[node name="MeshInstance2" type="MeshInstance" parent="."]
mesh = SubResource( 2 )
material/0 = null
